xof 0302txt 0064
template Header {
 <3D82AB43-62DA-11cf-AB39-0020AF71E433>
 WORD major;
 WORD minor;
 DWORD flags;
}

template Vector {
 <3D82AB5E-62DA-11cf-AB39-0020AF71E433>
 FLOAT x;
 FLOAT y;
 FLOAT z;
}

template Coords2d {
 <F6F23F44-7686-11cf-8F52-0040333594A3>
 FLOAT u;
 FLOAT v;
}

template Matrix4x4 {
 <F6F23F45-7686-11cf-8F52-0040333594A3>
 array FLOAT matrix[16];
}

template ColorRGBA {
 <35FF44E0-6C7C-11cf-8F52-0040333594A3>
 FLOAT red;
 FLOAT green;
 FLOAT blue;
 FLOAT alpha;
}

template ColorRGB {
 <D3E16E81-7835-11cf-8F52-0040333594A3>
 FLOAT red;
 FLOAT green;
 FLOAT blue;
}

template IndexedColor {
 <1630B820-7842-11cf-8F52-0040333594A3>
 DWORD index;
 ColorRGBA indexColor;
}

template Boolean {
 <4885AE61-78E8-11cf-8F52-0040333594A3>
 WORD truefalse;
}

template Boolean2d {
 <4885AE63-78E8-11cf-8F52-0040333594A3>
 Boolean u;
 Boolean v;
}

template MaterialWrap {
 <4885AE60-78E8-11cf-8F52-0040333594A3>
 Boolean u;
 Boolean v;
}

template TextureFilename {
 <A42790E1-7810-11cf-8F52-0040333594A3>
 STRING filename;
}

template Material {
 <3D82AB4D-62DA-11cf-AB39-0020AF71E433>
 ColorRGBA faceColor;
 FLOAT power;
 ColorRGB specularColor;
 ColorRGB emissiveColor;
 [...]
}

template MeshFace {
 <3D82AB5F-62DA-11cf-AB39-0020AF71E433>
 DWORD nFaceVertexIndices;
 array DWORD faceVertexIndices[nFaceVertexIndices];
}

template MeshFaceWraps {
 <4885AE62-78E8-11cf-8F52-0040333594A3>
 DWORD nFaceWrapValues;
 Boolean2d faceWrapValues;
}

template MeshTextureCoords {
 <F6F23F40-7686-11cf-8F52-0040333594A3>
 DWORD nTextureCoords;
 array Coords2d textureCoords[nTextureCoords];
}

template MeshMaterialList {
 <F6F23F42-7686-11cf-8F52-0040333594A3>
 DWORD nMaterials;
 DWORD nFaceIndexes;
 array DWORD faceIndexes[nFaceIndexes];
 [Material]
}

template MeshNormals {
 <F6F23F43-7686-11cf-8F52-0040333594A3>
 DWORD nNormals;
 array Vector normals[nNormals];
 DWORD nFaceNormals;
 array MeshFace faceNormals[nFaceNormals];
}

template MeshVertexColors {
 <1630B821-7842-11cf-8F52-0040333594A3>
 DWORD nVertexColors;
 array IndexedColor vertexColors[nVertexColors];
}

template Mesh {
 <3D82AB44-62DA-11cf-AB39-0020AF71E433>
 DWORD nVertices;
 array Vector vertices[nVertices];
 DWORD nFaces;
 array MeshFace faces[nFaces];
 [...]
}

Header{
1;
0;
1;
}

Mesh {
 76;
 -2661.15531;4.40069;-272.91543;,
 -1906.83460;4.40069;-274.28594;,
 -1899.21390;-2.54672;-272.91543;,
 -2661.15531;-2.54672;-272.91543;,
 -1141.08722;4.40069;-274.28594;,
 -1137.27795;-2.54672;-272.91543;,
 -375.33978;4.40069;-274.28594;,
 -375.33978;-2.54672;-272.91543;,
 390.40833;4.40069;-274.28594;,
 386.59937;-2.54672;-272.91543;,
 1156.15617;4.40069;-274.28594;,
 1148.53761;-2.54672;-272.91543;,
 1921.90393;4.40069;-274.28594;,
 1910.47483;-2.54672;-272.91543;,
 2672.40883;4.40069;-272.91543;,
 2672.40883;-2.54672;-272.91543;,
 2672.40883;4.40069;-272.91543;,
 2672.40883;4.40069;1.00447;,
 2672.40883;-2.54672;1.00447;,
 2672.40883;-2.54672;-272.91543;,
 2672.40883;4.40069;274.92491;,
 2672.40883;-2.54672;274.92491;,
 -2672.57953;4.40069;276.29473;,
 -2672.57953;4.40069;1.00447;,
 -2661.15531;-2.54672;1.00447;,
 -2661.15531;-2.54672;274.92491;,
 -2661.15531;4.40069;-272.91543;,
 -2661.15531;-2.54672;-272.91543;,
 -2672.57953;4.40069;276.29473;,
 -1906.83460;4.40069;276.29473;,
 -1906.83460;4.40069;1.00447;,
 -2672.57953;4.40069;1.00447;,
 -1141.08722;4.40069;276.29473;,
 -1141.08722;4.40069;1.00447;,
 -375.33978;4.40069;276.29473;,
 -375.33978;4.40069;1.00447;,
 390.40833;4.40069;276.29473;,
 390.40833;4.40069;1.00447;,
 1156.15617;4.40069;276.29473;,
 1156.15617;4.40069;1.00447;,
 1910.47483;4.40069;274.92491;,
 1921.90393;4.40069;1.00447;,
 2672.40883;4.40069;274.92491;,
 2672.40883;4.40069;1.00447;,
 -1906.83460;4.40069;-274.28594;,
 -2661.15531;4.40069;-272.91543;,
 -1141.08722;4.40069;-274.28594;,
 -375.33978;4.40069;-274.28594;,
 390.40833;4.40069;-274.28594;,
 1156.15617;4.40069;-274.28594;,
 1921.90393;4.40069;-274.28594;,
 2672.40883;4.40069;-272.91543;,
 -2661.15531;-2.54672;1.00447;,
 -1899.21390;-2.54672;1.00447;,
 -1899.21390;-2.54672;274.92491;,
 -2661.15531;-2.54672;274.92491;,
 -1137.27795;-2.54672;1.00447;,
 -1137.27795;-2.54672;274.92491;,
 -375.33978;-2.54672;1.00447;,
 -375.33978;-2.54672;274.92491;,
 386.59937;-2.54672;1.00447;,
 386.59937;-2.54672;274.92491;,
 1148.53761;-2.54672;1.00447;,
 1148.53761;-2.54672;274.92491;,
 1910.47483;-2.54672;1.00447;,
 1910.47483;-2.54672;274.92491;,
 2672.40883;-2.54672;1.00447;,
 2672.40883;-2.54672;274.92491;,
 -2661.15531;-2.54672;-272.91543;,
 -1899.21390;-2.54672;-272.91543;,
 -1137.27795;-2.54672;-272.91543;,
 -375.33978;-2.54672;-272.91543;,
 386.59937;-2.54672;-272.91543;,
 1148.53761;-2.54672;-272.91543;,
 1910.47483;-2.54672;-272.91543;,
 2672.40883;-2.54672;-272.91543;;
 
 46;
 4;0,1,2,3;,
 4;1,4,5,2;,
 4;4,6,7,5;,
 4;6,8,9,7;,
 4;8,10,11,9;,
 4;10,12,13,11;,
 4;12,14,15,13;,
 4;16,17,18,19;,
 4;17,20,21,18;,
 4;22,23,24,25;,
 4;23,26,27,24;,
 4;28,29,30,31;,
 4;29,32,33,30;,
 4;32,34,35,33;,
 4;34,36,37,35;,
 4;36,38,39,37;,
 4;38,40,41,39;,
 4;40,42,43,41;,
 4;31,30,44,45;,
 4;30,33,46,44;,
 4;33,35,47,46;,
 4;35,37,48,47;,
 4;37,39,49,48;,
 4;39,41,50,49;,
 4;41,43,51,50;,
 4;52,53,54,55;,
 4;53,56,57,54;,
 4;56,58,59,57;,
 4;58,60,61,59;,
 4;60,62,63,61;,
 4;62,64,65,63;,
 4;64,66,67,65;,
 4;68,69,53,52;,
 4;69,70,56,53;,
 4;70,71,58,56;,
 4;71,72,60,58;,
 4;72,73,62,60;,
 4;73,74,64,62;,
 4;74,75,66,64;,
 4;40,65,21,20;,
 4;38,63,65,40;,
 4;36,61,63,38;,
 4;34,59,61,36;,
 4;32,57,59,34;,
 4;29,54,57,32;,
 4;22,55,54,29;;
 
 MeshMaterialList {
  2;
  46;
  1,
  1,
  1,
  1,
  1,
  1,
  1,
  1,
  1,
  1,
  1,
  0,
  1,
  0,
  1,
  0,
  1,
  0,
  1,
  0,
  1,
  0,
  1,
  0,
  1,
  1,
  1,
  1,
  1,
  1,
  1,
  1,
  1,
  1,
  1,
  1,
  1,
  1,
  1,
  0,
  0,
  0,
  0,
  0,
  0,
  0;;
  Material {
   0.000000;0.000000;0.000000;1.000000;;
   5.000000;
   0.000000;0.000000;0.000000;;
   0.000000;0.000000;0.000000;;
  }
  Material {
   1.000000;1.000000;1.000000;1.000000;;
   0.000000;
   0.000000;0.000000;0.000000;;
   0.000000;0.000000;0.000000;;
  }
 }
 MeshNormals {
  21;
  -0.000913;-0.097230;-0.995261;,
  -0.000457;-0.145557;-0.989350;,
  0.000000;-0.193539;-0.981093;,
  0.000000;-0.193539;-0.981093;,
  0.000000;-0.193539;-0.981093;,
  0.000459;-0.145557;-0.989350;,
  0.000917;-0.097230;-0.995262;,
  1.000000;0.000000;0.000000;,
  -0.519594;-0.854413;0.000000;,
  -0.719083;-0.694894;-0.006424;,
  -0.269803;-0.962916;0.000000;,
  -0.384075;-0.923295;-0.003431;,
  0.000000;1.000000;0.000000;,
  0.000000;-1.000000;-0.000000;,
  -0.871628;-0.490010;-0.012428;,
  0.000457;-0.048649;0.998816;,
  0.000000;-0.000000;1.000000;,
  0.000457;-0.145487;0.989360;,
  0.000000;-0.193446;0.981111;,
  0.000000;-0.193446;0.981111;,
  0.000000;-0.193446;0.981111;;
  46;
  4;0,1,1,0;,
  4;1,2,2,1;,
  4;2,3,3,2;,
  4;3,4,4,3;,
  4;4,2,2,4;,
  4;2,5,5,2;,
  4;5,6,6,5;,
  4;7,7,7,7;,
  4;7,7,7,7;,
  4;8,9,11,10;,
  4;9,14,14,11;,
  4;12,12,12,12;,
  4;12,12,12,12;,
  4;12,12,12,12;,
  4;12,12,12,12;,
  4;12,12,12,12;,
  4;12,12,12,12;,
  4;12,12,12,12;,
  4;12,12,12,12;,
  4;12,12,12,12;,
  4;12,12,12,12;,
  4;12,12,12,12;,
  4;12,12,12,12;,
  4;12,12,12,12;,
  4;12,12,12,12;,
  4;11,13,13,10;,
  4;13,13,13,13;,
  4;13,13,13,13;,
  4;13,13,13,13;,
  4;13,13,13,13;,
  4;13,13,13,13;,
  4;13,13,13,13;,
  4;13,13,13,11;,
  4;13,13,13,13;,
  4;13,13,13,13;,
  4;13,13,13,13;,
  4;13,13,13,13;,
  4;13,13,13,13;,
  4;13,13,13,13;,
  4;15,15,16,16;,
  4;17,17,15,15;,
  4;18,18,17,17;,
  4;19,19,18,18;,
  4;19,19,19,19;,
  4;18,18,19,19;,
  4;20,20,18,18;;
 }
 MeshTextureCoords {
  76;
  0.000000;0.000000;,
  0.142860;0.000000;,
  0.142860;1.000000;,
  0.000000;1.000000;,
  0.285710;0.000000;,
  0.285710;1.000000;,
  0.428570;0.000000;,
  0.428570;1.000000;,
  0.571430;0.000000;,
  0.571430;1.000000;,
  0.714290;0.000000;,
  0.714290;1.000000;,
  0.857140;0.000000;,
  0.857140;1.000000;,
  1.000000;0.000000;,
  1.000000;1.000000;,
  0.000000;0.000000;,
  0.333330;0.000000;,
  0.333330;1.000000;,
  0.000000;1.000000;,
  0.666670;0.000000;,
  0.666670;1.000000;,
  0.333330;0.000000;,
  0.666670;0.000000;,
  0.666670;1.000000;,
  0.333330;1.000000;,
  1.000000;0.000000;,
  1.000000;1.000000;,
  0.000000;0.333330;,
  0.142860;0.333330;,
  0.142860;0.666670;,
  0.000000;0.666670;,
  0.285710;0.333330;,
  0.285710;0.666670;,
  0.428570;0.333330;,
  0.428570;0.666670;,
  0.571430;0.333330;,
  0.571430;0.666670;,
  0.714290;0.333330;,
  0.714290;0.666670;,
  0.857140;0.333330;,
  0.857140;0.666670;,
  1.000000;0.333330;,
  1.000000;0.666670;,
  0.142860;1.000000;,
  0.000000;1.000000;,
  0.285710;1.000000;,
  0.428570;1.000000;,
  0.571430;1.000000;,
  0.714290;1.000000;,
  0.857140;1.000000;,
  1.000000;1.000000;,
  0.000000;0.333330;,
  0.142860;0.333330;,
  0.142860;0.666670;,
  0.000000;0.666670;,
  0.285710;0.333330;,
  0.285710;0.666670;,
  0.428570;0.333330;,
  0.428570;0.666670;,
  0.571430;0.333330;,
  0.571430;0.666670;,
  0.714290;0.333330;,
  0.714290;0.666670;,
  0.857140;0.333330;,
  0.857140;0.666670;,
  1.000000;0.333330;,
  1.000000;0.666670;,
  0.000000;0.000000;,
  0.142860;0.000000;,
  0.285710;0.000000;,
  0.428570;0.000000;,
  0.571430;0.000000;,
  0.714290;0.000000;,
  0.857140;0.000000;,
  1.000000;0.000000;;
 }
}
