// モデルの最大数
MAX_TYPE = 7

//***************************
// Xファイル名の読み込み
//***************************
MODEL_FILENAME = data/MODEL/Fox/karada.x 	# からだ
MODEL_FILENAME = data/MODEL/Fox/kao.x		# かお
MODEL_FILENAME = data/MODEL/Fox/asi.x		# 右前足
MODEL_FILENAME = data/MODEL/Fox/asi.x	 	# 左前足
MODEL_FILENAME = data/MODEL/Fox/asi.x	 	# 右後ろ足
MODEL_FILENAME = data/MODEL/Fox/asi.x		# 左後ろ足
MODEL_FILENAME = data/MODEL/Fox/sipo.x		# しっぽ


