xof 0302txt 0064
template Header {
 <3D82AB43-62DA-11cf-AB39-0020AF71E433>
 WORD major;
 WORD minor;
 DWORD flags;
}

template Vector {
 <3D82AB5E-62DA-11cf-AB39-0020AF71E433>
 FLOAT x;
 FLOAT y;
 FLOAT z;
}

template Coords2d {
 <F6F23F44-7686-11cf-8F52-0040333594A3>
 FLOAT u;
 FLOAT v;
}

template Matrix4x4 {
 <F6F23F45-7686-11cf-8F52-0040333594A3>
 array FLOAT matrix[16];
}

template ColorRGBA {
 <35FF44E0-6C7C-11cf-8F52-0040333594A3>
 FLOAT red;
 FLOAT green;
 FLOAT blue;
 FLOAT alpha;
}

template ColorRGB {
 <D3E16E81-7835-11cf-8F52-0040333594A3>
 FLOAT red;
 FLOAT green;
 FLOAT blue;
}

template IndexedColor {
 <1630B820-7842-11cf-8F52-0040333594A3>
 DWORD index;
 ColorRGBA indexColor;
}

template Boolean {
 <4885AE61-78E8-11cf-8F52-0040333594A3>
 WORD truefalse;
}

template Boolean2d {
 <4885AE63-78E8-11cf-8F52-0040333594A3>
 Boolean u;
 Boolean v;
}

template MaterialWrap {
 <4885AE60-78E8-11cf-8F52-0040333594A3>
 Boolean u;
 Boolean v;
}

template TextureFilename {
 <A42790E1-7810-11cf-8F52-0040333594A3>
 STRING filename;
}

template Material {
 <3D82AB4D-62DA-11cf-AB39-0020AF71E433>
 ColorRGBA faceColor;
 FLOAT power;
 ColorRGB specularColor;
 ColorRGB emissiveColor;
 [...]
}

template MeshFace {
 <3D82AB5F-62DA-11cf-AB39-0020AF71E433>
 DWORD nFaceVertexIndices;
 array DWORD faceVertexIndices[nFaceVertexIndices];
}

template MeshFaceWraps {
 <4885AE62-78E8-11cf-8F52-0040333594A3>
 DWORD nFaceWrapValues;
 Boolean2d faceWrapValues;
}

template MeshTextureCoords {
 <F6F23F40-7686-11cf-8F52-0040333594A3>
 DWORD nTextureCoords;
 array Coords2d textureCoords[nTextureCoords];
}

template MeshMaterialList {
 <F6F23F42-7686-11cf-8F52-0040333594A3>
 DWORD nMaterials;
 DWORD nFaceIndexes;
 array DWORD faceIndexes[nFaceIndexes];
 [Material]
}

template MeshNormals {
 <F6F23F43-7686-11cf-8F52-0040333594A3>
 DWORD nNormals;
 array Vector normals[nNormals];
 DWORD nFaceNormals;
 array MeshFace faceNormals[nFaceNormals];
}

template MeshVertexColors {
 <1630B821-7842-11cf-8F52-0040333594A3>
 DWORD nVertexColors;
 array IndexedColor vertexColors[nVertexColors];
}

template Mesh {
 <3D82AB44-62DA-11cf-AB39-0020AF71E433>
 DWORD nVertices;
 array Vector vertices[nVertices];
 DWORD nFaces;
 array MeshFace faces[nFaces];
 [...]
}

Header{
1;
0;
1;
}

Mesh {
 49;
 -2.64034;7.12138;-2.46226;,
 -1.14641;7.12138;-3.43923;,
 -1.66646;4.84706;-4.99939;,
 -3.83809;4.84706;-3.57924;,
 1.14641;7.12138;-3.43923;,
 1.66646;4.84706;-4.99939;,
 2.64034;7.12138;-2.46226;,
 3.83809;4.84706;-3.57924;,
 2.64034;7.12138;-2.46226;,
 3.43923;7.12138;-1.14641;,
 4.99939;4.84706;-1.66646;,
 3.83809;4.84706;-3.57924;,
 3.43923;7.12138;1.14641;,
 4.99939;4.84706;1.66646;,
 2.64034;7.12138;2.46226;,
 3.83809;4.84706;3.57924;,
 2.64034;7.12138;2.46226;,
 1.14641;7.12138;3.43923;,
 1.66646;4.84706;4.99939;,
 3.83809;4.84706;3.57924;,
 -1.14641;7.12138;3.43923;,
 -1.66646;4.84706;4.99939;,
 -2.64034;7.12138;2.46226;,
 -3.83809;4.84706;3.57924;,
 -2.64034;7.12138;2.46226;,
 -3.43923;7.12138;1.14641;,
 -4.99939;4.84706;1.66646;,
 -3.83809;4.84706;3.57924;,
 -3.43923;7.12138;-1.14641;,
 -4.99939;4.84706;-1.66646;,
 -2.64034;7.12138;-2.46226;,
 -3.83809;4.84706;-3.57924;,
 -1.14641;7.12138;3.43923;,
 -1.14641;7.12138;1.14641;,
 -3.43923;7.12138;1.14641;,
 1.14641;7.12138;3.43923;,
 1.14641;7.12138;1.14641;,
 3.43923;7.12138;1.14641;,
 -1.14641;7.12138;-1.14641;,
 -3.43923;7.12138;-1.14641;,
 1.14641;7.12138;-1.14641;,
 3.43923;7.12138;-1.14641;,
 -1.14641;7.12138;-3.43923;,
 -2.64034;7.12138;-2.46226;,
 1.14641;7.12138;-3.43923;,
 2.64034;7.12138;-2.46226;,
 0.00000;0.33712;0.00000;,
 0.00000;0.33712;0.00000;,
 0.00000;0.33712;0.00000;;
 
 33;
 4;0,1,2,3;,
 4;1,4,5,2;,
 4;4,6,7,5;,
 4;8,9,10,11;,
 4;9,12,13,10;,
 4;12,14,15,13;,
 4;16,17,18,19;,
 4;17,20,21,18;,
 4;20,22,23,21;,
 4;24,25,26,27;,
 4;25,28,29,26;,
 4;28,30,31,29;,
 4;24,32,33,34;,
 4;32,35,36,33;,
 4;35,14,37,36;,
 4;34,33,38,39;,
 4;33,36,40,38;,
 4;36,37,41,40;,
 4;39,38,42,43;,
 4;38,40,44,42;,
 4;40,41,45,44;,
 3;46,3,2;,
 3;47,2,5;,
 3;48,5,7;,
 3;46,11,10;,
 3;47,10,13;,
 3;48,13,15;,
 3;46,19,18;,
 3;47,18,21;,
 3;48,21,23;,
 3;46,27,26;,
 3;47,26,29;,
 3;48,29,31;;
 
 MeshMaterialList {
  1;
  33;
  0,
  0,
  0,
  0,
  0,
  0,
  0,
  0,
  0,
  0,
  0,
  0,
  0,
  0,
  0,
  0,
  0,
  0,
  0,
  0,
  0,
  0,
  0,
  0,
  0,
  0,
  0,
  0,
  0,
  0,
  0,
  0,
  0;;
  Material {
   0.072157;0.800000;0.131765;1.000000;;
   5.000000;
   0.000000;0.000000;0.000000;;
   0.000000;0.000000;0.000000;;
  }
 }
 MeshNormals {
  38;
  -0.428482;0.802806;-0.414615;,
  -0.127712;0.893708;-0.430089;,
  0.127712;0.893708;-0.430089;,
  -0.583205;0.584297;-0.564331;,
  -0.230714;0.585745;-0.776964;,
  0.230714;0.585745;-0.776964;,
  0.000000;-1.000000;-0.000000;,
  0.428482;0.802806;-0.414615;,
  0.433063;0.893261;-0.120587;,
  0.433063;0.893261;0.120587;,
  0.583205;0.584297;-0.564331;,
  0.780981;0.585471;-0.217466;,
  0.780981;0.585471;0.217466;,
  0.428482;0.802806;0.414615;,
  0.127712;0.893708;0.430089;,
  -0.127712;0.893708;0.430089;,
  0.583205;0.584297;0.564331;,
  0.230714;0.585745;0.776964;,
  -0.230714;0.585745;0.776964;,
  -0.428482;0.802806;0.414615;,
  -0.433063;0.893261;0.120587;,
  -0.433063;0.893261;-0.120587;,
  -0.583205;0.584297;0.564331;,
  -0.780981;0.585471;0.217466;,
  -0.780981;0.585471;-0.217466;,
  0.000000;1.000000;0.000000;,
  -0.468329;-0.758370;-0.453369;,
  -0.184734;-0.759575;-0.623633;,
  0.184734;-0.759575;-0.623633;,
  0.468329;-0.758370;-0.453369;,
  0.627002;-0.759339;-0.173989;,
  0.627002;-0.759339;0.173989;,
  0.468329;-0.758370;0.453369;,
  0.184734;-0.759575;0.623633;,
  -0.184734;-0.759575;0.623633;,
  -0.468329;-0.758370;0.453369;,
  -0.627002;-0.759339;0.173989;,
  -0.627002;-0.759339;-0.173989;;
  33;
  4;0,1,4,3;,
  4;1,2,5,4;,
  4;2,7,10,5;,
  4;7,8,11,10;,
  4;8,9,12,11;,
  4;9,13,16,12;,
  4;13,14,17,16;,
  4;14,15,18,17;,
  4;15,19,22,18;,
  4;19,20,23,22;,
  4;20,21,24,23;,
  4;21,0,3,24;,
  4;19,15,25,20;,
  4;15,14,25,25;,
  4;14,13,9,25;,
  4;20,25,25,21;,
  4;25,25,25,25;,
  4;25,9,8,25;,
  4;21,25,1,0;,
  4;25,25,2,1;,
  4;25,8,7,2;,
  3;6,26,27;,
  3;6,27,28;,
  3;6,28,29;,
  3;6,29,30;,
  3;6,30,31;,
  3;6,31,32;,
  3;6,32,33;,
  3;6,33,34;,
  3;6,34,35;,
  3;6,35,36;,
  3;6,36,37;,
  3;6,37,26;;
 }
 MeshTextureCoords {
  49;
  0.000000;0.000000;,
  0.333333;0.000000;,
  0.333333;0.500000;,
  0.000000;0.500000;,
  0.666667;0.000000;,
  0.666667;0.500000;,
  1.000000;0.000000;,
  1.000000;0.500000;,
  0.000000;0.000000;,
  0.333333;0.000000;,
  0.333333;0.500000;,
  0.000000;0.500000;,
  0.666667;0.000000;,
  0.666667;0.500000;,
  1.000000;0.000000;,
  1.000000;0.500000;,
  0.000000;0.000000;,
  0.333333;0.000000;,
  0.333333;0.500000;,
  0.000000;0.500000;,
  0.666667;0.000000;,
  0.666667;0.500000;,
  1.000000;0.000000;,
  1.000000;0.500000;,
  0.000000;0.000000;,
  0.333333;0.000000;,
  0.333333;0.500000;,
  0.000000;0.500000;,
  0.666667;0.000000;,
  0.666667;0.500000;,
  1.000000;0.000000;,
  1.000000;0.500000;,
  0.333333;0.000000;,
  0.333333;0.333333;,
  0.000000;0.333333;,
  0.666667;0.000000;,
  0.666667;0.333333;,
  1.000000;0.333333;,
  0.333333;0.666667;,
  0.000000;0.666667;,
  0.666667;0.666667;,
  1.000000;0.666667;,
  0.333333;1.000000;,
  0.000000;1.000000;,
  0.666667;1.000000;,
  1.000000;1.000000;,
  0.166667;1.000000;,
  0.500000;1.000000;,
  0.833333;1.000000;;
 }
}
