{
	"ENEMY0": {
		"LIFE": 1,
		"POS": {
			"X": 0,
			"Y": 300,
			"Z": 900
		},
		"MOVE": {
			"X": 0,
			"Y": 0,
			"Z": -6.0
		},
		"ROT": {
			"X": 0,
			"Y": 0,
			"Z": 0
		},
		"TYPE": 2,
		"FRAME": 10
	},
	"ENEMY1": {
		"LIFE": 1,
		"POS": {
			"X": 300,
			"Y": 300,
			"Z": 1000
		},
		"MOVE": {
			"X": 0,
			"Y": 0,
			"Z": -6.0
		},
		"ROT": {
			"X": 0,
			"Y": 0,
			"Z": 0
		},
		"TYPE": 2,
		"FRAME": 10
	},
	"ENEMY2": {
		"LIFE": 1,
		"POS": {
			"X": 600,
			"Y": 300,
			"Z": 1100
		},
		"MOVE": {
			"X": 0,
			"Y": 0,
			"Z": -6.0
		},
		"ROT": {
			"X": 0,
			"Y": 0,
			"Z": 0
		},
		"TYPE": 2,
		"FRAME": 10
	},
	"ENEMY3": {
		"LIFE": 1,
		"POS": {
			"X": -300,
			"Y": 300,
			"Z": 1000
		},
		"MOVE": {
			"X": 0,
			"Y": 0,
			"Z": -6.0
		},
		"ROT": {
			"X": 0,
			"Y": 0,
			"Z": 0
		},
		"TYPE": 2,
		"FRAME": 10
	},
	"ENEMY4": {
		"LIFE": 1,
		"POS": {
			"X": -600,
			"Y": 300,
			"Z": 1100
		},
		"MOVE": {
			"X": 0,
			"Y": 0,
			"Z": -6.0
		},
		"ROT": {
			"X": 0,
			"Y": 0,
			"Z": 0
		},
		"TYPE": 2,
		"FRAME": 10
	},
	
	
	
	"ENEMY5": {
		"LIFE": 1,
		"POS": {
			"X": -2100,
			"Y": 300,
			"Z": 0
		},
		"MOVE": {
			"X": 6.0,
			"Y": 0,
			"Z": 0
		},
		"ROT": {
			"X": 0,
			"Y": 0,
			"Z": 0
		},
		"TYPE": 0,
		"FRAME": 240
	},
	"ENEMY6": {
		"LIFE": 1,
		"POS": {
			"X": -1800,
			"Y": 300,
			"Z": 0
		},
		"MOVE": {
			"X": 6.0,
			"Y": 0,
			"Z": 0
		},
		"ROT": {
			"X": 0,
			"Y": 0,
			"Z": 0
		},
		"TYPE": 0,
		"FRAME": 240
	},
	"ENEMY7": {
		"LIFE": 1,
		"POS": {
			"X": -1500,
			"Y": 300,
			"Z": 0
		},
		"MOVE": {
			"X": 6.0,
			"Y": 0,
			"Z": 0
		},
		"ROT": {
			"X": 0,
			"Y": 0,
			"Z": 0
		},
		"TYPE": 0,
		"FRAME": 240
	},
	"ENEMY8": {
		"LIFE": 1,
		"POS": {
			"X": -1200,
			"Y": 300,
			"Z": 0
		},
		"MOVE": {
			"X": 6.0,
			"Y": 0,
			"Z": 0
		},
		"ROT": {
			"X": 0,
			"Y": 0,
			"Z": 0
		},
		"TYPE": 0,
		"FRAME": 240
	},
	
	
	
	"ENEMY9": {
		"LIFE": 1,
		"POS": {
			"X": 2100,
			"Y": 300,
			"Z": 0
		},
		"MOVE": {
			"X": -6.0,
			"Y": 0,
			"Z": 0
		},
		"ROT": {
			"X": 0,
			"Y": 0,
			"Z": 0
		},
		"TYPE": 0,
		"FRAME": 600
	},
	"ENEMY10": {
		"LIFE": 1,
		"POS": {
			"X": 1800,
			"Y": 300,
			"Z": 0
		},
		"MOVE": {
			"X": -6.0,
			"Y": 0,
			"Z": 0
		},
		"ROT": {
			"X": 0,
			"Y": 0,
			"Z": 0
		},
		"TYPE": 0,
		"FRAME": 600
	},
	"ENEMY11": {
		"LIFE": 1,
		"POS": {
			"X": 1500,
			"Y": 300,
			"Z": 0
		},
		"MOVE": {
			"X": -6.0,
			"Y": 0,
			"Z": 0
		},
		"ROT": {
			"X": 0,
			"Y": 0,
			"Z": 0
		},
		"TYPE": 0,
		"FRAME": 600
	},
	"ENEMY12": {
		"LIFE": 1,
		"POS": {
			"X": 1200,
			"Y": 300,
			"Z": 0
		},
		"MOVE": {
			"X": -6.0,
			"Y": 0,
			"Z": 0
		},
		"ROT": {
			"X": 0,
			"Y": 0,
			"Z": 0
		},
		"TYPE": 0,
		"FRAME": 600
	},
	
	
	
	"ENEMY13": {
		"LIFE": 1,
		"POS": {
			"X": -1000,
			"Y": 300,
			"Z": -300
		},
		"MOVE": {
			"X": 10.0,
			"Y": 0,
			"Z": 0
		},
		"ROT": {
			"X": 0,
			"Y": 0,
			"Z": 0
		},
		"TYPE": 3,
		"FRAME": 900
	},
	"ENEMY14": {
		"LIFE": 1,
		"POS": {
			"X": 1000,
			"Y": 300,
			"Z": -300
		},
		"MOVE": {
			"X": -10.0,
			"Y": 0,
			"Z": 0
		},
		"ROT": {
			"X": 0,
			"Y": 0,
			"Z": 0
		},
		"TYPE": 3,
		"FRAME": 910
	},
	"ENEMY15": {
		"LIFE": 1,
		"POS": {
			"X": -1000,
			"Y": 300,
			"Z": -600
		},
		"MOVE": {
			"X": 10.0,
			"Y": 0,
			"Z": 0
		},
		"ROT": {
			"X": 0,
			"Y": 0,
			"Z": 0
		},
		"TYPE": 3,
		"FRAME": 920
	},
	"ENEMY16": {
		"LIFE": 1,
		"POS": {
			"X": 1000,
			"Y": 300,
			"Z": -600
		},
		"MOVE": {
			"X": -10.0,
			"Y": 0,
			"Z": 0
		},
		"ROT": {
			"X": 0,
			"Y": 0,
			"Z": 0
		},
		"TYPE": 3,
		"FRAME": 930
	},
	"ENEMY17": {
		"LIFE": 1,
		"POS": {
			"X": -1000,
			"Y": 300,
			"Z": -900
		},
		"MOVE": {
			"X": 10.0,
			"Y": 0,
			"Z": 0
		},
		"ROT": {
			"X": 0,
			"Y": 0,
			"Z": 0
		},
		"TYPE": 3,
		"FRAME": 940
	},
	"ENEMY18": {
		"LIFE": 1,
		"MOVE": {
			"X": -10.0,
			"Y": 0,
			"Z": 0.0
		},
		"POS": {
			"X": 1000,
			"Y": 300,
			"Z": -900
		},
		"ROT": {
			"X": 0,
			"Y": 0,
			"Z": 0
		},
		"TYPE": 3,
		"FRAME": 950
	},
	
	
	
	"ENEMY19": {
		"LIFE": 1,
		"POS": {
			"X": 1000,
			"Y": 300,
			"Z": 1000
		},
		"MOVE": {
			"X": -20.0,
			"Y": 0,
			"Z": -20.0
		},
		"ROT": {
			"X": 0,
			"Y": 0,
			"Z": 0
		},
		"TYPE": 4,
		"FRAME": 1000
	},
	"ENEMY20": {
		"LIFE": 1,
		"POS": {
			"X": 1000,
			"Y": 300,
			"Z": 1000
		},
		"MOVE": {
			"X": -20.0,
			"Y": 0,
			"Z": -20.0
		},
		"ROT": {
			"X": 0,
			"Y": 0,
			"Z": 0
		},
		"TYPE": 4,
		"FRAME": 1050
	},
	"ENEMY21": {
		"LIFE": 1,
		"POS": {
			"X": 1000,
			"Y": 300,
			"Z": 1000
		},
		"MOVE": {
			"X": -20.0,
			"Y": 0,
			"Z": -20.0
		},
		"ROT": {
			"X": 0,
			"Y": 0,
			"Z": 0
		},
		"TYPE": 4,
		"FRAME": 1100
	},
	
	
	
	"ENEMY22": {
		"LIFE": 1,
		"POS": {
			"X": 0,
			"Y": 300,
			"Z": 900
		},
		"MOVE": {
			"X": 0,
			"Y": 0,
			"Z": -6.0
		},
		"ROT": {
			"X": 0,
			"Y": 0,
			"Z": 0
		},
		"TYPE": 2,
		"FRAME": 1160
	},
	"ENEMY23": {
		"LIFE": 1,
		"POS": {
			"X": 300,
			"Y": 300,
			"Z": 1000
		},
		"MOVE": {
			"X": 0,
			"Y": 0,
			"Z": -6.0
		},
		"ROT": {
			"X": 0,
			"Y": 0,
			"Z": 0
		},
		"TYPE": 2,
		"FRAME": 1160
	},
	"ENEMY24": {
		"LIFE": 1,
		"POS": {
			"X": 600,
			"Y": 300,
			"Z": 1100
		},
		"MOVE": {
			"X": 0,
			"Y": 0,
			"Z": -6.0
		},
		"ROT": {
			"X": 0,
			"Y": 0,
			"Z": 0
		},
		"TYPE": 2,
		"FRAME": 1160
	},
	"ENEMY25": {
		"LIFE": 1,
		"POS": {
			"X": -300,
			"Y": 300,
			"Z": 1000
		},
		"MOVE": {
			"X": 0,
			"Y": 0,
			"Z": -6.0
		},
		"ROT": {
			"X": 0,
			"Y": 0,
			"Z": 0
		},
		"TYPE": 2,
		"FRAME": 1160
	},
	"ENEMY26": {
		"LIFE": 1,
		"POS": {
			"X": -600,
			"Y": 300,
			"Z": 1100
		},
		"MOVE": {
			"X": 0,
			"Y": 0,
			"Z": -6.0
		},
		"ROT": {
			"X": 0,
			"Y": 0,
			"Z": 0
		},
		"TYPE": 2,
		"FRAME": 1160
	},



	"ENEMY27": {
		"LIFE": 150,
		"POS": {
			"X": 0,
			"Y": 300,
			"Z": 1100
		},
		"MOVE": {
			"X": 0,
			"Y": 0,
			"Z": -6.0
		},
		"ROT": {
			"X": 0,
			"Y": 0,
			"Z": 0
		},
		"TYPE": 5,
		"FRAME": 2100
	},



	"ENEMY28": {
		"LIFE": 1,
		"POS": {
			"X": 600,
			"Y": 300,
			"Z": 800
		},
		"MOVE": {
			"X": -6.0,
			"Y": 0,
			"Z": -10.0
		},
		"ROT": {
			"X": 0,
			"Y": 0,
			"Z": 0
		},
		"TYPE": 1,
		"FRAME": 1400
	},
	"ENEMY29": {
		"LIFE": 1,
		"POS": {
			"X": 600,
			"Y": 300,
			"Z": 800
		},
		"MOVE": {
			"X": -6.0,
			"Y": 0,
			"Z": -10.0
		},
		"ROT": {
			"X": 0,
			"Y": 0,
			"Z": 0
		},
		"TYPE": 1,
		"FRAME": 1460
	},
	"ENEMY30": {
		"LIFE": 1,
		"POS": {
			"X": 600,
			"Y": 300,
			"Z": 800
		},
		"MOVE": {
			"X": -6.0,
			"Y": 0,
			"Z": -10.0
		},
		"ROT": {
			"X": 0,
			"Y": 0,
			"Z": 0
		},
		"TYPE": 1,
		"FRAME": 1520
	},
	"ENEMY31": {
		"LIFE": 1,
		"POS": {
			"X": -600,
			"Y": 300,
			"Z": 800
		},
		"MOVE": {
			"X": 6.0,
			"Y": 0,
			"Z": -10.0
		},
		"ROT": {
			"X": 0,
			"Y": 0,
			"Z": 0
		},
		"TYPE": 1,
		"FRAME": 1430
	},
	"ENEMY32": {
		"LIFE": 1,
		"POS": {
			"X": -600,
			"Y": 300,
			"Z": 800
		},
		"MOVE": {
			"X": 6.0,
			"Y": 0,
			"Z": -10.0
		},
		"ROT": {
			"X": 0,
			"Y": 0,
			"Z": 0
		},
		"TYPE": 1,
		"FRAME": 1490
	},
	"ENEMY33": {
		"LIFE": 1,
		"POS": {
			"X": -600,
			"Y": 300,
			"Z": 800
		},
		"MOVE": {
			"X": 6.0,
			"Y": 0,
			"Z": -10.0
		},
		"ROT": {
			"X": 0,
			"Y": 0,
			"Z": 0
		},
		"TYPE": 1,
		"FRAME": 1550
	},



	"ENEMY34": {
		"LIFE": 1,
		"POS": {
			"X": 0,
			"Y": 300,
			"Z": 900
		},
		"MOVE": {
			"X": 0,
			"Y": 0,
			"Z": -6.0
		},
		"ROT": {
			"X": 0,
			"Y": 0,
			"Z": 0
		},
		"TYPE": 2,
		"FRAME": 1700
	},
	"ENEMY35": {
		"LIFE": 1,
		"POS": {
			"X": 300,
			"Y": 300,
			"Z": 1000
		},
		"MOVE": {
			"X": 0,
			"Y": 0,
			"Z": -6.0
		},
		"ROT": {
			"X": 0,
			"Y": 0,
			"Z": 0
		},
		"TYPE": 2,
		"FRAME": 1700
	},
	"ENEMY36": {
		"LIFE": 1,
		"POS": {
			"X": 600,
			"Y": 300,
			"Z": 1100
		},
		"MOVE": {
			"X": 0,
			"Y": 0,
			"Z": -6.0
		},
		"ROT": {
			"X": 0,
			"Y": 0,
			"Z": 0
		},
		"TYPE": 2,
		"FRAME": 1700
	},
	"ENEMY37": {
		"LIFE": 1,
		"POS": {
			"X": -300,
			"Y": 300,
			"Z": 1000
		},
		"MOVE": {
			"X": 0,
			"Y": 0,
			"Z": -6.0
		},
		"ROT": {
			"X": 0,
			"Y": 0,
			"Z": 0
		},
		"TYPE": 2,
		"FRAME": 1700
	},
	"ENEMY38": {
		"LIFE": 1,
		"POS": {
			"X": -600,
			"Y": 300,
			"Z": 1100
		},
		"MOVE": {
			"X": 0,
			"Y": 0,
			"Z": -6.0
		},
		"ROT": {
			"X": 0,
			"Y": 0,
			"Z": 0
		},
		"TYPE": 2,
		"FRAME": 1700
	},



	"ENEMY39": {
		"LIFE": 1,
		"POS": {
			"X": -1000,
			"Y": 300,
			"Z": 1000
		},
		"MOVE": {
			"X": 20.0,
			"Y": 0,
			"Z": -20.0
		},
		"ROT": {
			"X": 0,
			"Y": 0,
			"Z": 0
		},
		"TYPE": 4,
		"FRAME": 1800
	},
	"ENEMY40": {
		"LIFE": 1,
		"POS": {
			"X": -1000,
			"Y": 300,
			"Z": 1000
		},
		"MOVE": {
			"X": 20.0,
			"Y": 0,
			"Z": -20.0
		},
		"ROT": {
			"X": 0,
			"Y": 0,
			"Z": 0
		},
		"TYPE": 4,
		"FRAME": 1800
	},
	"ENEMY41": {
		"LIFE": 1,
		"POS": {
			"X": -1000,
			"Y": 300,
			"Z": 1000
		},
		"MOVE": {
			"X": 20.0,
			"Y": 0,
			"Z": -20.0
		},
		"ROT": {
			"X": 0,
			"Y": 0,
			"Z": 0
		},
		"TYPE": 4,
		"FRAME": 1800
	},
	
	"INDEX": 42
}