xof 0302txt 0064
template Header {
 <3D82AB43-62DA-11cf-AB39-0020AF71E433>
 WORD major;
 WORD minor;
 DWORD flags;
}

template Vector {
 <3D82AB5E-62DA-11cf-AB39-0020AF71E433>
 FLOAT x;
 FLOAT y;
 FLOAT z;
}

template Coords2d {
 <F6F23F44-7686-11cf-8F52-0040333594A3>
 FLOAT u;
 FLOAT v;
}

template Matrix4x4 {
 <F6F23F45-7686-11cf-8F52-0040333594A3>
 array FLOAT matrix[16];
}

template ColorRGBA {
 <35FF44E0-6C7C-11cf-8F52-0040333594A3>
 FLOAT red;
 FLOAT green;
 FLOAT blue;
 FLOAT alpha;
}

template ColorRGB {
 <D3E16E81-7835-11cf-8F52-0040333594A3>
 FLOAT red;
 FLOAT green;
 FLOAT blue;
}

template IndexedColor {
 <1630B820-7842-11cf-8F52-0040333594A3>
 DWORD index;
 ColorRGBA indexColor;
}

template Boolean {
 <4885AE61-78E8-11cf-8F52-0040333594A3>
 WORD truefalse;
}

template Boolean2d {
 <4885AE63-78E8-11cf-8F52-0040333594A3>
 Boolean u;
 Boolean v;
}

template MaterialWrap {
 <4885AE60-78E8-11cf-8F52-0040333594A3>
 Boolean u;
 Boolean v;
}

template TextureFilename {
 <A42790E1-7810-11cf-8F52-0040333594A3>
 STRING filename;
}

template Material {
 <3D82AB4D-62DA-11cf-AB39-0020AF71E433>
 ColorRGBA faceColor;
 FLOAT power;
 ColorRGB specularColor;
 ColorRGB emissiveColor;
 [...]
}

template MeshFace {
 <3D82AB5F-62DA-11cf-AB39-0020AF71E433>
 DWORD nFaceVertexIndices;
 array DWORD faceVertexIndices[nFaceVertexIndices];
}

template MeshFaceWraps {
 <4885AE62-78E8-11cf-8F52-0040333594A3>
 DWORD nFaceWrapValues;
 Boolean2d faceWrapValues;
}

template MeshTextureCoords {
 <F6F23F40-7686-11cf-8F52-0040333594A3>
 DWORD nTextureCoords;
 array Coords2d textureCoords[nTextureCoords];
}

template MeshMaterialList {
 <F6F23F42-7686-11cf-8F52-0040333594A3>
 DWORD nMaterials;
 DWORD nFaceIndexes;
 array DWORD faceIndexes[nFaceIndexes];
 [Material]
}

template MeshNormals {
 <F6F23F43-7686-11cf-8F52-0040333594A3>
 DWORD nNormals;
 array Vector normals[nNormals];
 DWORD nFaceNormals;
 array MeshFace faceNormals[nFaceNormals];
}

template MeshVertexColors {
 <1630B821-7842-11cf-8F52-0040333594A3>
 DWORD nVertexColors;
 array IndexedColor vertexColors[nVertexColors];
}

template Mesh {
 <3D82AB44-62DA-11cf-AB39-0020AF71E433>
 DWORD nVertices;
 array Vector vertices[nVertices];
 DWORD nFaces;
 array MeshFace faces[nFaces];
 [...]
}

Header{
1;
0;
1;
}

Mesh {
 609;
 1.87411;23.17917;-25.39076;,
 1.85205;26.69016;-29.88196;,
 0.07368;26.89525;-29.71289;,
 0.09573;23.38424;-25.22171;,
 0.12756;18.31827;-18.74138;,
 1.90593;18.11318;-18.91043;,
 -0.16468;17.28612;-29.98761;,
 -0.13285;12.22011;-23.50728;,
 -0.36202;12.24655;-23.48550;,
 -0.39384;17.31255;-29.96584;,
 -0.45594;20.85144;-34.43954;,
 -0.18674;20.79710;-34.47884;,
 1.93238;13.90542;-13.52794;,
 0.15400;14.11050;-13.35888;,
 0.08022;9.55083;-8.60380;,
 1.85859;9.34576;-8.77285;,
 -0.10642;8.01237;-18.12480;,
 0.68710;6.21583;-11.21393;,
 -0.52543;6.35565;-11.09867;,
 -0.33557;8.03881;-18.10302;,
 0.22039;60.64719;-83.14534;,
 -0.24454;60.08850;-83.57979;,
 -0.59082;60.15172;-83.53315;,
 -0.76206;60.71011;-83.09130;,
 -0.70667;60.83545;-82.73576;,
 -0.08737;61.56886;-82.10452;,
 1.13013;22.88142;-32.85587;,
 1.85205;26.69016;-29.88196;,
 1.87411;23.17917;-25.39076;,
 1.15219;19.37043;-28.36468;,
 -0.16468;17.28612;-29.98761;,
 -0.18674;20.79710;-34.47884;,
 1.90593;18.11318;-18.91043;,
 1.18401;14.30444;-21.88435;,
 -0.13285;12.22011;-23.50728;,
 1.93238;13.90542;-13.52794;,
 1.21045;10.09669;-16.50184;,
 -0.10642;8.01237;-18.12480;,
 1.85859;9.34576;-8.77285;,
 1.42753;7.07167;-10.54852;,
 0.68710;6.21583;-11.21393;,
 -0.64824;23.08651;-32.68683;,
 -0.45594;20.85144;-34.43954;,
 -0.39384;17.31255;-29.96584;,
 -0.62620;19.57553;-28.19564;,
 0.09573;23.38424;-25.22171;,
 0.07368;26.89525;-29.71289;,
 1.42753;7.07167;-10.54852;,
 1.85859;9.34576;-8.77285;,
 0.08022;9.55083;-8.60380;,
 -0.35084;7.27675;-10.37947;,
 -0.52543;6.35565;-11.09867;,
 0.68710;6.21583;-11.21393;,
 -0.36202;12.24655;-23.48550;,
 -0.59437;14.50952;-21.71529;,
 0.12756;18.31827;-18.74138;,
 -0.35084;7.27675;-10.37947;,
 0.08022;9.55083;-8.60380;,
 0.15400;14.11050;-13.35888;,
 -0.56793;10.30176;-16.33278;,
 -0.33557;8.03881;-18.10302;,
 -0.52543;6.35565;-11.09867;,
 1.64496;56.81095;-68.59996;,
 1.37429;61.07716;-70.87897;,
 -0.40409;61.28222;-70.70993;,
 -0.13343;57.01603;-68.43088;,
 -0.09863;54.32218;-64.79697;,
 1.67976;54.11712;-64.96602;,
 1.64496;56.81095;-68.59996;,
 1.67976;54.11712;-64.96602;,
 0.95782;50.30835;-67.93992;,
 0.97907;53.08901;-71.50632;,
 1.00009;55.83879;-75.03312;,
 1.37429;61.07716;-70.87897;,
 -0.13343;57.01603;-68.43088;,
 -0.40409;61.28222;-70.70993;,
 -0.77967;56.45214;-74.54497;,
 -0.83805;53.29858;-71.33359;,
 -0.82057;50.51345;-67.77089;,
 -0.09863;54.32218;-64.79697;,
 -0.35905;48.22405;-69.56291;,
 -0.33779;51.00473;-73.12928;,
 -0.24110;54.15382;-76.34428;,
 -0.58737;54.21701;-76.29764;,
 -0.64576;51.06349;-73.08627;,
 -0.62826;48.27836;-69.52361;,
 -0.33779;51.00473;-73.12928;,
 -0.35905;48.22405;-69.56291;,
 -0.62826;48.27836;-69.52361;,
 -0.64576;51.06349;-73.08627;,
 -0.58737;54.21701;-76.29764;,
 -0.24110;54.15382;-76.34428;,
 1.72028;51.62020;-61.51061;,
 -0.05809;51.82528;-61.34154;,
 -0.06598;49.12487;-58.14866;,
 1.71240;48.91978;-58.31770;,
 1.72028;51.62020;-61.51061;,
 1.71240;48.91978;-58.31770;,
 0.99047;45.11104;-61.29167;,
 0.97430;47.68456;-64.58364;,
 -0.05809;51.82528;-61.34154;,
 -0.80407;47.88963;-64.41458;,
 -0.78791;45.31613;-61.12259;,
 -0.06598;49.12487;-58.14866;,
 -0.32640;43.02672;-62.91459;,
 -0.34256;45.60022;-66.20656;,
 -0.61178;45.65453;-66.16724;,
 -0.59560;43.08107;-62.87528;,
 -0.34256;45.60022;-66.20656;,
 -0.32640;43.02672;-62.91459;,
 -0.59560;43.08107;-62.87528;,
 -0.61178;45.65453;-66.16724;,
 1.71581;45.98822;-54.72565;,
 -0.06257;46.19333;-54.55667;,
 0.37818;43.34703;-50.85675;,
 1.74841;43.18901;-50.98701;,
 1.71581;45.98822;-54.72565;,
 1.74841;43.18901;-50.98701;,
 1.02647;39.38027;-53.96092;,
 1.00841;42.25616;-57.63973;,
 -0.06257;46.19333;-54.55667;,
 -0.76997;42.46127;-57.47069;,
 -0.75191;39.58536;-53.79187;,
 0.37818;43.34703;-50.85675;,
 -0.29039;37.29597;-55.58389;,
 -0.30846;40.17185;-59.26270;,
 -0.57768;40.22619;-59.22338;,
 -0.55961;37.35029;-55.54460;,
 -0.30846;40.17185;-59.26270;,
 -0.29039;37.29597;-55.58389;,
 -0.55961;37.35029;-55.54460;,
 -0.57768;40.22619;-59.22338;,
 1.77111;39.92837;-46.79286;,
 0.40087;40.08637;-46.66259;,
 0.00886;37.21245;-42.91053;,
 1.78724;37.00738;-43.07956;,
 1.77111;39.92837;-46.79286;,
 1.78724;37.00738;-43.07956;,
 1.06531;33.19864;-46.05349;,
 1.04703;36.10837;-49.77557;,
 0.40087;40.08637;-46.66259;,
 -0.73134;36.31344;-49.60649;,
 -0.71307;33.40372;-45.88444;,
 0.00886;37.21245;-42.91053;,
 -0.25155;31.11431;-47.67645;,
 -0.26984;34.02405;-51.39853;,
 -0.53904;34.07837;-51.35920;,
 -0.52078;31.16865;-47.63713;,
 -0.26984;34.02405;-51.39853;,
 -0.25155;31.11431;-47.67645;,
 -0.52078;31.16865;-47.63713;,
 -0.53904;34.07837;-51.35920;,
 1.80446;34.26670;-39.57376;,
 0.02608;34.47179;-39.40471;,
 0.04224;31.90035;-36.11534;,
 1.82062;31.69526;-36.28440;,
 1.80446;34.26670;-39.57376;,
 1.82062;31.69526;-36.28440;,
 1.09869;27.88652;-39.25832;,
 1.08253;30.45797;-42.54768;,
 0.02608;34.47179;-39.40471;,
 -0.69585;30.66306;-42.37863;,
 -0.67970;28.09160;-39.08925;,
 0.04224;31.90035;-36.11534;,
 -0.21818;25.80220;-40.88128;,
 -0.23433;28.37365;-44.17062;,
 -0.50356;28.42798;-44.13131;,
 -0.48738;25.85654;-40.84198;,
 -0.23433;28.37365;-44.17062;,
 -0.21818;25.80220;-40.88128;,
 -0.48738;25.85654;-40.84198;,
 -0.50356;28.42798;-44.13131;,
 1.83532;29.35343;-33.28878;,
 0.05695;29.55852;-33.11971;,
 1.83532;29.35343;-33.28878;,
 1.11340;25.54471;-36.26271;,
 0.05695;29.55852;-33.11971;,
 -0.66498;25.74978;-36.09364;,
 -0.20347;23.46038;-37.88565;,
 -0.47268;23.51471;-37.84632;,
 -0.20347;23.46038;-37.88565;,
 -0.47268;23.51471;-37.84632;,
 0.32280;61.47131;-79.17859;,
 0.50239;59.30210;-80.42766;,
 0.22039;60.64719;-83.14534;,
 -0.08737;61.56886;-82.10452;,
 0.32280;61.47131;-79.17859;,
 -0.70667;60.83545;-82.73576;,
 -0.92325;61.61498;-79.06015;,
 -0.26579;58.08617;-81.37447;,
 -0.24454;60.08850;-83.57979;,
 -0.92325;61.61498;-79.06015;,
 -0.76206;60.71011;-83.09130;,
 -0.79001;59.24014;-80.46973;,
 -0.26579;58.08617;-81.37447;,
 -0.61208;58.14937;-81.32781;,
 -0.59082;60.15172;-83.53315;,
 -0.61208;58.14937;-81.32781;,
 0.64362;6.98461;-8.21144;,
 1.48841;7.68744;-7.83581;,
 1.65001;6.98488;-8.45610;,
 0.64362;6.98461;-8.21144;,
 0.83198;7.97830;-7.43553;,
 0.64362;6.98461;-8.21144;,
 0.06518;7.68706;-7.48983;,
 0.64362;6.98461;-8.21144;,
 -0.36277;6.98432;-7.96676;,
 0.64362;6.98461;-8.21144;,
 -0.20119;6.28177;-8.58709;,
 0.64362;6.98461;-8.21144;,
 0.45528;5.99092;-8.98733;,
 0.64362;6.98461;-8.21144;,
 1.22205;6.28216;-8.93310;,
 0.64362;6.98461;-8.21144;,
 1.65001;6.98488;-8.45610;,
 0.76257;-6.35832;8.84807;,
 1.76896;-6.35801;8.60339;,
 1.60737;-5.65548;9.22370;,
 0.76257;-6.35832;8.84807;,
 0.95091;-5.36462;9.62395;,
 0.76257;-6.35832;8.84807;,
 0.18413;-5.65584;9.56966;,
 0.76257;-6.35832;8.84807;,
 -0.24382;-6.35856;9.09268;,
 0.76257;-6.35832;8.84807;,
 -0.08223;-7.06116;8.47240;,
 0.76257;-6.35832;8.84807;,
 0.57421;-7.35200;8.07217;,
 0.76257;-6.35832;8.84807;,
 1.34101;-7.06077;8.12644;,
 0.76257;-6.35832;8.84807;,
 1.76896;-6.35801;8.60339;,
 1.23415;4.92639;-7.19969;,
 0.46736;4.63516;-7.25395;,
 1.66209;5.62914;-6.72272;,
 -0.18910;4.92603;-6.85371;,
 1.66209;5.62914;-6.72272;,
 1.50051;6.33167;-6.10242;,
 -0.35068;5.62858;-6.23341;,
 0.84406;6.62255;-5.70217;,
 0.07727;6.33132;-5.75645;,
 1.24842;3.32470;-5.15186;,
 0.48162;3.03345;-5.20612;,
 1.67636;4.02745;-4.67489;,
 -0.17482;3.32432;-4.80588;,
 1.67636;4.02745;-4.67489;,
 1.51478;4.73000;-4.05457;,
 -0.33641;4.02689;-4.18557;,
 0.85833;5.02085;-3.65430;,
 0.09154;4.72962;-3.70862;,
 1.26305;1.68382;-3.05391;,
 0.49625;1.39255;-3.10815;,
 1.69100;2.38654;-2.57693;,
 -0.16019;1.68343;-2.70793;,
 1.69100;2.38654;-2.57693;,
 1.52942;3.08908;-1.95663;,
 -0.32178;2.38598;-2.08760;,
 0.87297;3.37996;-1.55637;,
 0.10617;3.08872;-1.61064;,
 1.27563;0.27137;-1.24806;,
 0.50884;-0.01988;-1.30229;,
 1.70358;0.97412;-0.77109;,
 -0.14760;0.27100;-0.90208;,
 1.70358;0.97412;-0.77109;,
 1.54200;1.67666;-0.15075;,
 -0.30919;0.97355;-0.28175;,
 0.88556;1.96752;0.24951;,
 0.11877;1.67627;0.19521;,
 1.28590;-0.87990;0.22390;,
 0.51911;-1.17114;0.16965;,
 1.71385;-0.17714;0.70089;,
 -0.13735;-0.88029;0.56989;,
 1.71385;-0.17714;0.70089;,
 1.55227;0.52540;1.32119;,
 -0.29892;-0.17773;1.19022;,
 0.89582;0.81625;1.72145;,
 0.12902;0.52501;1.66718;,
 1.29655;-2.07414;1.75079;,
 0.52976;-2.36538;1.69653;,
 1.72450;-1.37141;2.22778;,
 -0.12670;-2.07451;2.09680;,
 1.72450;-1.37141;2.22778;,
 1.56292;-0.66883;2.84810;,
 -0.28827;-1.37194;2.71709;,
 0.90646;-0.37799;3.24835;,
 0.13968;-0.66922;3.19409;,
 1.30978;-3.55714;3.64690;,
 0.54298;-3.84841;3.59263;,
 1.73773;-2.85441;4.12387;,
 -0.11348;-3.55755;3.99286;,
 1.73773;-2.85441;4.12387;,
 1.57615;-2.15188;4.74420;,
 -0.27505;-2.85496;4.61319;,
 0.91969;-1.86099;5.14444;,
 0.15290;-2.15224;5.09015;,
 1.32077;-4.79101;5.22442;,
 0.55398;-5.08226;5.17018;,
 1.74873;-4.08828;5.70142;,
 -0.10248;-4.79141;5.57044;,
 1.74873;-4.08828;5.70142;,
 1.58715;-3.38572;6.32171;,
 -0.26406;-4.08883;6.19072;,
 0.93069;-3.09486;6.72196;,
 0.16389;-3.38609;6.66770;,
 1.32966;-5.78802;6.49914;,
 0.56287;-6.07926;6.44488;,
 1.75761;-5.08529;6.97614;,
 -0.09358;-5.78838;6.84513;,
 1.75761;-5.08529;6.97614;,
 1.59602;-4.38271;7.59644;,
 -0.25516;-5.08582;7.46542;,
 0.93957;-4.09187;7.99668;,
 0.17280;-4.38311;7.94244;,
 1.97299;7.97979;-9.80439;,
 1.76112;8.94415;-9.04945;,
 1.77649;6.49664;-5.91864;,
 1.98835;5.53229;-6.67359;,
 0.90094;9.43270;-8.66333;,
 0.91631;6.98519;-5.53251;,
 -0.10368;9.15921;-8.87219;,
 -0.08829;6.71168;-5.74137;,
 -0.66424;8.28392;-9.55369;,
 -0.64886;5.83640;-6.42289;,
 -0.45238;7.31956;-10.30864;,
 -0.43698;4.87205;-7.17783;,
 0.40780;6.83104;-10.69475;,
 0.42317;4.38352;-7.56393;,
 1.41243;7.10451;-10.48591;,
 1.42779;4.65700;-7.35508;,
 1.97299;7.97979;-9.80439;,
 1.98835;5.53229;-6.67359;,
 0.65437;8.13183;-9.67904;,
 0.65437;8.13183;-9.67904;,
 0.65437;8.13183;-9.67904;,
 0.65437;8.13183;-9.67904;,
 0.65437;8.13183;-9.67904;,
 0.65437;8.13183;-9.67904;,
 0.65437;8.13183;-9.67904;,
 0.65437;8.13183;-9.67904;,
 0.66973;5.68435;-6.54823;,
 0.66973;5.68435;-6.54823;,
 0.66973;5.68435;-6.54823;,
 0.66973;5.68435;-6.54823;,
 0.66973;5.68435;-6.54823;,
 0.66973;5.68435;-6.54823;,
 0.66973;5.68435;-6.54823;,
 0.66973;5.68435;-6.54823;,
 1.44125;42.78804;-52.97640;,
 2.35792;47.17147;-49.55233;,
 0.83996;47.34655;-49.40806;,
 -0.07670;42.96313;-52.83211;,
 2.35792;47.17147;-49.55233;,
 2.33797;50.34373;-53.61019;,
 0.82003;50.51880;-53.46591;,
 0.83996;47.34655;-49.40806;,
 2.33797;50.34373;-53.61019;,
 1.42133;45.96031;-57.03425;,
 -0.09661;46.13532;-56.88991;,
 0.82003;50.51880;-53.46591;,
 1.42133;45.96031;-57.03425;,
 1.44125;42.78804;-52.97640;,
 -0.07670;42.96313;-52.83211;,
 -0.09661;46.13532;-56.88991;,
 2.35792;47.17147;-49.55233;,
 1.44125;42.78804;-52.97640;,
 -0.07670;42.96313;-52.83211;,
 0.83996;47.34655;-49.40806;,
 1.46820;38.50050;-47.49180;,
 2.38485;42.88388;-44.06774;,
 0.86690;43.05894;-43.92344;,
 -0.04976;38.67555;-47.34747;,
 2.38485;42.88388;-44.06774;,
 2.36492;46.05610;-48.12559;,
 0.84697;46.23114;-47.98127;,
 0.86690;43.05894;-43.92344;,
 2.36492;46.05610;-48.12559;,
 1.44826;41.67268;-51.54963;,
 -0.06967;41.84775;-51.40532;,
 0.84697;46.23114;-47.98127;,
 1.44826;41.67268;-51.54963;,
 1.46820;38.50050;-47.49180;,
 -0.04976;38.67555;-47.34747;,
 -0.06967;41.84775;-51.40532;,
 2.38485;42.88388;-44.06774;,
 1.46820;38.50050;-47.49180;,
 -0.04976;38.67555;-47.34747;,
 0.86690;43.05894;-43.92344;,
 1.49859;33.66086;-41.30104;,
 2.33400;38.06823;-37.85971;,
 0.81605;38.24328;-37.71541;,
 -0.01935;33.83592;-41.15673;,
 2.33400;38.06823;-37.85971;,
 2.31407;41.24046;-41.91756;,
 0.79612;41.41549;-41.77326;,
 0.81605;38.24328;-37.71541;,
 2.31407;41.24046;-41.91756;,
 1.47867;36.83310;-45.35888;,
 -0.03928;37.00815;-45.21459;,
 0.79612;41.41549;-41.77326;,
 1.47867;36.83310;-45.35888;,
 1.49859;33.66086;-41.30104;,
 -0.01935;33.83592;-41.15673;,
 -0.03928;37.00815;-45.21459;,
 2.33400;38.06823;-37.85971;,
 1.49859;33.66086;-41.30104;,
 -0.01935;33.83592;-41.15673;,
 0.81605;38.24328;-37.71541;,
 1.41459;47.03348;-58.40707;,
 2.41186;51.39315;-55.00018;,
 0.89391;51.56824;-54.85591;,
 -0.10336;47.20855;-58.26275;,
 2.41186;51.39315;-55.00018;,
 2.39194;54.56541;-59.05803;,
 0.87399;54.74045;-58.91373;,
 0.89391;51.56824;-54.85591;,
 2.39194;54.56541;-59.05803;,
 1.39465;50.20574;-62.46491;,
 -0.12330;50.38077;-62.32061;,
 0.87399;54.74045;-58.91373;,
 1.39465;50.20574;-62.46491;,
 1.41459;47.03348;-58.40707;,
 -0.10336;47.20855;-58.26275;,
 -0.12330;50.38077;-62.32061;,
 2.41186;51.39315;-55.00018;,
 1.41459;47.03348;-58.40707;,
 -0.10336;47.20855;-58.26275;,
 0.89391;51.56824;-54.85591;,
 1.38780;51.29632;-63.85998;,
 2.38509;55.65598;-60.45313;,
 0.86714;55.83106;-60.30883;,
 -0.13015;51.47139;-63.71571;,
 2.38509;55.65598;-60.45313;,
 2.36516;58.82821;-64.51099;,
 0.84721;59.00328;-64.36669;,
 0.86714;55.83106;-60.30883;,
 2.36516;58.82821;-64.51099;,
 1.36788;54.46854;-67.91787;,
 -0.15007;54.64360;-67.77355;,
 0.84721;59.00328;-64.36669;,
 1.36788;54.46854;-67.91787;,
 1.38780;51.29632;-63.85998;,
 -0.13015;51.47139;-63.71571;,
 -0.15007;54.64360;-67.77355;,
 2.38509;55.65598;-60.45313;,
 1.38780;51.29632;-63.85998;,
 -0.13015;51.47139;-63.71571;,
 0.86714;55.83106;-60.30883;,
 1.36305;55.23587;-68.89938;,
 1.39007;59.46185;-65.63072;,
 -0.12790;59.63690;-65.48640;,
 -0.15490;55.41088;-68.75505;,
 1.39007;59.46185;-65.63072;,
 1.11842;60.97772;-71.16214;,
 -0.39953;61.15276;-71.01784;,
 -0.12790;59.63690;-65.48640;,
 1.11842;60.97772;-71.16214;,
 1.41882;58.80737;-72.64541;,
 -0.09914;58.98241;-72.50111;,
 -0.39953;61.15276;-71.01784;,
 1.41882;58.80737;-72.64541;,
 1.36305;55.23587;-68.89938;,
 -0.15490;55.41088;-68.75505;,
 -0.09914;58.98241;-72.50111;,
 1.39007;59.46185;-65.63072;,
 1.36305;55.23587;-68.89938;,
 -0.15490;55.41088;-68.75505;,
 -0.12790;59.63690;-65.48640;,
 2.02060;0.40072;-0.10936;,
 1.80874;1.36509;0.64556;,
 1.82411;-1.08240;3.77634;,
 2.03597;-2.04681;3.02146;,
 0.94855;1.85362;1.03168;,
 0.96392;-0.59388;4.16249;,
 -0.05605;1.58014;0.82281;,
 -0.04068;-0.86734;3.95362;,
 -0.61662;0.70485;0.14135;,
 -0.60125;-1.74268;3.27218;,
 -0.40476;-0.25952;-0.61362;,
 -0.38938;-2.70702;2.51720;,
 0.45542;-0.74805;-0.99973;,
 0.47079;-3.19554;2.13105;,
 1.46004;-0.47456;-0.79089;,
 1.47541;-2.92207;2.33992;,
 2.02060;0.40072;-0.10936;,
 2.03597;-2.04681;3.02146;,
 0.70198;0.55279;0.01599;,
 0.70198;0.55279;0.01599;,
 0.70198;0.55279;0.01599;,
 0.70198;0.55279;0.01599;,
 0.70198;0.55279;0.01599;,
 0.70198;0.55279;0.01599;,
 0.70198;0.55279;0.01599;,
 0.70198;0.55279;0.01599;,
 0.71736;-1.89475;3.14682;,
 0.71736;-1.89475;3.14682;,
 0.71736;-1.89475;3.14682;,
 0.71736;-1.89475;3.14682;,
 0.71736;-1.89475;3.14682;,
 0.71736;-1.89475;3.14682;,
 0.71736;-1.89475;3.14682;,
 0.71736;-1.89475;3.14682;,
 1.62835;13.00866;-14.88307;,
 2.50104;17.61279;-11.28811;,
 0.98309;17.78784;-11.14381;,
 0.11039;13.18373;-14.73876;,
 2.50104;17.61279;-11.28811;,
 2.48112;20.78495;-15.34590;,
 0.96315;20.96000;-15.20160;,
 0.98309;17.78784;-11.14381;,
 2.48112;20.78495;-15.34590;,
 1.60841;16.18087;-18.94087;,
 0.09047;16.35591;-18.79658;,
 0.96315;20.96000;-15.20160;,
 1.60841;16.18087;-18.94087;,
 1.62835;13.00866;-14.88307;,
 0.11039;13.18373;-14.73876;,
 0.09047;16.35591;-18.79658;,
 2.50104;17.61279;-11.28811;,
 1.62835;13.00866;-14.88307;,
 0.11039;13.18373;-14.73876;,
 0.98309;17.78784;-11.14381;,
 2.04868;-4.07092;5.61070;,
 1.83681;-3.10655;6.36560;,
 1.85220;-5.55403;9.49640;,
 2.06406;-6.51843;8.74148;,
 0.97664;-2.61803;6.75174;,
 0.99203;-5.06555;9.88256;,
 -0.02796;-2.89151;6.54286;,
 -0.01258;-5.33902;9.67368;,
 -0.58852;-3.76680;5.86139;,
 -0.57315;-6.21429;8.99218;,
 -0.37667;-4.73116;5.10645;,
 -0.36129;-7.17864;8.23723;,
 0.48352;-5.21966;4.72030;,
 0.49889;-7.66720;7.85112;,
 1.48812;-4.94620;4.92917;,
 1.50349;-7.39368;8.05997;,
 2.04868;-4.07092;5.61070;,
 2.06406;-6.51843;8.74148;,
 0.73008;-3.91884;5.73603;,
 0.73008;-3.91884;5.73603;,
 0.73008;-3.91884;5.73603;,
 0.73008;-3.91884;5.73603;,
 0.73008;-3.91884;5.73603;,
 0.73008;-3.91884;5.73603;,
 0.73008;-3.91884;5.73603;,
 0.73008;-3.91884;5.73603;,
 0.74545;-6.36636;8.86684;,
 0.74545;-6.36636;8.86684;,
 0.74545;-6.36636;8.86684;,
 0.74545;-6.36636;8.86684;,
 0.74545;-6.36636;8.86684;,
 0.74545;-6.36636;8.86684;,
 0.74545;-6.36636;8.86684;,
 0.74545;-6.36636;8.86684;,
 1.59018;19.08274;-22.65293;,
 2.43995;23.56581;-19.15248;,
 0.92199;23.74087;-19.00819;,
 0.07222;19.25779;-22.50862;,
 2.43995;23.56581;-19.15248;,
 2.36255;35.88349;-34.90905;,
 0.84459;36.05852;-34.76474;,
 0.92199;23.74087;-19.00819;,
 2.36255;35.88349;-34.90905;,
 1.51280;31.40043;-38.40952;,
 -0.00515;31.57546;-38.26521;,
 0.84459;36.05852;-34.76474;,
 1.51280;31.40043;-38.40952;,
 1.59018;19.08274;-22.65293;,
 0.07222;19.25779;-22.50862;,
 -0.00515;31.57546;-38.26521;,
 2.43995;23.56581;-19.15248;,
 1.59018;19.08274;-22.65293;,
 0.07222;19.25779;-22.50862;,
 0.92199;23.74087;-19.00819;,
 1.99585;4.33875;-5.14684;,
 1.78399;5.30311;-4.39190;,
 1.79937;2.85561;-1.26108;,
 2.01123;1.89125;-2.01601;,
 0.92381;5.79164;-4.00575;,
 0.93920;3.34412;-0.87496;,
 -0.08080;5.51816;-4.21463;,
 -0.06542;3.07066;-1.08381;,
 -0.64137;4.64287;-4.89615;,
 -0.62598;2.19535;-1.76531;,
 -0.42949;3.67851;-5.65107;,
 -0.41413;1.23100;-2.52023;,
 0.43068;3.18999;-6.03718;,
 0.44605;0.74248;-2.90637;,
 1.43530;3.46347;-5.82832;,
 1.45068;1.01593;-2.69750;,
 1.99585;4.33875;-5.14684;,
 2.01123;1.89125;-2.01601;,
 0.67725;4.49081;-5.02149;,
 0.67725;4.49081;-5.02149;,
 0.67725;4.49081;-5.02149;,
 0.67725;4.49081;-5.02149;,
 0.67725;4.49081;-5.02149;,
 0.67725;4.49081;-5.02149;,
 0.67725;4.49081;-5.02149;,
 0.67725;4.49081;-5.02149;,
 0.69262;2.04330;-1.89065;,
 0.69262;2.04330;-1.89065;,
 0.69262;2.04330;-1.89065;,
 0.69262;2.04330;-1.89065;,
 0.69262;2.04330;-1.89065;,
 0.69262;2.04330;-1.89065;,
 0.69262;2.04330;-1.89065;,
 0.69262;2.04330;-1.89065;;
 
 352;
 4;0,1,2,3;,
 4;0,3,4,5;,
 4;6,7,8,9;,
 4;6,9,10,11;,
 4;12,5,4,13;,
 4;12,13,14,15;,
 4;16,17,18,19;,
 4;16,19,8,7;,
 4;20,21,22,23;,
 4;20,23,24,25;,
 4;26,27,28,29;,
 4;26,29,30,31;,
 4;29,28,32,33;,
 4;29,33,34,30;,
 4;33,32,35,36;,
 4;33,36,37,34;,
 4;36,35,38,39;,
 4;36,39,40,37;,
 4;41,42,43,44;,
 4;41,44,45,46;,
 4;47,48,49,50;,
 4;47,50,51,52;,
 4;44,43,53,54;,
 4;44,54,55,45;,
 4;56,57,58,59;,
 4;56,59,60,61;,
 4;54,53,60,59;,
 4;54,59,58,55;,
 4;62,63,64,65;,
 4;62,65,66,67;,
 4;68,69,70,71;,
 4;68,71,72,73;,
 4;74,75,76,77;,
 4;74,77,78,79;,
 4;71,70,80,81;,
 4;71,81,82,72;,
 4;77,76,83,84;,
 4;77,84,85,78;,
 4;86,87,88,89;,
 4;86,89,90,91;,
 4;92,67,66,93;,
 4;92,93,94,95;,
 4;96,97,98,99;,
 4;96,99,70,69;,
 4;100,79,78,101;,
 4;100,101,102,103;,
 4;99,98,104,105;,
 4;99,105,80,70;,
 4;101,78,85,106;,
 4;101,106,107,102;,
 4;108,109,110,111;,
 4;108,111,88,87;,
 4;112,95,94,113;,
 4;112,113,114,115;,
 4;116,117,118,119;,
 4;116,119,98,97;,
 4;120,103,102,121;,
 4;120,121,122,123;,
 4;119,118,124,125;,
 4;119,125,104,98;,
 4;121,102,107,126;,
 4;121,126,127,122;,
 4;128,129,130,131;,
 4;128,131,110,109;,
 4;132,115,114,133;,
 4;132,133,134,135;,
 4;136,137,138,139;,
 4;136,139,118,117;,
 4;140,123,122,141;,
 4;140,141,142,143;,
 4;139,138,144,145;,
 4;139,145,124,118;,
 4;141,122,127,146;,
 4;141,146,147,142;,
 4;148,149,150,151;,
 4;148,151,130,129;,
 4;152,135,134,153;,
 4;152,153,154,155;,
 4;156,157,158,159;,
 4;156,159,138,137;,
 4;160,143,142,161;,
 4;160,161,162,163;,
 4;159,158,164,165;,
 4;159,165,144,138;,
 4;161,142,147,166;,
 4;161,166,167,162;,
 4;168,169,170,171;,
 4;168,171,150,149;,
 4;172,155,154,173;,
 4;172,173,2,1;,
 4;174,27,26,175;,
 4;174,175,158,157;,
 4;176,163,162,177;,
 4;176,177,41,46;,
 4;175,26,31,178;,
 4;175,178,164,158;,
 4;177,162,167,179;,
 4;177,179,42,41;,
 4;180,11,10,181;,
 4;180,181,170,169;,
 4;182,73,72,183;,
 4;182,183,184,185;,
 4;186,185,187,188;,
 4;186,188,64,63;,
 4;183,72,82,189;,
 4;183,189,190,184;,
 4;191,187,192,193;,
 4;191,193,76,75;,
 4;194,91,90,195;,
 4;194,195,196,190;,
 4;193,192,196,197;,
 4;193,197,83,76;,
 3;198,199,200;,
 3;201,202,199;,
 3;203,204,202;,
 3;205,206,204;,
 3;207,208,206;,
 3;209,210,208;,
 3;211,212,210;,
 3;213,214,212;,
 3;215,216,217;,
 3;218,217,219;,
 3;220,219,221;,
 3;222,221,223;,
 3;224,223,225;,
 3;226,225,227;,
 3;228,227,229;,
 3;230,229,231;,
 4;232,233,210,212;,
 4;232,212,214,234;,
 4;233,235,208,210;,
 4;236,200,199,237;,
 4;235,238,206,208;,
 4;237,199,202,239;,
 4;238,240,204,206;,
 4;239,202,204,240;,
 4;241,242,233,232;,
 4;241,232,234,243;,
 4;242,244,235,233;,
 4;245,236,237,246;,
 4;244,247,238,235;,
 4;246,237,239,248;,
 4;247,249,240,238;,
 4;248,239,240,249;,
 4;250,251,242,241;,
 4;250,241,243,252;,
 4;251,253,244,242;,
 4;254,245,246,255;,
 4;253,256,247,244;,
 4;255,246,248,257;,
 4;256,258,249,247;,
 4;257,248,249,258;,
 4;259,260,251,250;,
 4;259,250,252,261;,
 4;260,262,253,251;,
 4;263,254,255,264;,
 4;262,265,256,253;,
 4;264,255,257,266;,
 4;265,267,258,256;,
 4;266,257,258,267;,
 4;268,269,260,259;,
 4;268,259,261,270;,
 4;269,271,262,260;,
 4;272,263,264,273;,
 4;271,274,265,262;,
 4;273,264,266,275;,
 4;274,276,267,265;,
 4;275,266,267,276;,
 4;277,278,269,268;,
 4;277,268,270,279;,
 4;278,280,271,269;,
 4;281,272,273,282;,
 4;280,283,274,271;,
 4;282,273,275,284;,
 4;283,285,276,274;,
 4;284,275,276,285;,
 4;286,287,278,277;,
 4;286,277,279,288;,
 4;287,289,280,278;,
 4;290,281,282,291;,
 4;289,292,283,280;,
 4;291,282,284,293;,
 4;292,294,285,283;,
 4;293,284,285,294;,
 4;295,296,287,286;,
 4;295,286,288,297;,
 4;296,298,289,287;,
 4;299,290,291,300;,
 4;298,301,292,289;,
 4;300,291,293,302;,
 4;301,303,294,292;,
 4;302,293,294,303;,
 4;304,229,227,305;,
 4;304,305,296,295;,
 4;304,295,297,306;,
 4;304,306,231,229;,
 4;305,227,225,307;,
 4;305,307,298,296;,
 4;308,299,300,309;,
 4;308,309,217,216;,
 4;307,225,223,310;,
 4;307,310,301,298;,
 4;309,300,302,311;,
 4;309,311,219,217;,
 4;310,223,221,312;,
 4;310,312,303,301;,
 4;311,302,303,312;,
 4;311,312,221,219;,
 4;313,314,315,316;,
 4;314,317,318,315;,
 4;317,319,320,318;,
 4;319,321,322,320;,
 4;321,323,324,322;,
 4;323,325,326,324;,
 4;325,327,328,326;,
 4;327,329,330,328;,
 3;331,314,313;,
 3;332,317,314;,
 3;333,319,317;,
 3;334,321,319;,
 3;335,323,321;,
 3;336,325,323;,
 3;337,327,325;,
 3;338,329,327;,
 3;339,316,315;,
 3;340,315,318;,
 3;341,318,320;,
 3;342,320,322;,
 3;343,322,324;,
 3;344,324,326;,
 3;345,326,328;,
 3;346,328,330;,
 4;347,348,349,350;,
 4;351,352,353,354;,
 4;355,356,357,358;,
 4;359,360,361,362;,
 4;359,352,363,364;,
 4;365,366,353,362;,
 4;367,368,369,370;,
 4;371,372,373,374;,
 4;375,376,377,378;,
 4;379,380,381,382;,
 4;379,372,383,384;,
 4;385,386,373,382;,
 4;387,388,389,390;,
 4;391,392,393,394;,
 4;395,396,397,398;,
 4;399,400,401,402;,
 4;399,392,403,404;,
 4;405,406,393,402;,
 4;407,408,409,410;,
 4;411,412,413,414;,
 4;415,416,417,418;,
 4;419,420,421,422;,
 4;419,412,423,424;,
 4;425,426,413,422;,
 4;427,428,429,430;,
 4;431,432,433,434;,
 4;435,436,437,438;,
 4;439,440,441,442;,
 4;439,432,443,444;,
 4;445,446,433,442;,
 4;447,448,449,450;,
 4;451,452,453,454;,
 4;455,456,457,458;,
 4;459,460,461,462;,
 4;459,452,463,464;,
 4;465,466,453,462;,
 4;467,468,469,470;,
 4;468,471,472,469;,
 4;471,473,474,472;,
 4;473,475,476,474;,
 4;475,477,478,476;,
 4;477,479,480,478;,
 4;479,481,482,480;,
 4;481,483,484,482;,
 3;485,468,467;,
 3;486,471,468;,
 3;487,473,471;,
 3;488,475,473;,
 3;489,477,475;,
 3;490,479,477;,
 3;491,481,479;,
 3;492,483,481;,
 3;493,470,469;,
 3;494,469,472;,
 3;495,472,474;,
 3;496,474,476;,
 3;497,476,478;,
 3;498,478,480;,
 3;499,480,482;,
 3;500,482,484;,
 4;501,502,503,504;,
 4;505,506,507,508;,
 4;509,510,511,512;,
 4;513,514,515,516;,
 4;513,506,517,518;,
 4;519,520,507,516;,
 4;521,522,523,524;,
 4;522,525,526,523;,
 4;525,527,528,526;,
 4;527,529,530,528;,
 4;529,531,532,530;,
 4;531,533,534,532;,
 4;533,535,536,534;,
 4;535,537,538,536;,
 3;539,522,521;,
 3;540,525,522;,
 3;541,527,525;,
 3;542,529,527;,
 3;543,531,529;,
 3;544,533,531;,
 3;545,535,533;,
 3;546,537,535;,
 3;547,524,523;,
 3;548,523,526;,
 3;549,526,528;,
 3;550,528,530;,
 3;551,530,532;,
 3;552,532,534;,
 3;553,534,536;,
 3;554,536,538;,
 4;555,556,557,558;,
 4;559,560,561,562;,
 4;563,564,565,566;,
 4;567,568,569,570;,
 4;567,560,571,572;,
 4;573,574,561,570;,
 4;575,576,577,578;,
 4;576,579,580,577;,
 4;579,581,582,580;,
 4;581,583,584,582;,
 4;583,585,586,584;,
 4;585,587,588,586;,
 4;587,589,590,588;,
 4;589,591,592,590;,
 3;593,576,575;,
 3;594,579,576;,
 3;595,581,579;,
 3;596,583,581;,
 3;597,585,583;,
 3;598,587,585;,
 3;599,589,587;,
 3;600,591,589;,
 3;601,578,577;,
 3;602,577,580;,
 3;603,580,582;,
 3;604,582,584;,
 3;605,584,586;,
 3;606,586,588;,
 3;607,588,590;,
 3;608,590,592;;
 
 MeshMaterialList {
  9;
  352;
  8,
  8,
  8,
  8,
  8,
  8,
  8,
  8,
  8,
  8,
  1,
  2,
  1,
  2,
  1,
  2,
  1,
  2,
  2,
  1,
  8,
  8,
  2,
  1,
  1,
  2,
  2,
  1,
  8,
  8,
  1,
  1,
  1,
  1,
  2,
  2,
  2,
  2,
  8,
  8,
  8,
  8,
  1,
  1,
  1,
  1,
  2,
  2,
  2,
  2,
  8,
  8,
  8,
  8,
  1,
  1,
  1,
  1,
  2,
  2,
  2,
  2,
  8,
  8,
  8,
  8,
  1,
  1,
  1,
  1,
  2,
  2,
  2,
  2,
  8,
  8,
  8,
  8,
  1,
  1,
  1,
  1,
  2,
  2,
  2,
  2,
  8,
  8,
  8,
  8,
  1,
  1,
  1,
  1,
  2,
  2,
  2,
  2,
  8,
  8,
  1,
  1,
  8,
  8,
  2,
  2,
  1,
  1,
  8,
  8,
  2,
  2,
  0,
  0,
  0,
  0,
  0,
  0,
  0,
  0,
  0,
  0,
  0,
  0,
  0,
  0,
  0,
  0,
  0,
  0,
  0,
  0,
  0,
  0,
  0,
  0,
  0,
  0,
  0,
  0,
  0,
  0,
  0,
  0,
  0,
  0,
  0,
  0,
  0,
  0,
  0,
  0,
  0,
  0,
  0,
  0,
  0,
  0,
  0,
  0,
  0,
  0,
  0,
  0,
  0,
  0,
  0,
  0,
  0,
  0,
  0,
  0,
  0,
  0,
  0,
  0,
  0,
  0,
  0,
  0,
  0,
  0,
  0,
  0,
  0,
  0,
  0,
  0,
  0,
  0,
  0,
  0,
  0,
  0,
  0,
  0,
  0,
  0,
  0,
  0,
  0,
  0,
  0,
  0,
  0,
  0,
  0,
  0,
  0,
  0,
  0,
  0,
  0,
  0,
  0,
  0,
  0,
  0,
  0,
  0,
  0,
  0,
  0,
  0,
  0,
  0,
  0,
  0,
  0,
  0,
  0,
  0,
  1,
  1,
  1,
  1,
  1,
  1,
  1,
  1,
  1,
  1,
  1,
  1,
  1,
  1,
  1,
  1,
  1,
  1,
  1,
  1,
  1,
  1,
  1,
  1,
  1,
  1,
  1,
  1,
  1,
  1,
  1,
  1,
  1,
  1,
  1,
  1,
  0,
  0,
  0,
  0,
  0,
  0,
  0,
  0,
  0,
  0,
  0,
  0,
  0,
  0,
  0,
  0,
  0,
  0,
  0,
  0,
  0,
  0,
  0,
  0,
  1,
  1,
  1,
  1,
  1,
  1,
  0,
  0,
  0,
  0,
  0,
  0,
  0,
  0,
  0,
  0,
  0,
  0,
  0,
  0,
  0,
  0,
  0,
  0,
  0,
  0,
  0,
  0,
  0,
  0,
  1,
  1,
  1,
  1,
  1,
  1,
  0,
  0,
  0,
  0,
  0,
  0,
  0,
  0,
  0,
  0,
  0,
  0,
  0,
  0,
  0,
  0,
  0,
  0,
  0,
  0,
  0,
  0,
  0,
  0;;
  Material {
   0.229020;0.141176;0.050196;1.000000;;
   5.000000;
   0.000000;0.000000;0.000000;;
   0.000000;0.000000;0.000000;;
  }
  Material {
   0.800000;0.238431;0.065882;1.000000;;
   5.000000;
   0.000000;0.000000;0.000000;;
   0.000000;0.000000;0.000000;;
  }
  Material {
   0.800000;0.530400;0.100000;1.000000;;
   5.000000;
   0.000000;0.000000;0.000000;;
   0.000000;0.000000;0.000000;;
  }
  Material {
   0.536471;0.090980;0.059608;1.000000;;
   5.000000;
   0.000000;0.000000;0.000000;;
   0.000000;0.000000;0.000000;;
  }
  Material {
   0.640000;0.392000;0.000000;1.000000;;
   5.000000;
   0.000000;0.000000;0.000000;;
   0.000000;0.000000;0.000000;;
  }
  Material {
   0.241569;0.432941;0.800000;1.000000;;
   5.000000;
   0.000000;0.000000;0.000000;;
   0.000000;0.000000;0.000000;;
  }
  Material {
   0.800000;0.800000;0.800000;1.000000;;
   5.000000;
   0.000000;0.000000;0.000000;;
   0.000000;0.000000;0.000000;;
  }
  Material {
   0.800000;0.800000;0.800000;1.000000;;
   5.000000;
   0.000000;0.000000;0.000000;;
   0.000000;0.000000;0.000000;;
  }
  Material {
   1.000000;1.000000;1.000000;1.000000;;
   0.000000;
   0.000000;0.000000;0.000000;;
   0.000000;0.000000;0.000000;;
  }
 }
 MeshNormals {
  415;
  -0.133381;-0.962806;-0.234978;,
  0.147381;0.712757;0.685752;,
  -0.185667;0.929022;-0.320072;,
  0.000764;0.615577;-0.788077;,
  -0.147759;-0.779538;-0.608677;,
  0.147759;0.779538;0.608677;,
  0.146428;0.842452;0.518492;,
  0.880119;-0.366194;-0.302146;,
  -0.996580;-0.061820;-0.054836;,
  0.147557;0.798867;0.583128;,
  0.894964;-0.351887;-0.274254;,
  -0.997708;-0.055599;-0.038564;,
  0.147805;0.760663;0.632097;,
  0.894954;-0.349356;-0.277504;,
  -0.997708;-0.055599;-0.038565;,
  0.147699;0.786806;0.599267;,
  0.894956;-0.349353;-0.277501;,
  -0.997708;-0.055599;-0.038563;,
  0.147756;0.778596;0.609882;,
  0.894956;-0.349353;-0.277502;,
  -0.997708;-0.055596;-0.038563;,
  0.147760;0.779538;0.608677;,
  0.894955;-0.349354;-0.277502;,
  -0.997708;-0.055601;-0.038565;,
  0.147763;0.779537;0.608677;,
  -0.218278;-0.768758;-0.601137;,
  0.147759;0.779537;0.608678;,
  -0.171350;-0.775992;-0.607021;,
  0.147763;0.747119;0.648058;,
  -0.143727;-0.890696;-0.431281;,
  0.962502;-0.185091;-0.198321;,
  0.954043;-0.235777;-0.184964;,
  -0.029212;0.745164;-0.666241;,
  0.953726;-0.234592;-0.188077;,
  0.953726;-0.234592;-0.188076;,
  -0.999802;-0.019661;0.003103;,
  0.953727;-0.234591;-0.188075;,
  -0.999179;0.029398;0.027890;,
  0.953727;-0.234592;-0.188075;,
  -0.999179;0.029399;0.027889;,
  0.953727;-0.234591;-0.188075;,
  -0.997311;0.047501;0.055799;,
  0.953727;-0.234592;-0.188075;,
  -0.998686;0.044330;0.025715;,
  0.953727;-0.234591;-0.188076;,
  -0.999179;0.029397;0.027889;,
  0.948379;-0.260823;-0.180413;,
  -0.999240;0.027604;0.027529;,
  0.942251;-0.287034;-0.172555;,
  -0.999361;0.025027;0.025515;,
  0.003869;-0.615884;0.787827;,
  -0.999421;0.024243;0.023861;,
  -0.998038;0.046514;0.041910;,
  0.145835;0.649390;0.746341;,
  0.955328;-0.225137;-0.191475;,
  -0.999536;0.018048;0.024537;,
  0.887682;-0.360229;-0.286802;,
  -0.997682;-0.048027;-0.048213;,
  0.147760;0.779308;0.608972;,
  0.953727;-0.234591;-0.188076;,
  -0.999179;0.029398;0.027889;,
  0.894955;-0.349354;-0.277503;,
  -0.997708;-0.055600;-0.038564;,
  0.147753;0.779490;0.608739;,
  0.953726;-0.234592;-0.188076;,
  -0.998601;0.030957;0.042870;,
  0.894954;-0.349356;-0.277503;,
  -0.997708;-0.055598;-0.038564;,
  0.147753;0.779434;0.608811;,
  0.953727;-0.234591;-0.188076;,
  -0.997397;0.060910;0.038596;,
  0.894956;-0.349352;-0.277502;,
  -0.997708;-0.055597;-0.038564;,
  0.147755;0.779539;0.608677;,
  0.953727;-0.234591;-0.188076;,
  -0.999179;0.029398;0.027890;,
  0.894955;-0.349353;-0.277502;,
  -0.997708;-0.055599;-0.038563;,
  0.147764;0.779538;0.608676;,
  0.953727;-0.234592;-0.188074;,
  -0.999179;0.029398;0.027889;,
  0.894955;-0.349354;-0.277501;,
  -0.997708;-0.055600;-0.038564;,
  0.988000;0.141416;-0.062105;,
  0.973165;-0.122749;-0.194635;,
  -0.094216;0.994997;-0.033242;,
  0.873557;-0.375401;-0.309793;,
  -0.998749;-0.038183;-0.032286;,
  -0.220782;-0.745512;-0.628861;,
  0.989016;-0.114052;-0.094018;,
  0.989016;-0.114052;-0.094017;,
  0.894954;-0.349355;-0.277503;,
  0.894955;-0.349354;-0.277502;,
  0.989016;-0.114052;-0.094018;,
  0.894954;-0.349355;-0.277503;,
  0.989016;-0.114054;-0.094018;,
  0.878537;-0.399805;-0.261397;,
  0.989016;-0.114056;-0.094018;,
  0.859419;-0.449026;-0.244487;,
  -0.997474;-0.059177;-0.039290;,
  -0.996989;-0.064318;-0.043313;,
  -0.989016;0.114053;0.094017;,
  -0.989016;0.114053;0.094017;,
  0.003869;-0.615887;0.787825;,
  0.003869;-0.615881;0.787830;,
  -0.996738;-0.065883;-0.046608;,
  -0.989016;0.114053;0.094018;,
  -0.995846;0.068638;0.059835;,
  -0.989016;0.114054;0.094020;,
  -0.989016;0.114054;0.094019;,
  -0.999713;-0.021479;-0.010594;,
  -0.999412;0.022996;0.025454;,
  0.992492;-0.082815;-0.090004;,
  0.989323;-0.113786;-0.091061;,
  0.996424;0.005665;-0.084306;,
  -0.991728;0.083974;0.097078;,
  -0.997876;0.022642;0.061086;,
  -0.989016;0.114053;0.094019;,
  -0.229930;-0.730756;-0.642750;,
  -0.238625;-0.765515;-0.597533;,
  -0.222611;-0.732217;-0.643663;,
  0.989016;-0.114053;-0.094018;,
  0.989016;-0.114052;-0.094019;,
  -0.989016;0.114053;0.094018;,
  -0.989016;0.114053;0.094018;,
  -0.241538;-0.765083;-0.596915;,
  -0.241587;-0.765073;-0.596908;,
  0.989016;-0.114053;-0.094018;,
  0.989016;-0.114055;-0.094020;,
  -0.985380;0.117114;0.123736;,
  -0.977420;0.149719;0.149114;,
  -0.241569;-0.765076;-0.596911;,
  -0.241533;-0.765083;-0.596917;,
  0.989016;-0.114055;-0.094019;,
  0.989016;-0.114053;-0.094018;,
  -0.977595;0.176280;0.115037;,
  -0.985555;0.143675;0.089658;,
  -0.241557;-0.765078;-0.596914;,
  -0.241574;-0.765076;-0.596909;,
  0.989016;-0.114052;-0.094018;,
  0.989016;-0.114053;-0.094017;,
  -0.989016;0.114053;0.094018;,
  -0.989016;0.114053;0.094019;,
  -0.241559;-0.765078;-0.596912;,
  -0.241563;-0.765078;-0.596911;,
  0.989016;-0.114053;-0.094017;,
  -0.989016;0.114052;0.094018;,
  -0.241575;-0.765075;-0.596910;,
  0.977114;-0.087909;-0.193699;,
  0.974669;0.218591;-0.047308;,
  0.866822;-0.384265;-0.317741;,
  -0.999198;0.034647;0.020066;,
  -0.996803;0.077819;0.018127;,
  -0.998300;-0.030359;-0.049746;,
  -0.220129;-0.721141;-0.656886;,
  -0.983514;-0.138043;-0.116808;,
  -0.990265;-0.110705;-0.084377;,
  -0.184311;0.626357;-0.757434;,
  -0.184314;0.626361;-0.757430;,
  -0.184322;0.626356;-0.757432;,
  -0.184295;0.626361;-0.757435;,
  -0.184294;0.626341;-0.757451;,
  -0.184323;0.626350;-0.757437;,
  -0.184302;0.626367;-0.757428;,
  -0.184312;0.626356;-0.757435;,
  -0.184325;0.626363;-0.757426;,
  0.184340;-0.626349;0.757433;,
  0.184320;-0.626359;0.757431;,
  0.184277;-0.626346;0.757451;,
  0.184253;-0.626345;0.757458;,
  0.184256;-0.626341;0.757461;,
  0.184275;-0.626351;0.757448;,
  0.184287;-0.626365;0.757434;,
  0.184312;-0.626346;0.757443;,
  0.184290;-0.626350;0.757445;,
  0.656655;-0.591835;-0.467478;,
  -0.147761;-0.779535;-0.608680;,
  0.989009;-0.113037;-0.095306;,
  -0.848407;-0.419809;-0.322437;,
  0.848413;0.419803;0.322429;,
  -0.989008;0.113045;0.095313;,
  0.147761;0.779538;0.608677;,
  -0.656660;0.591833;0.467474;,
  0.656658;-0.591834;-0.467475;,
  -0.147763;-0.779537;-0.608678;,
  0.989009;-0.113038;-0.095307;,
  -0.848409;-0.419807;-0.322434;,
  0.848413;0.419804;0.322429;,
  -0.989008;0.113042;0.095310;,
  0.147758;0.779538;0.608677;,
  -0.656661;0.591832;0.467473;,
  0.656656;-0.591835;-0.467477;,
  -0.147763;-0.779537;-0.608677;,
  0.989009;-0.113040;-0.095310;,
  -0.848409;-0.419809;-0.322433;,
  0.848413;0.419803;0.322429;,
  -0.989009;0.113040;0.095310;,
  0.147763;0.779537;0.608678;,
  -0.656658;0.591833;0.467477;,
  0.656655;-0.591835;-0.467477;,
  -0.147762;-0.779537;-0.608678;,
  0.989009;-0.113039;-0.095308;,
  -0.848408;-0.419809;-0.322435;,
  0.848412;0.419805;0.322429;,
  -0.989008;0.113044;0.095311;,
  0.147760;0.779539;0.608676;,
  -0.656657;0.591835;0.467475;,
  0.656656;-0.591835;-0.467477;,
  -0.147762;-0.779539;-0.608675;,
  0.989009;-0.113036;-0.095309;,
  -0.848409;-0.419809;-0.322431;,
  0.848410;0.419809;0.322430;,
  -0.989008;0.113045;0.095313;,
  0.147757;0.779541;0.608674;,
  -0.656657;0.591837;0.467473;,
  0.656659;-0.591833;-0.467475;,
  -0.147758;-0.779538;-0.608678;,
  0.989009;-0.113039;-0.095311;,
  -0.848412;-0.419804;-0.322430;,
  0.848408;0.419810;0.322432;,
  -0.989007;0.113046;0.095316;,
  0.147754;0.779539;0.608677;,
  -0.656657;0.591834;0.467476;,
  0.656660;-0.591831;-0.467475;,
  -0.147750;-0.779538;-0.608680;,
  0.989008;-0.113042;-0.095313;,
  -0.848411;-0.419804;-0.322433;,
  0.848410;0.419807;0.322432;,
  -0.989007;0.113050;0.095315;,
  0.147753;0.779536;0.608680;,
  -0.656658;0.591832;0.467477;,
  0.656657;-0.591834;-0.467477;,
  -0.147755;-0.779539;-0.608676;,
  0.989008;-0.113044;-0.095311;,
  -0.848409;-0.419810;-0.322430;,
  0.848409;0.419807;0.322436;,
  -0.989008;0.113045;0.095315;,
  0.147757;0.779537;0.608679;,
  -0.656654;0.591836;0.467478;,
  0.656654;-0.591839;-0.467474;,
  -0.147763;-0.779540;-0.608674;,
  0.989009;-0.113042;-0.095307;,
  -0.848409;-0.419810;-0.322430;,
  0.848405;0.419812;0.322439;,
  -0.989008;0.113042;0.095313;,
  0.147757;0.779537;0.608678;,
  -0.656651;0.591838;0.467479;,
  -0.003865;0.615886;-0.787826;,
  0.989016;-0.114055;-0.094016;,
  0.848442;0.419004;0.323391;,
  0.147755;0.779538;0.608679;,
  -0.656703;0.592574;0.466473;,
  -0.989016;0.114050;0.094020;,
  -0.848439;-0.419010;-0.323392;,
  -0.147763;-0.779538;-0.608676;,
  0.656694;-0.592584;-0.466474;,
  0.003869;-0.615887;0.787825;,
  -0.147758;-0.779536;-0.608680;,
  0.656651;-0.591837;-0.467482;,
  0.989009;-0.113036;-0.095308;,
  -0.848405;-0.419813;-0.322437;,
  0.848414;0.419802;0.322429;,
  -0.989008;0.113044;0.095316;,
  0.147767;0.779535;0.608679;,
  -0.656657;0.591833;0.467479;,
  0.656654;-0.591840;-0.467472;,
  -0.147763;-0.779540;-0.608673;,
  0.989009;-0.113039;-0.095307;,
  -0.848409;-0.419808;-0.322434;,
  0.848404;0.419815;0.322439;,
  -0.989008;0.113045;0.095309;,
  0.147755;0.779537;0.608679;,
  -0.656651;0.591839;0.467478;,
  -0.003867;0.615878;-0.787832;,
  -0.003876;0.615892;-0.787821;,
  -0.003866;0.615871;-0.787838;,
  -0.003867;0.615876;-0.787833;,
  -0.003855;0.615888;-0.787824;,
  -0.003852;0.615894;-0.787820;,
  -0.003864;0.615893;-0.787820;,
  -0.003877;0.615896;-0.787818;,
  0.003875;-0.615890;0.787823;,
  0.003862;-0.615892;0.787821;,
  0.003872;-0.615885;0.787826;,
  0.003878;-0.615894;0.787820;,
  0.003865;-0.615895;0.787819;,
  0.003859;-0.615883;0.787828;,
  0.003863;-0.615878;0.787832;,
  0.003877;-0.615879;0.787831;,
  0.003808;-0.616079;0.787675;,
  0.147763;0.779535;0.608681;,
  -0.003841;0.616078;-0.787676;,
  0.003834;-0.616084;0.787671;,
  0.147762;0.779537;0.608677;,
  -0.003838;0.616083;-0.787672;,
  0.003870;-0.615881;0.787830;,
  0.147754;0.779538;0.608678;,
  -0.003871;0.615881;-0.787829;,
  0.003781;-0.616274;0.787523;,
  0.147761;0.779535;0.608680;,
  -0.003797;0.616278;-0.787520;,
  0.003780;-0.616274;0.787523;,
  0.147771;0.779536;0.608676;,
  -0.003794;0.616276;-0.787521;,
  0.004657;-0.611823;0.790981;,
  0.134704;0.957317;0.255733;,
  -0.013652;0.562899;-0.826413;,
  -0.003868;0.615883;-0.787829;,
  0.989016;-0.114053;-0.094017;,
  0.848440;0.419006;0.323392;,
  0.147753;0.779540;0.608676;,
  -0.656697;0.592582;0.466471;,
  -0.989015;0.114059;0.094021;,
  -0.848442;-0.419006;-0.323390;,
  -0.147758;-0.779539;-0.608677;,
  0.656701;-0.592578;-0.466472;,
  0.003871;-0.615882;0.787829;,
  0.003871;-0.615881;0.787829;,
  0.147757;0.779539;0.608676;,
  -0.003868;0.615885;-0.787826;,
  -0.003867;0.615885;-0.787826;,
  0.989015;-0.114055;-0.094021;,
  0.848440;0.419009;0.323389;,
  0.147752;0.779539;0.608677;,
  -0.656702;0.592577;0.466471;,
  -0.989015;0.114059;0.094022;,
  -0.848445;-0.419001;-0.323388;,
  -0.147751;-0.779538;-0.608679;,
  0.656703;-0.592576;-0.466471;,
  0.003870;-0.615889;0.787824;,
  0.003868;-0.615880;0.787831;,
  0.147757;0.779539;0.608677;,
  -0.003879;0.615886;-0.787826;,
  -0.003867;0.615884;-0.787827;,
  0.989016;-0.114050;-0.094018;,
  0.848441;0.419008;0.323390;,
  0.147759;0.779538;0.608678;,
  -0.656699;0.592578;0.466474;,
  -0.989016;0.114051;0.094017;,
  -0.848438;-0.419010;-0.323393;,
  -0.147761;-0.779537;-0.608678;,
  0.656696;-0.592579;-0.466476;,
  0.003870;-0.615880;0.787830;,
  -0.147766;-0.779534;-0.608680;,
  0.986684;-0.125754;-0.103156;,
  -0.986684;0.125756;0.103154;,
  -0.147770;-0.779538;-0.608675;,
  0.986684;-0.125754;-0.103156;,
  -0.986684;0.125756;0.103153;,
  -0.147763;-0.779536;-0.608679;,
  0.989016;-0.114054;-0.094019;,
  -0.989016;0.114053;0.094018;,
  -0.147766;-0.779535;-0.608679;,
  0.984134;-0.137404;-0.112250;,
  -0.984134;0.137404;0.112249;,
  -0.147764;-0.779538;-0.608676;,
  0.984134;-0.137406;-0.112249;,
  -0.984134;0.137405;0.112250;,
  -0.147411;-0.714761;-0.683656;,
  0.998392;0.051698;0.023249;,
  -0.998392;-0.051699;-0.023250;,
  -0.003872;0.615875;-0.787835;,
  -0.003869;0.615889;-0.787824;,
  -0.003861;0.615874;-0.787835;,
  -0.003863;0.615867;-0.787841;,
  -0.003872;0.615882;-0.787829;,
  -0.003858;0.615893;-0.787820;,
  -0.003871;0.615887;-0.787825;,
  -0.003881;0.615896;-0.787818;,
  0.003874;-0.615875;0.787834;,
  0.003901;-0.615849;0.787854;,
  0.003876;-0.615860;0.787846;,
  0.003855;-0.615844;0.787859;,
  0.003871;-0.615876;0.787834;,
  0.003861;-0.615917;0.787802;,
  0.003864;-0.615915;0.787803;,
  0.003868;-0.615916;0.787802;,
  -0.147759;-0.779537;-0.608678;,
  0.989016;-0.114054;-0.094020;,
  -0.989016;0.114053;0.094019;,
  -0.003866;0.615879;-0.787831;,
  -0.003848;0.615879;-0.787832;,
  -0.003867;0.615890;-0.787823;,
  -0.003869;0.615882;-0.787829;,
  -0.003883;0.615881;-0.787829;,
  -0.003885;0.615890;-0.787822;,
  -0.003870;0.615891;-0.787822;,
  -0.003849;0.615890;-0.787822;,
  0.003868;-0.615884;0.787828;,
  0.003893;-0.615881;0.787829;,
  0.003882;-0.615895;0.787819;,
  0.003856;-0.615889;0.787824;,
  0.003861;-0.615893;0.787820;,
  0.003846;-0.615889;0.787823;,
  0.003868;-0.615882;0.787829;,
  0.003884;-0.615895;0.787819;,
  -0.147759;-0.779538;-0.608677;,
  0.989016;-0.114054;-0.094019;,
  -0.989016;0.114054;0.094018;,
  -0.003876;0.615893;-0.787821;,
  -0.003872;0.615880;-0.787830;,
  -0.003866;0.615895;-0.787819;,
  -0.003858;0.615891;-0.787822;,
  -0.003865;0.615883;-0.787828;,
  -0.003866;0.615878;-0.787832;,
  -0.003864;0.615878;-0.787832;,
  -0.003868;0.615875;-0.787835;,
  0.003886;-0.615878;0.787832;,
  0.003883;-0.615881;0.787830;,
  0.003868;-0.615878;0.787832;,
  0.003859;-0.615874;0.787835;,
  0.003863;-0.615876;0.787834;,
  0.003869;-0.615886;0.787826;,
  0.003864;-0.615891;0.787822;,
  0.003870;-0.615881;0.787830;;
  352;
  4;26,24,24,26;,
  4;26,26,5,5;,
  4;27,4,4,27;,
  4;27,27,25,25;,
  4;28,5,5,28;,
  4;28,28,1,1;,
  4;29,0,0,29;,
  4;29,29,4,4;,
  4;32,3,3,32;,
  4;32,32,2,2;,
  4;40,89,90,42;,
  4;40,42,91,92;,
  4;42,90,93,44;,
  4;42,44,94,91;,
  4;44,93,95,46;,
  4;44,46,96,94;,
  4;46,95,97,48;,
  4;46,48,98,96;,
  4;47,99,100,49;,
  4;47,49,101,102;,
  4;50,103,103,50;,
  4;50,50,104,104;,
  4;49,100,105,51;,
  4;49,51,106,101;,
  4;107,108,109,52;,
  4;107,52,110,111;,
  4;51,105,110,52;,
  4;51,52,109,106;,
  4;53,6,6,53;,
  4;53,53,9,9;,
  4;112,113,31,54;,
  4;112,54,30,114;,
  4;115,116,35,55;,
  4;115,55,37,117;,
  4;54,31,10,56;,
  4;54,56,7,30;,
  4;55,35,8,57;,
  4;55,57,11,37;,
  4;118,119,119,118;,
  4;118,118,120,120;,
  4;58,9,9,58;,
  4;58,58,12,12;,
  4;121,122,33,59;,
  4;121,59,31,113;,
  4;123,117,37,60;,
  4;123,60,39,124;,
  4;59,33,13,61;,
  4;59,61,10,31;,
  4;60,37,11,62;,
  4;60,62,14,39;,
  4;125,126,126,125;,
  4;125,125,119,119;,
  4;63,12,12,63;,
  4;63,63,15,15;,
  4;127,128,34,64;,
  4;127,64,33,122;,
  4;129,124,39,65;,
  4;129,65,41,130;,
  4;64,34,16,66;,
  4;64,66,13,33;,
  4;65,39,14,67;,
  4;65,67,17,41;,
  4;131,132,132,131;,
  4;131,131,126,126;,
  4;68,15,15,68;,
  4;68,68,18,18;,
  4;133,134,36,69;,
  4;133,69,34,128;,
  4;135,130,41,70;,
  4;135,70,43,136;,
  4;69,36,19,71;,
  4;69,71,16,34;,
  4;70,41,17,72;,
  4;70,72,20,43;,
  4;137,138,138,137;,
  4;137,137,132,132;,
  4;73,18,18,73;,
  4;73,73,21,21;,
  4;139,140,38,74;,
  4;139,74,36,134;,
  4;141,136,43,75;,
  4;141,75,45,142;,
  4;74,38,22,76;,
  4;74,76,19,36;,
  4;75,43,20,77;,
  4;75,77,23,45;,
  4;143,144,144,143;,
  4;143,143,138,138;,
  4;78,21,21,78;,
  4;78,78,24,24;,
  4;145,89,40,79;,
  4;145,79,38,140;,
  4;146,142,45,80;,
  4;146,80,47,102;,
  4;79,40,92,81;,
  4;79,81,22,38;,
  4;80,45,23,82;,
  4;80,82,99,47;,
  4;147,25,25,147;,
  4;147,147,144,144;,
  4;83,114,30,84;,
  4;83,84,148,149;,
  4;85,2,2,85;,
  4;85,85,6,6;,
  4;84,30,7,86;,
  4;84,86,150,148;,
  4;151,152,153,87;,
  4;151,87,35,116;,
  4;88,120,120,88;,
  4;88,88,154,154;,
  4;87,153,155,156;,
  4;87,156,8,35;,
  3;157,159,158;,
  3;157,160,159;,
  3;157,161,160;,
  3;157,162,161;,
  3;157,163,162;,
  3;157,164,163;,
  3;157,165,164;,
  3;157,158,165;,
  3;174,166,167;,
  3;174,167,168;,
  3;174,168,169;,
  3;174,169,170;,
  3;174,170,171;,
  3;174,171,172;,
  3;174,172,173;,
  3;174,173,166;,
  4;175,176,257,258;,
  4;175,258,259,177;,
  4;176,178,260,257;,
  4;177,259,261,179;,
  4;178,180,262,260;,
  4;179,261,263,181;,
  4;180,182,264,262;,
  4;181,263,264,182;,
  4;183,184,176,175;,
  4;183,175,177,185;,
  4;184,186,178,176;,
  4;185,177,179,187;,
  4;186,188,180,178;,
  4;187,179,181,189;,
  4;188,190,182,180;,
  4;189,181,182,190;,
  4;191,192,184,183;,
  4;191,183,185,193;,
  4;192,194,186,184;,
  4;193,185,187,195;,
  4;194,196,188,186;,
  4;195,187,189,197;,
  4;196,198,190,188;,
  4;197,189,190,198;,
  4;199,200,192,191;,
  4;199,191,193,201;,
  4;200,202,194,192;,
  4;201,193,195,203;,
  4;202,204,196,194;,
  4;203,195,197,205;,
  4;204,206,198,196;,
  4;205,197,198,206;,
  4;207,208,200,199;,
  4;207,199,201,209;,
  4;208,210,202,200;,
  4;209,201,203,211;,
  4;210,212,204,202;,
  4;211,203,205,213;,
  4;212,214,206,204;,
  4;213,205,206,214;,
  4;215,216,208,207;,
  4;215,207,209,217;,
  4;216,218,210,208;,
  4;217,209,211,219;,
  4;218,220,212,210;,
  4;219,211,213,221;,
  4;220,222,214,212;,
  4;221,213,214,222;,
  4;223,224,216,215;,
  4;223,215,217,225;,
  4;224,226,218,216;,
  4;225,217,219,227;,
  4;226,228,220,218;,
  4;227,219,221,229;,
  4;228,230,222,220;,
  4;229,221,222,230;,
  4;231,232,224,223;,
  4;231,223,225,233;,
  4;232,234,226,224;,
  4;233,225,227,235;,
  4;234,236,228,226;,
  4;235,227,229,237;,
  4;236,238,230,228;,
  4;237,229,230,238;,
  4;239,265,266,240;,
  4;239,240,232,231;,
  4;239,231,233,241;,
  4;239,241,267,265;,
  4;240,266,268,242;,
  4;240,242,234,232;,
  4;241,233,235,243;,
  4;241,243,269,267;,
  4;242,268,270,244;,
  4;242,244,236,234;,
  4;243,235,237,245;,
  4;243,245,271,269;,
  4;244,270,272,246;,
  4;244,246,238,236;,
  4;245,237,238,246;,
  4;245,246,272,271;,
  4;248,249,249,248;,
  4;249,250,250,249;,
  4;250,251,251,250;,
  4;251,252,252,251;,
  4;252,253,253,252;,
  4;253,254,254,253;,
  4;254,255,255,254;,
  4;255,248,248,255;,
  3;247,273,274;,
  3;247,275,273;,
  3;247,276,275;,
  3;247,277,276;,
  3;247,278,277;,
  3;247,279,278;,
  3;247,280,279;,
  3;247,274,280;,
  3;256,281,282;,
  3;256,282,283;,
  3;256,283,284;,
  3;256,284,285;,
  3;256,285,286;,
  3;256,286,287;,
  3;256,287,288;,
  3;256,288,281;,
  4;289,289,289,289;,
  4;290,290,290,290;,
  4;291,291,291,291;,
  4;343,343,343,343;,
  4;344,344,344,344;,
  4;345,345,345,345;,
  4;292,292,292,292;,
  4;293,293,293,293;,
  4;294,294,294,294;,
  4;346,346,346,346;,
  4;347,347,347,347;,
  4;348,348,348,348;,
  4;295,295,295,295;,
  4;296,296,296,296;,
  4;297,297,297,297;,
  4;349,349,349,349;,
  4;350,350,350,350;,
  4;351,351,351,351;,
  4;298,298,298,298;,
  4;299,299,299,299;,
  4;300,300,300,300;,
  4;352,352,352,352;,
  4;353,353,353,353;,
  4;354,354,354,354;,
  4;301,301,301,301;,
  4;302,302,302,302;,
  4;303,303,303,303;,
  4;355,355,355,355;,
  4;356,356,356,356;,
  4;357,357,357,357;,
  4;304,304,304,304;,
  4;305,305,305,305;,
  4;306,306,306,306;,
  4;358,358,358,358;,
  4;359,359,359,359;,
  4;360,360,360,360;,
  4;308,309,309,308;,
  4;309,310,310,309;,
  4;310,311,311,310;,
  4;311,312,312,311;,
  4;312,313,313,312;,
  4;313,314,314,313;,
  4;314,315,315,314;,
  4;315,308,308,315;,
  3;307,361,362;,
  3;307,363,361;,
  3;307,364,363;,
  3;307,365,364;,
  3;307,366,365;,
  3;307,367,366;,
  3;307,368,367;,
  3;307,362,368;,
  3;316,369,370;,
  3;316,370,371;,
  3;316,371,372;,
  3;316,372,373;,
  3;316,373,374;,
  3;316,374,375;,
  3;316,375,376;,
  3;316,376,369;,
  4;317,317,317,317;,
  4;318,318,318,318;,
  4;319,319,319,319;,
  4;377,377,377,377;,
  4;378,378,378,378;,
  4;379,379,379,379;,
  4;321,322,322,321;,
  4;322,323,323,322;,
  4;323,324,324,323;,
  4;324,325,325,324;,
  4;325,326,326,325;,
  4;326,327,327,326;,
  4;327,328,328,327;,
  4;328,321,321,328;,
  3;320,380,381;,
  3;320,382,380;,
  3;320,383,382;,
  3;320,384,383;,
  3;320,385,384;,
  3;320,386,385;,
  3;320,387,386;,
  3;320,381,387;,
  3;329,388,389;,
  3;329,389,390;,
  3;329,390,391;,
  3;329,391,392;,
  3;329,392,393;,
  3;329,393,394;,
  3;329,394,395;,
  3;329,395,388;,
  4;330,330,330,330;,
  4;331,331,331,331;,
  4;332,332,332,332;,
  4;396,396,396,396;,
  4;397,397,397,397;,
  4;398,398,398,398;,
  4;334,335,335,334;,
  4;335,336,336,335;,
  4;336,337,337,336;,
  4;337,338,338,337;,
  4;338,339,339,338;,
  4;339,340,340,339;,
  4;340,341,341,340;,
  4;341,334,334,341;,
  3;333,399,400;,
  3;333,401,399;,
  3;333,402,401;,
  3;333,403,402;,
  3;333,404,403;,
  3;333,405,404;,
  3;333,406,405;,
  3;333,400,406;,
  3;342,407,408;,
  3;342,408,409;,
  3;342,409,410;,
  3;342,410,411;,
  3;342,411,412;,
  3;342,412,413;,
  3;342,413,414;,
  3;342,414,407;;
 }
 MeshTextureCoords {
  609;
  0.239610;0.000000;,
  0.302820;0.000000;,
  0.302820;1.000000;,
  0.239610;1.000000;,
  0.148410;1.000000;,
  0.148410;0.000000;,
  0.760390;0.000000;,
  0.851590;0.000000;,
  0.851590;1.000000;,
  0.760390;1.000000;,
  0.697180;1.000000;,
  0.697180;0.000000;,
  0.072670;0.000000;,
  0.072670;1.000000;,
  0.000000;1.000000;,
  0.000000;0.000000;,
  0.927330;0.000000;,
  1.000000;0.000000;,
  1.000000;1.000000;,
  0.927330;1.000000;,
  0.750920;0.000000;,
  1.000000;0.000000;,
  1.000000;1.000000;,
  0.750920;1.000000;,
  0.000000;1.000000;,
  0.000000;0.000000;,
  0.249080;0.697180;,
  1.000000;0.697180;,
  1.000000;0.760390;,
  0.249080;0.760390;,
  0.000000;0.760390;,
  0.000000;0.697180;,
  1.000000;0.851590;,
  0.249080;0.851590;,
  0.000000;0.851590;,
  1.000000;0.927330;,
  0.249080;0.927330;,
  0.000000;0.927330;,
  1.000000;1.000000;,
  0.249080;1.000000;,
  0.000000;1.000000;,
  0.249080;0.302820;,
  0.000000;0.302820;,
  0.000000;0.239610;,
  0.249080;0.239610;,
  1.000000;0.239610;,
  1.000000;0.302820;,
  0.249080;0.000000;,
  1.000000;0.000000;,
  1.000000;1.000000;,
  0.249080;1.000000;,
  0.000000;1.000000;,
  0.000000;0.000000;,
  0.000000;0.148410;,
  0.249080;0.148410;,
  1.000000;0.148410;,
  0.249080;0.000000;,
  1.000000;0.000000;,
  1.000000;0.072670;,
  0.249080;0.072670;,
  0.000000;0.072670;,
  0.000000;0.000000;,
  0.846690;0.000000;,
  0.896280;0.000000;,
  0.896280;1.000000;,
  0.846690;1.000000;,
  0.796560;1.000000;,
  0.796560;0.000000;,
  1.000000;0.153310;,
  1.000000;0.203440;,
  0.249080;0.203440;,
  0.249080;0.153310;,
  0.249080;0.103720;,
  1.000000;0.103720;,
  1.000000;0.846690;,
  1.000000;0.896280;,
  0.249080;0.896280;,
  0.249080;0.846690;,
  0.249080;0.796560;,
  1.000000;0.796560;,
  0.000000;0.203440;,
  0.000000;0.153310;,
  0.000000;0.103720;,
  0.000000;0.896280;,
  0.000000;0.846690;,
  0.000000;0.796560;,
  0.153310;0.000000;,
  0.203440;0.000000;,
  0.203440;1.000000;,
  0.153310;1.000000;,
  0.103720;1.000000;,
  0.103720;0.000000;,
  0.749320;0.000000;,
  0.749320;1.000000;,
  0.702990;1.000000;,
  0.702990;0.000000;,
  1.000000;0.250680;,
  1.000000;0.297010;,
  0.249080;0.297010;,
  0.249080;0.250680;,
  1.000000;0.749320;,
  0.249080;0.749320;,
  0.249080;0.702990;,
  1.000000;0.702990;,
  0.000000;0.297010;,
  0.000000;0.250680;,
  0.000000;0.749320;,
  0.000000;0.702990;,
  0.250680;0.000000;,
  0.297010;0.000000;,
  0.297010;1.000000;,
  0.250680;1.000000;,
  0.651600;0.000000;,
  0.651600;1.000000;,
  0.599830;1.000000;,
  0.599830;0.000000;,
  1.000000;0.348400;,
  1.000000;0.400170;,
  0.249080;0.400170;,
  0.249080;0.348400;,
  1.000000;0.651600;,
  0.249080;0.651600;,
  0.249080;0.599830;,
  1.000000;0.599830;,
  0.000000;0.400170;,
  0.000000;0.348400;,
  0.000000;0.651600;,
  0.000000;0.599830;,
  0.348400;0.000000;,
  0.400170;0.000000;,
  0.400170;1.000000;,
  0.348400;1.000000;,
  0.540930;0.000000;,
  0.540930;1.000000;,
  0.488550;1.000000;,
  0.488550;0.000000;,
  1.000000;0.459070;,
  1.000000;0.511450;,
  0.249080;0.511450;,
  0.249080;0.459070;,
  1.000000;0.540930;,
  0.249080;0.540930;,
  0.249080;0.488550;,
  1.000000;0.488550;,
  0.000000;0.511450;,
  0.000000;0.459070;,
  0.000000;0.540930;,
  0.000000;0.488550;,
  0.459070;0.000000;,
  0.511450;0.000000;,
  0.511450;1.000000;,
  0.459070;1.000000;,
  0.439210;0.000000;,
  0.439210;1.000000;,
  0.392920;1.000000;,
  0.392920;0.000000;,
  1.000000;0.560790;,
  1.000000;0.607080;,
  0.249080;0.607080;,
  0.249080;0.560790;,
  1.000000;0.439210;,
  0.249080;0.439210;,
  0.249080;0.392920;,
  1.000000;0.392920;,
  0.000000;0.607080;,
  0.000000;0.560790;,
  0.000000;0.439210;,
  0.000000;0.392920;,
  0.560790;0.000000;,
  0.607080;0.000000;,
  0.607080;1.000000;,
  0.560790;1.000000;,
  0.350760;0.000000;,
  0.350760;1.000000;,
  1.000000;0.649240;,
  0.249080;0.649240;,
  1.000000;0.350760;,
  0.249080;0.350760;,
  0.000000;0.649240;,
  0.000000;0.350760;,
  0.649240;0.000000;,
  0.649240;1.000000;,
  1.000000;0.032930;,
  0.249080;0.032930;,
  0.249080;0.000000;,
  1.000000;0.000000;,
  0.967070;0.000000;,
  1.000000;1.000000;,
  0.967070;1.000000;,
  0.000000;0.032930;,
  0.000000;0.000000;,
  1.000000;0.967070;,
  0.249080;1.000000;,
  0.249080;0.967070;,
  0.032930;0.000000;,
  0.032930;1.000000;,
  0.000000;1.000000;,
  0.000000;0.967070;,
  0.062500;0.000000;,
  0.125000;0.000000;,
  0.000000;0.000000;,
  0.187500;0.000000;,
  0.250000;0.000000;,
  0.312500;0.000000;,
  0.375000;0.000000;,
  0.437500;0.000000;,
  0.500000;0.000000;,
  0.562500;0.000000;,
  0.625000;0.000000;,
  0.687500;0.000000;,
  0.750000;0.000000;,
  0.812500;0.000000;,
  0.875000;0.000000;,
  0.937500;0.000000;,
  1.000000;0.000000;,
  0.062500;1.000000;,
  0.000000;1.000000;,
  0.125000;1.000000;,
  0.187500;1.000000;,
  0.250000;1.000000;,
  0.312500;1.000000;,
  0.375000;1.000000;,
  0.437500;1.000000;,
  0.500000;1.000000;,
  0.562500;1.000000;,
  0.625000;1.000000;,
  0.687500;1.000000;,
  0.750000;1.000000;,
  0.812500;1.000000;,
  0.875000;1.000000;,
  0.937500;1.000000;,
  1.000000;1.000000;,
  0.875000;0.101610;,
  0.750000;0.101610;,
  1.000000;0.101610;,
  0.625000;0.101610;,
  0.000000;0.101610;,
  0.125000;0.101610;,
  0.500000;0.101610;,
  0.250000;0.101610;,
  0.375000;0.101610;,
  0.875000;0.221650;,
  0.750000;0.221650;,
  1.000000;0.221650;,
  0.625000;0.221650;,
  0.000000;0.221650;,
  0.125000;0.221650;,
  0.500000;0.221650;,
  0.250000;0.221650;,
  0.375000;0.221650;,
  0.875000;0.344630;,
  0.750000;0.344630;,
  1.000000;0.344630;,
  0.625000;0.344630;,
  0.000000;0.344630;,
  0.125000;0.344630;,
  0.500000;0.344630;,
  0.250000;0.344630;,
  0.375000;0.344630;,
  0.875000;0.450480;,
  0.750000;0.450480;,
  1.000000;0.450480;,
  0.625000;0.450480;,
  0.000000;0.450480;,
  0.125000;0.450480;,
  0.500000;0.450480;,
  0.250000;0.450480;,
  0.375000;0.450480;,
  0.875000;0.536770;,
  0.750000;0.536770;,
  1.000000;0.536770;,
  0.625000;0.536770;,
  0.000000;0.536770;,
  0.125000;0.536770;,
  0.500000;0.536770;,
  0.250000;0.536770;,
  0.375000;0.536770;,
  0.875000;0.626270;,
  0.750000;0.626270;,
  1.000000;0.626270;,
  0.625000;0.626270;,
  0.000000;0.626270;,
  0.125000;0.626270;,
  0.500000;0.626270;,
  0.250000;0.626270;,
  0.375000;0.626270;,
  0.875000;0.737420;,
  0.750000;0.737420;,
  1.000000;0.737420;,
  0.625000;0.737420;,
  0.000000;0.737420;,
  0.125000;0.737420;,
  0.500000;0.737420;,
  0.250000;0.737420;,
  0.375000;0.737420;,
  0.875000;0.829890;,
  0.750000;0.829890;,
  1.000000;0.829890;,
  0.625000;0.829890;,
  0.000000;0.829890;,
  0.125000;0.829890;,
  0.500000;0.829890;,
  0.250000;0.829890;,
  0.375000;0.829890;,
  0.875000;0.904610;,
  0.750000;0.904610;,
  1.000000;0.904610;,
  0.625000;0.904610;,
  0.000000;0.904610;,
  0.125000;0.904610;,
  0.500000;0.904610;,
  0.250000;0.904610;,
  0.375000;0.904610;,
  0.000000;0.000000;,
  0.125000;0.000000;,
  0.125000;1.000000;,
  0.000000;1.000000;,
  0.250000;0.000000;,
  0.250000;1.000000;,
  0.375000;0.000000;,
  0.375000;1.000000;,
  0.500000;0.000000;,
  0.500000;1.000000;,
  0.625000;0.000000;,
  0.625000;1.000000;,
  0.750000;0.000000;,
  0.750000;1.000000;,
  0.875000;0.000000;,
  0.875000;1.000000;,
  1.000000;0.000000;,
  1.000000;1.000000;,
  0.062500;0.000000;,
  0.187500;0.000000;,
  0.312500;0.000000;,
  0.437500;0.000000;,
  0.562500;0.000000;,
  0.687500;0.000000;,
  0.812500;0.000000;,
  0.937500;0.000000;,
  0.062500;1.000000;,
  0.187500;1.000000;,
  0.312500;1.000000;,
  0.437500;1.000000;,
  0.562500;1.000000;,
  0.687500;1.000000;,
  0.812500;1.000000;,
  0.937500;1.000000;,
  0.000000;0.000000;,
  1.000000;0.000000;,
  1.000000;1.000000;,
  0.000000;1.000000;,
  0.000000;0.000000;,
  1.000000;0.000000;,
  1.000000;1.000000;,
  0.000000;1.000000;,
  0.000000;0.000000;,
  1.000000;0.000000;,
  1.000000;1.000000;,
  0.000000;1.000000;,
  0.000000;0.000000;,
  1.000000;0.000000;,
  1.000000;1.000000;,
  0.000000;1.000000;,
  1.000000;1.000000;,
  0.000000;1.000000;,
  0.000000;0.000000;,
  1.000000;0.000000;,
  0.000000;0.000000;,
  1.000000;0.000000;,
  1.000000;1.000000;,
  0.000000;1.000000;,
  0.000000;0.000000;,
  1.000000;0.000000;,
  1.000000;1.000000;,
  0.000000;1.000000;,
  0.000000;0.000000;,
  1.000000;0.000000;,
  1.000000;1.000000;,
  0.000000;1.000000;,
  0.000000;0.000000;,
  1.000000;0.000000;,
  1.000000;1.000000;,
  0.000000;1.000000;,
  1.000000;1.000000;,
  0.000000;1.000000;,
  0.000000;0.000000;,
  1.000000;0.000000;,
  0.000000;0.000000;,
  1.000000;0.000000;,
  1.000000;1.000000;,
  0.000000;1.000000;,
  0.000000;0.000000;,
  1.000000;0.000000;,
  1.000000;1.000000;,
  0.000000;1.000000;,
  0.000000;0.000000;,
  1.000000;0.000000;,
  1.000000;1.000000;,
  0.000000;1.000000;,
  0.000000;0.000000;,
  1.000000;0.000000;,
  1.000000;1.000000;,
  0.000000;1.000000;,
  1.000000;1.000000;,
  0.000000;1.000000;,
  0.000000;0.000000;,
  1.000000;0.000000;,
  0.000000;0.000000;,
  1.000000;0.000000;,
  1.000000;1.000000;,
  0.000000;1.000000;,
  0.000000;0.000000;,
  1.000000;0.000000;,
  1.000000;1.000000;,
  0.000000;1.000000;,
  0.000000;0.000000;,
  1.000000;0.000000;,
  1.000000;1.000000;,
  0.000000;1.000000;,
  0.000000;0.000000;,
  1.000000;0.000000;,
  1.000000;1.000000;,
  0.000000;1.000000;,
  1.000000;1.000000;,
  0.000000;1.000000;,
  0.000000;0.000000;,
  1.000000;0.000000;,
  0.000000;0.000000;,
  1.000000;0.000000;,
  1.000000;1.000000;,
  0.000000;1.000000;,
  0.000000;0.000000;,
  1.000000;0.000000;,
  1.000000;1.000000;,
  0.000000;1.000000;,
  0.000000;0.000000;,
  1.000000;0.000000;,
  1.000000;1.000000;,
  0.000000;1.000000;,
  0.000000;0.000000;,
  1.000000;0.000000;,
  1.000000;1.000000;,
  0.000000;1.000000;,
  1.000000;1.000000;,
  0.000000;1.000000;,
  0.000000;0.000000;,
  1.000000;0.000000;,
  0.000000;0.000000;,
  1.000000;0.000000;,
  1.000000;1.000000;,
  0.000000;1.000000;,
  0.000000;0.000000;,
  1.000000;0.000000;,
  1.000000;1.000000;,
  0.000000;1.000000;,
  0.000000;0.000000;,
  1.000000;0.000000;,
  1.000000;1.000000;,
  0.000000;1.000000;,
  0.000000;0.000000;,
  1.000000;0.000000;,
  1.000000;1.000000;,
  0.000000;1.000000;,
  1.000000;1.000000;,
  0.000000;1.000000;,
  0.000000;0.000000;,
  1.000000;0.000000;,
  0.000000;0.000000;,
  0.125000;0.000000;,
  0.125000;1.000000;,
  0.000000;1.000000;,
  0.250000;0.000000;,
  0.250000;1.000000;,
  0.375000;0.000000;,
  0.375000;1.000000;,
  0.500000;0.000000;,
  0.500000;1.000000;,
  0.625000;0.000000;,
  0.625000;1.000000;,
  0.750000;0.000000;,
  0.750000;1.000000;,
  0.875000;0.000000;,
  0.875000;1.000000;,
  1.000000;0.000000;,
  1.000000;1.000000;,
  0.062500;0.000000;,
  0.187500;0.000000;,
  0.312500;0.000000;,
  0.437500;0.000000;,
  0.562500;0.000000;,
  0.687500;0.000000;,
  0.812500;0.000000;,
  0.937500;0.000000;,
  0.062500;1.000000;,
  0.187500;1.000000;,
  0.312500;1.000000;,
  0.437500;1.000000;,
  0.562500;1.000000;,
  0.687500;1.000000;,
  0.812500;1.000000;,
  0.937500;1.000000;,
  0.000000;0.000000;,
  1.000000;0.000000;,
  1.000000;1.000000;,
  0.000000;1.000000;,
  0.000000;0.000000;,
  1.000000;0.000000;,
  1.000000;1.000000;,
  0.000000;1.000000;,
  0.000000;0.000000;,
  1.000000;0.000000;,
  1.000000;1.000000;,
  0.000000;1.000000;,
  0.000000;0.000000;,
  1.000000;0.000000;,
  1.000000;1.000000;,
  0.000000;1.000000;,
  1.000000;1.000000;,
  0.000000;1.000000;,
  0.000000;0.000000;,
  1.000000;0.000000;,
  0.000000;0.000000;,
  0.125000;0.000000;,
  0.125000;1.000000;,
  0.000000;1.000000;,
  0.250000;0.000000;,
  0.250000;1.000000;,
  0.375000;0.000000;,
  0.375000;1.000000;,
  0.500000;0.000000;,
  0.500000;1.000000;,
  0.625000;0.000000;,
  0.625000;1.000000;,
  0.750000;0.000000;,
  0.750000;1.000000;,
  0.875000;0.000000;,
  0.875000;1.000000;,
  1.000000;0.000000;,
  1.000000;1.000000;,
  0.062500;0.000000;,
  0.187500;0.000000;,
  0.312500;0.000000;,
  0.437500;0.000000;,
  0.562500;0.000000;,
  0.687500;0.000000;,
  0.812500;0.000000;,
  0.937500;0.000000;,
  0.062500;1.000000;,
  0.187500;1.000000;,
  0.312500;1.000000;,
  0.437500;1.000000;,
  0.562500;1.000000;,
  0.687500;1.000000;,
  0.812500;1.000000;,
  0.937500;1.000000;,
  0.000000;0.000000;,
  1.000000;0.000000;,
  1.000000;1.000000;,
  0.000000;1.000000;,
  0.000000;0.000000;,
  1.000000;0.000000;,
  1.000000;1.000000;,
  0.000000;1.000000;,
  0.000000;0.000000;,
  1.000000;0.000000;,
  1.000000;1.000000;,
  0.000000;1.000000;,
  0.000000;0.000000;,
  1.000000;0.000000;,
  1.000000;1.000000;,
  0.000000;1.000000;,
  1.000000;1.000000;,
  0.000000;1.000000;,
  0.000000;0.000000;,
  1.000000;0.000000;,
  0.000000;0.000000;,
  0.125000;0.000000;,
  0.125000;1.000000;,
  0.000000;1.000000;,
  0.250000;0.000000;,
  0.250000;1.000000;,
  0.375000;0.000000;,
  0.375000;1.000000;,
  0.500000;0.000000;,
  0.500000;1.000000;,
  0.625000;0.000000;,
  0.625000;1.000000;,
  0.750000;0.000000;,
  0.750000;1.000000;,
  0.875000;0.000000;,
  0.875000;1.000000;,
  1.000000;0.000000;,
  1.000000;1.000000;,
  0.062500;0.000000;,
  0.187500;0.000000;,
  0.312500;0.000000;,
  0.437500;0.000000;,
  0.562500;0.000000;,
  0.687500;0.000000;,
  0.812500;0.000000;,
  0.937500;0.000000;,
  0.062500;1.000000;,
  0.187500;1.000000;,
  0.312500;1.000000;,
  0.437500;1.000000;,
  0.562500;1.000000;,
  0.687500;1.000000;,
  0.812500;1.000000;,
  0.937500;1.000000;;
 }
}
