xof 0302txt 0064
template Header {
 <3D82AB43-62DA-11cf-AB39-0020AF71E433>
 WORD major;
 WORD minor;
 DWORD flags;
}

template Vector {
 <3D82AB5E-62DA-11cf-AB39-0020AF71E433>
 FLOAT x;
 FLOAT y;
 FLOAT z;
}

template Coords2d {
 <F6F23F44-7686-11cf-8F52-0040333594A3>
 FLOAT u;
 FLOAT v;
}

template Matrix4x4 {
 <F6F23F45-7686-11cf-8F52-0040333594A3>
 array FLOAT matrix[16];
}

template ColorRGBA {
 <35FF44E0-6C7C-11cf-8F52-0040333594A3>
 FLOAT red;
 FLOAT green;
 FLOAT blue;
 FLOAT alpha;
}

template ColorRGB {
 <D3E16E81-7835-11cf-8F52-0040333594A3>
 FLOAT red;
 FLOAT green;
 FLOAT blue;
}

template IndexedColor {
 <1630B820-7842-11cf-8F52-0040333594A3>
 DWORD index;
 ColorRGBA indexColor;
}

template Boolean {
 <4885AE61-78E8-11cf-8F52-0040333594A3>
 WORD truefalse;
}

template Boolean2d {
 <4885AE63-78E8-11cf-8F52-0040333594A3>
 Boolean u;
 Boolean v;
}

template MaterialWrap {
 <4885AE60-78E8-11cf-8F52-0040333594A3>
 Boolean u;
 Boolean v;
}

template TextureFilename {
 <A42790E1-7810-11cf-8F52-0040333594A3>
 STRING filename;
}

template Material {
 <3D82AB4D-62DA-11cf-AB39-0020AF71E433>
 ColorRGBA faceColor;
 FLOAT power;
 ColorRGB specularColor;
 ColorRGB emissiveColor;
 [...]
}

template MeshFace {
 <3D82AB5F-62DA-11cf-AB39-0020AF71E433>
 DWORD nFaceVertexIndices;
 array DWORD faceVertexIndices[nFaceVertexIndices];
}

template MeshFaceWraps {
 <4885AE62-78E8-11cf-8F52-0040333594A3>
 DWORD nFaceWrapValues;
 Boolean2d faceWrapValues;
}

template MeshTextureCoords {
 <F6F23F40-7686-11cf-8F52-0040333594A3>
 DWORD nTextureCoords;
 array Coords2d textureCoords[nTextureCoords];
}

template MeshMaterialList {
 <F6F23F42-7686-11cf-8F52-0040333594A3>
 DWORD nMaterials;
 DWORD nFaceIndexes;
 array DWORD faceIndexes[nFaceIndexes];
 [Material]
}

template MeshNormals {
 <F6F23F43-7686-11cf-8F52-0040333594A3>
 DWORD nNormals;
 array Vector normals[nNormals];
 DWORD nFaceNormals;
 array MeshFace faceNormals[nFaceNormals];
}

template MeshVertexColors {
 <1630B821-7842-11cf-8F52-0040333594A3>
 DWORD nVertexColors;
 array IndexedColor vertexColors[nVertexColors];
}

template Mesh {
 <3D82AB44-62DA-11cf-AB39-0020AF71E433>
 DWORD nVertices;
 array Vector vertices[nVertices];
 DWORD nFaces;
 array MeshFace faces[nFaces];
 [...]
}

Header{
1;
0;
1;
}

Mesh {
 88;
 8.76352;4.45278;-2.73416;,
 9.85551;4.45278;-2.73416;,
 9.85551;-0.77551;-2.73416;,
 8.76352;-0.77551;-2.73416;,
 9.85551;4.45278;-2.73416;,
 9.85551;4.45278;2.73416;,
 9.85551;-0.77551;2.73416;,
 9.85551;-0.77551;-2.73416;,
 9.85551;4.45278;2.73416;,
 8.76352;4.45278;2.73416;,
 8.76352;-0.77551;2.73416;,
 9.85551;-0.77551;2.73416;,
 8.76352;4.45278;2.73416;,
 8.76352;4.45278;-2.73416;,
 8.76352;-0.77551;-2.73416;,
 8.76352;-0.77551;2.73416;,
 9.85551;4.45278;-2.73416;,
 8.76352;4.45278;-2.73416;,
 8.76352;-0.77551;-2.73416;,
 9.85551;-0.77551;-2.73416;,
 9.90931;3.84555;-2.09905;,
 10.74765;3.84555;-2.09905;,
 10.74765;-0.16827;-2.09905;,
 9.90931;-0.16827;-2.09905;,
 10.74765;3.84555;-2.09905;,
 10.74765;3.84555;2.09905;,
 10.74765;-0.16827;2.09905;,
 10.74765;-0.16827;-2.09905;,
 10.74765;3.84555;2.09905;,
 9.90931;3.84555;2.09905;,
 9.90931;-0.16827;2.09905;,
 10.74765;-0.16827;2.09905;,
 9.90931;3.84555;2.09905;,
 9.90931;3.84555;-2.09905;,
 9.90931;-0.16827;-2.09905;,
 9.90931;-0.16827;2.09905;,
 10.74765;3.84555;-2.09905;,
 9.90931;3.84555;-2.09905;,
 9.90931;-0.16827;-2.09905;,
 10.74765;-0.16827;-2.09905;,
 -8.42862;3.42757;-7.18523;,
 -1.28654;3.63423;-8.13596;,
 -1.22322;1.86577;-11.16897;,
 -9.31870;1.86577;-8.13596;,
 5.87033;3.42757;-7.18523;,
 6.87226;1.86577;-8.13596;,
 -1.15990;0.09731;-8.13596;,
 -8.31677;0.30397;-7.18523;,
 5.98218;0.30397;-7.18523;,
 5.87033;3.42757;-7.18523;,
 6.80894;3.63423;-0.00000;,
 9.89018;1.86577;-0.00000;,
 6.87226;1.86577;-8.13596;,
 5.87033;3.42757;7.18523;,
 6.87226;1.86577;8.13596;,
 6.93558;0.09731;0.00000;,
 5.98218;0.30397;-7.18523;,
 5.98218;0.30397;7.18523;,
 5.87033;3.42757;7.18523;,
 -1.28654;3.63423;8.13596;,
 -1.22322;1.86577;11.16897;,
 6.87226;1.86577;8.13596;,
 -8.42862;3.42757;7.18523;,
 -9.31870;1.86577;8.13596;,
 -1.15990;0.09731;8.13596;,
 5.98218;0.30397;7.18523;,
 -8.31677;0.30397;7.18523;,
 -8.42862;3.42757;7.18523;,
 -9.38202;3.63423;0.00000;,
 -12.33662;1.86577;0.00000;,
 -9.31870;1.86577;8.13596;,
 -8.42862;3.42757;-7.18523;,
 -9.31870;1.86577;-8.13596;,
 -9.25538;0.09731;-0.00000;,
 -8.31677;0.30397;7.18523;,
 -8.31677;0.30397;-7.18523;,
 -1.31015;4.29349;0.00000;,
 -9.38202;3.63423;0.00000;,
 6.80894;3.63423;-0.00000;,
 -1.28654;3.63423;-8.13596;,
 -8.42862;3.42757;-7.18523;,
 5.87033;3.42757;-7.18523;,
 -8.31677;0.30397;-7.18523;,
 -1.15990;0.09731;-8.13596;,
 -1.13629;-0.56195;-0.00000;,
 -9.25538;0.09731;-0.00000;,
 5.98218;0.30397;-7.18523;,
 6.93558;0.09731;0.00000;;
 
 36;
 4;0,1,2,3;,
 4;4,5,6,7;,
 4;8,9,10,11;,
 4;12,13,14,15;,
 4;12,5,16,17;,
 4;18,19,6,15;,
 4;20,21,22,23;,
 4;24,25,26,27;,
 4;28,29,30,31;,
 4;32,33,34,35;,
 4;32,25,36,37;,
 4;38,39,26,35;,
 4;40,41,42,43;,
 4;41,44,45,42;,
 4;43,42,46,47;,
 4;42,45,48,46;,
 4;49,50,51,52;,
 4;50,53,54,51;,
 4;52,51,55,56;,
 4;51,54,57,55;,
 4;58,59,60,61;,
 4;59,62,63,60;,
 4;61,60,64,65;,
 4;60,63,66,64;,
 4;67,68,69,70;,
 4;68,71,72,69;,
 4;70,69,73,74;,
 4;69,72,75,73;,
 4;67,59,76,77;,
 4;59,53,78,76;,
 4;77,76,79,80;,
 4;76,78,81,79;,
 4;82,83,84,85;,
 4;83,86,87,84;,
 4;85,84,64,74;,
 4;84,87,57,64;;
 
 MeshMaterialList {
  4;
  36;
  1,
  1,
  1,
  1,
  1,
  1,
  2,
  2,
  2,
  2,
  2,
  2,
  0,
  0,
  0,
  0,
  0,
  0,
  0,
  0,
  0,
  0,
  0,
  0,
  0,
  0,
  0,
  0,
  0,
  0,
  0,
  0,
  0,
  0,
  0,
  0;;
  Material {
   0.800000;0.495686;0.138039;1.000000;;
   43.000000;
   0.500000;0.500000;0.500000;;
   0.280000;0.173490;0.048314;;
  }
  Material {
   0.615200;0.615200;0.615200;1.000000;;
   29.000000;
   0.610000;0.610000;0.610000;;
   0.000000;0.000000;0.000000;;
  }
  Material {
   0.037600;0.800000;0.800000;1.000000;;
   81.000000;
   0.720000;0.720000;0.720000;;
   0.020210;0.430000;0.430000;;
  }
  Material {
   0.800000;0.800000;0.800000;1.000000;;
   5.000000;
   0.000000;0.000000;0.000000;;
   0.000000;0.000000;0.000000;;
  }
 }
 MeshNormals {
  46;
  0.000000;0.000000;-1.000000;,
  1.000000;0.000000;0.000000;,
  0.000000;0.000000;1.000000;,
  -1.000000;0.000000;0.000000;,
  0.000000;1.000000;0.000000;,
  0.000000;-1.000000;-0.000000;,
  0.000000;0.000000;-1.000000;,
  1.000000;0.000000;0.000000;,
  0.000000;0.000000;1.000000;,
  -1.000000;0.000000;0.000000;,
  0.000000;1.000000;0.000000;,
  0.000000;-1.000000;-0.000000;,
  -0.320623;0.892448;-0.317391;,
  -0.000663;0.929944;-0.367701;,
  0.310662;0.898103;-0.311286;,
  -0.439334;0.786111;-0.434759;,
  -0.001121;0.766003;-0.642836;,
  0.425693;0.797915;-0.426753;,
  -0.310662;-0.898103;-0.311286;,
  0.000663;-0.929944;-0.367701;,
  0.320623;-0.892448;-0.317391;,
  0.362195;0.932102;-0.000000;,
  0.310662;0.898103;0.311286;,
  0.633314;0.773895;0.000000;,
  0.425693;0.797915;0.426753;,
  0.375917;-0.926653;-0.000000;,
  0.320623;-0.892448;0.317391;,
  -0.000663;0.929944;0.367701;,
  -0.320623;0.892448;0.317391;,
  -0.001121;0.766003;0.642836;,
  -0.439334;0.786111;0.434759;,
  0.000663;-0.929944;0.367701;,
  -0.310662;-0.898103;0.311286;,
  -0.375917;0.926653;-0.000000;,
  -0.656168;0.754615;0.000000;,
  -0.362195;-0.932102;-0.000000;,
  -0.000146;1.000000;-0.000000;,
  0.000146;-1.000000;0.000000;,
  -0.425693;-0.797915;-0.426753;,
  0.001121;-0.766003;-0.642836;,
  0.439334;-0.786111;-0.434759;,
  0.656168;-0.754615;-0.000000;,
  0.439334;-0.786111;0.434759;,
  0.001121;-0.766003;0.642836;,
  -0.425693;-0.797915;0.426753;,
  -0.633314;-0.773895;-0.000000;;
  36;
  4;0,0,0,0;,
  4;1,1,1,1;,
  4;2,2,2,2;,
  4;3,3,3,3;,
  4;4,4,4,4;,
  4;5,5,5,5;,
  4;6,6,6,6;,
  4;7,7,7,7;,
  4;8,8,8,8;,
  4;9,9,9,9;,
  4;10,10,10,10;,
  4;11,11,11,11;,
  4;12,13,16,15;,
  4;13,14,17,16;,
  4;38,39,19,18;,
  4;39,40,20,19;,
  4;14,21,23,17;,
  4;21,22,24,23;,
  4;40,41,25,20;,
  4;41,42,26,25;,
  4;22,27,29,24;,
  4;27,28,30,29;,
  4;42,43,31,26;,
  4;43,44,32,31;,
  4;28,33,34,30;,
  4;33,12,15,34;,
  4;44,45,35,32;,
  4;45,38,18,35;,
  4;28,27,36,33;,
  4;27,22,21,36;,
  4;33,36,13,12;,
  4;36,21,14,13;,
  4;18,19,37,35;,
  4;19,20,25,37;,
  4;35,37,31,32;,
  4;37,25,26,31;;
 }
 MeshTextureCoords {
  88;
  0.000000;0.000000;,
  1.000000;0.000000;,
  1.000000;1.000000;,
  0.000000;1.000000;,
  0.000000;0.000000;,
  1.000000;0.000000;,
  1.000000;1.000000;,
  0.000000;1.000000;,
  0.000000;0.000000;,
  1.000000;0.000000;,
  1.000000;1.000000;,
  0.000000;1.000000;,
  0.000000;0.000000;,
  1.000000;0.000000;,
  1.000000;1.000000;,
  0.000000;1.000000;,
  1.000000;1.000000;,
  0.000000;1.000000;,
  0.000000;0.000000;,
  1.000000;0.000000;,
  0.000000;0.000000;,
  1.000000;0.000000;,
  1.000000;1.000000;,
  0.000000;1.000000;,
  0.000000;0.000000;,
  1.000000;0.000000;,
  1.000000;1.000000;,
  0.000000;1.000000;,
  0.000000;0.000000;,
  1.000000;0.000000;,
  1.000000;1.000000;,
  0.000000;1.000000;,
  0.000000;0.000000;,
  1.000000;0.000000;,
  1.000000;1.000000;,
  0.000000;1.000000;,
  1.000000;1.000000;,
  0.000000;1.000000;,
  0.000000;0.000000;,
  1.000000;0.000000;,
  0.000000;0.000000;,
  0.500000;0.000000;,
  0.500000;0.500000;,
  0.000000;0.500000;,
  1.000000;0.000000;,
  1.000000;0.500000;,
  0.500000;1.000000;,
  0.000000;1.000000;,
  1.000000;1.000000;,
  0.000000;0.000000;,
  0.500000;0.000000;,
  0.500000;0.500000;,
  0.000000;0.500000;,
  1.000000;0.000000;,
  1.000000;0.500000;,
  0.500000;1.000000;,
  0.000000;1.000000;,
  1.000000;1.000000;,
  0.000000;0.000000;,
  0.500000;0.000000;,
  0.500000;0.500000;,
  0.000000;0.500000;,
  1.000000;0.000000;,
  1.000000;0.500000;,
  0.500000;1.000000;,
  0.000000;1.000000;,
  1.000000;1.000000;,
  0.000000;0.000000;,
  0.500000;0.000000;,
  0.500000;0.500000;,
  0.000000;0.500000;,
  1.000000;0.000000;,
  1.000000;0.500000;,
  0.500000;1.000000;,
  0.000000;1.000000;,
  1.000000;1.000000;,
  0.500000;0.500000;,
  0.000000;0.500000;,
  1.000000;0.500000;,
  0.500000;1.000000;,
  0.000000;1.000000;,
  1.000000;1.000000;,
  0.000000;0.000000;,
  0.500000;0.000000;,
  0.500000;0.500000;,
  0.000000;0.500000;,
  1.000000;0.000000;,
  1.000000;0.500000;;
 }
}
