xof 0302txt 0064
template Header {
 <3D82AB43-62DA-11cf-AB39-0020AF71E433>
 WORD major;
 WORD minor;
 DWORD flags;
}

template Vector {
 <3D82AB5E-62DA-11cf-AB39-0020AF71E433>
 FLOAT x;
 FLOAT y;
 FLOAT z;
}

template Coords2d {
 <F6F23F44-7686-11cf-8F52-0040333594A3>
 FLOAT u;
 FLOAT v;
}

template Matrix4x4 {
 <F6F23F45-7686-11cf-8F52-0040333594A3>
 array FLOAT matrix[16];
}

template ColorRGBA {
 <35FF44E0-6C7C-11cf-8F52-0040333594A3>
 FLOAT red;
 FLOAT green;
 FLOAT blue;
 FLOAT alpha;
}

template ColorRGB {
 <D3E16E81-7835-11cf-8F52-0040333594A3>
 FLOAT red;
 FLOAT green;
 FLOAT blue;
}

template IndexedColor {
 <1630B820-7842-11cf-8F52-0040333594A3>
 DWORD index;
 ColorRGBA indexColor;
}

template Boolean {
 <4885AE61-78E8-11cf-8F52-0040333594A3>
 WORD truefalse;
}

template Boolean2d {
 <4885AE63-78E8-11cf-8F52-0040333594A3>
 Boolean u;
 Boolean v;
}

template MaterialWrap {
 <4885AE60-78E8-11cf-8F52-0040333594A3>
 Boolean u;
 Boolean v;
}

template TextureFilename {
 <A42790E1-7810-11cf-8F52-0040333594A3>
 STRING filename;
}

template Material {
 <3D82AB4D-62DA-11cf-AB39-0020AF71E433>
 ColorRGBA faceColor;
 FLOAT power;
 ColorRGB specularColor;
 ColorRGB emissiveColor;
 [...]
}

template MeshFace {
 <3D82AB5F-62DA-11cf-AB39-0020AF71E433>
 DWORD nFaceVertexIndices;
 array DWORD faceVertexIndices[nFaceVertexIndices];
}

template MeshFaceWraps {
 <4885AE62-78E8-11cf-8F52-0040333594A3>
 DWORD nFaceWrapValues;
 Boolean2d faceWrapValues;
}

template MeshTextureCoords {
 <F6F23F40-7686-11cf-8F52-0040333594A3>
 DWORD nTextureCoords;
 array Coords2d textureCoords[nTextureCoords];
}

template MeshMaterialList {
 <F6F23F42-7686-11cf-8F52-0040333594A3>
 DWORD nMaterials;
 DWORD nFaceIndexes;
 array DWORD faceIndexes[nFaceIndexes];
 [Material]
}

template MeshNormals {
 <F6F23F43-7686-11cf-8F52-0040333594A3>
 DWORD nNormals;
 array Vector normals[nNormals];
 DWORD nFaceNormals;
 array MeshFace faceNormals[nFaceNormals];
}

template MeshVertexColors {
 <1630B821-7842-11cf-8F52-0040333594A3>
 DWORD nVertexColors;
 array IndexedColor vertexColors[nVertexColors];
}

template Mesh {
 <3D82AB44-62DA-11cf-AB39-0020AF71E433>
 DWORD nVertices;
 array Vector vertices[nVertices];
 DWORD nFaces;
 array MeshFace faces[nFaces];
 [...]
}

Header{
1;
0;
1;
}

Mesh {
 152;
 1.21690;30.83104;-22.44752;,
 16.78858;32.49098;-14.46728;,
 15.52222;22.21206;-14.48572;,
 1.21690;24.93872;-22.70296;,
 -13.54690;22.21206;-14.48572;,
 -13.76714;32.49098;-14.46728;,
 0.78752;22.42582;67.28532;,
 -10.50968;19.90112;62.70610;,
 -6.38830;14.86002;62.70610;,
 0.74212;9.83500;62.70610;,
 8.36358;14.86002;62.70610;,
 12.48498;19.90112;62.70610;,
 -9.35996;15.77368;-13.72364;,
 -13.54690;22.21206;-14.48572;,
 1.21690;24.93872;-22.70296;,
 0.74680;12.65460;-17.06492;,
 0.69384;9.03482;-9.57440;,
 -11.90720;12.32802;-7.53596;,
 -9.35996;15.77368;-13.72364;,
 -11.90720;12.32802;-7.53596;,
 -19.01234;24.20272;-2.91606;,
 -17.42536;26.97434;-9.26978;,
 -13.76714;32.49098;-14.46728;,
 -13.54690;22.21206;-14.48572;,
 15.52222;22.21206;-14.48572;,
 11.33528;15.77368;-13.72364;,
 13.88250;12.32802;-7.53596;,
 11.33528;15.77368;-13.72364;,
 15.52222;22.21206;-14.48572;,
 16.78858;32.49098;-14.46728;,
 19.50664;26.45112;-9.26978;,
 20.98766;24.20272;-2.91606;,
 13.88250;12.32802;-7.53596;,
 -13.04822;43.67264;-8.83210;,
 -13.54690;45.11920;-3.50786;,
 0.69384;48.26692;-1.95186;,
 0.69384;48.26878;-6.62158;,
 0.69384;47.21580;-11.13528;,
 -8.57224;42.34468;-11.76930;,
 15.52222;45.11920;-3.50786;,
 15.02352;43.67264;-8.19424;,
 10.54756;42.34468;-11.76930;,
 15.52222;42.54414;52.43276;,
 0.69384;45.21496;52.43276;,
 0.78752;34.50304;62.70610;,
 11.13718;31.33790;62.70610;,
 -13.54690;42.54414;52.43276;,
 -9.16186;31.33790;62.70610;,
 20.98764;23.18658;52.11328;,
 12.48498;19.90112;62.70610;,
 8.36358;14.86002;62.70610;,
 15.25114;8.88800;52.17230;,
 15.25114;8.88800;52.17230;,
 0.74212;9.83500;62.70610;,
 0.69384;5.52786;52.17244;,
 -19.01230;23.18658;52.11328;,
 -13.27582;8.88800;52.17230;,
 -6.38830;14.86002;62.70610;,
 -10.50968;19.90112;62.70610;,
 -13.27582;8.88800;52.17230;,
 15.52222;45.36506;3.27612;,
 0.69384;49.66000;3.27612;,
 -13.54690;45.36506;3.27612;,
 20.98764;24.20272;2.72332;,
 15.32366;12.53536;1.61144;,
 -19.01230;24.20272;2.72332;,
 -13.01310;11.78628;1.61144;,
 -16.78270;37.82178;-8.98958;,
 -19.07896;37.90272;-3.29492;,
 -13.54690;45.11920;-3.50786;,
 -13.04822;43.67264;-8.83210;,
 -8.57224;42.34468;-11.76930;,
 -10.95776;39.60156;-12.74004;,
 -19.01234;38.87810;3.07722;,
 -13.54690;45.36506;3.27612;,
 -10.95776;39.60156;-12.74004;,
 -8.57224;42.34468;-11.76930;,
 0.69384;47.21580;-11.13528;,
 0.88204;34.61414;-19.27516;,
 10.54756;42.34468;-11.76930;,
 13.30948;39.60156;-12.74004;,
 -19.01234;37.28062;52.31782;,
 -10.39556;24.32214;62.70610;,
 -13.54690;42.54414;52.43276;,
 13.30948;39.60156;-12.74004;,
 10.54756;42.34468;-11.76930;,
 15.02352;43.67264;-8.19424;,
 18.79616;37.63352;-8.98958;,
 -10.39556;24.32214;62.70610;,
 0.78752;26.84684;67.28532;,
 0.78752;34.50304;62.70610;,
 -9.16186;31.33790;62.70610;,
 15.52222;45.11920;-3.50786;,
 21.05430;37.90272;-3.29492;,
 12.37086;24.32214;62.70610;,
 11.13718;31.33790;62.70610;,
 15.52222;45.36506;3.27612;,
 20.98766;38.87810;3.07722;,
 12.37086;24.32214;62.70610;,
 20.98766;37.28062;52.31782;,
 15.52222;42.54414;52.43276;,
 -19.01234;38.48624;15.15574;,
 -21.11022;23.95346;14.83846;,
 -13.54690;45.32508;15.33406;,
 -16.60048;12.19008;14.93004;,
 -13.54690;45.32508;15.33406;,
 0.69384;51.02688;15.33406;,
 -16.60048;12.19008;14.93004;,
 -13.01310;11.78628;1.61144;,
 0.69384;9.03482;-9.57440;,
 0.69384;10.33188;3.27810;,
 15.52222;45.32508;15.33406;,
 15.32366;12.53536;1.61144;,
 18.58016;12.93916;14.93004;,
 15.52222;45.32508;15.33406;,
 20.98766;38.48624;15.15574;,
 18.58016;12.93916;14.93004;,
 23.08556;23.95346;14.83846;,
 -19.01234;37.73960;38.16996;,
 -21.11022;23.47854;37.92250;,
 -13.54690;45.24886;38.30904;,
 -15.13932;10.77300;37.99392;,
 -13.54690;45.24886;38.30904;,
 0.69384;50.52590;38.30904;,
 15.52222;45.24886;38.30904;,
 15.52222;45.24886;38.30904;,
 20.98766;37.73960;38.16996;,
 17.44990;11.52208;37.99392;,
 23.08556;23.47854;37.92250;,
 -13.54690;45.29002;25.90226;,
 -19.01234;38.14280;25.74200;,
 -13.54690;45.29002;25.90226;,
 0.69384;52.31442;25.90226;,
 -22.47318;23.73500;25.45684;,
 15.52222;45.29002;25.90226;,
 -16.81654;12.05766;25.53914;,
 15.52222;45.29002;25.90226;,
 20.98766;38.14280;25.74200;,
 -16.81654;12.05766;25.53914;,
 0.69384;10.22732;37.19142;,
 0.69384;5.52786;52.17244;,
 -15.13932;10.77300;37.99392;,
 24.44854;23.73500;25.45684;,
 18.79624;12.80674;25.53914;,
 17.44990;11.52208;37.99392;,
 18.79624;12.80674;25.53914;,
 15.32366;12.53536;1.61144;,
 0.69384;9.03482;-9.57440;,
 -13.01310;11.78628;1.61144;,
 -15.13932;10.77300;37.99392;,
 0.69384;5.52786;52.17244;,
 17.44990;11.52208;37.99392;;
 
 92;
 4;0,1,2,3;,
 4;0,3,4,5;,
 4;6,7,8,9;,
 4;6,9,10,11;,
 4;12,13,14,15;,
 4;12,15,16,17;,
 4;18,19,20,21;,
 4;18,21,22,23;,
 4;15,14,24,25;,
 4;15,25,26,16;,
 4;27,28,29,30;,
 4;27,30,31,32;,
 4;33,34,35,36;,
 4;33,36,37,38;,
 4;36,35,39,40;,
 4;36,40,41,37;,
 4;42,43,44,45;,
 4;43,46,47,44;,
 4;48,49,50,51;,
 4;52,50,53,54;,
 4;55,56,57,58;,
 4;54,53,57,59;,
 4;60,39,35,61;,
 4;61,35,34,62;,
 4;63,64,32,31;,
 4;65,20,19,66;,
 4;67,21,20,68;,
 4;67,68,69,70;,
 4;67,70,71,72;,
 4;67,72,22,21;,
 4;68,20,65,73;,
 4;68,73,74,69;,
 4;75,76,77,78;,
 4;75,78,0,5;,
 4;78,77,79,80;,
 4;78,80,1,0;,
 4;81,55,58,82;,
 4;81,82,47,83;,
 4;84,85,86,87;,
 4;84,87,30,29;,
 4;88,7,6,89;,
 4;88,89,90,91;,
 4;87,86,92,93;,
 4;87,93,31,30;,
 4;89,6,11,94;,
 4;89,94,95,90;,
 4;93,92,96,97;,
 4;93,97,63,31;,
 4;98,49,48,99;,
 4;98,99,100,45;,
 4;101,73,65,102;,
 4;101,103,74,73;,
 4;102,65,66,104;,
 4;105,106,61,62;,
 4;107,108,109,110;,
 4;106,111,60,61;,
 4;110,109,112,113;,
 4;114,115,97,96;,
 4;116,64,63,117;,
 4;115,117,63,97;,
 4;118,119,55,81;,
 4;118,81,83,120;,
 4;119,121,56,55;,
 4;122,46,43,123;,
 4;123,43,42,124;,
 4;125,100,99,126;,
 4;127,128,48,51;,
 4;126,99,48,128;,
 4;129,103,101,130;,
 4;129,130,118,120;,
 4;131,122,123,132;,
 4;131,132,106,105;,
 4;130,101,102,133;,
 4;130,133,119,118;,
 4;132,123,124,134;,
 4;132,134,111,106;,
 4;133,102,104,135;,
 4;133,135,121,119;,
 4;136,125,126,137;,
 4;136,137,115,114;,
 4;138,107,110,139;,
 4;138,139,140,141;,
 4;137,126,128,142;,
 4;137,142,117,115;,
 4;139,110,113,143;,
 4;139,143,144,140;,
 4;142,128,127,145;,
 4;142,145,116,117;,
 3;146,147,26;,
 3;147,148,17;,
 3;149,150,59;,
 3;150,151,52;;
 
 MeshMaterialList {
  5;
  92;
  0,
  0,
  0,
  0,
  0,
  0,
  0,
  0,
  0,
  0,
  0,
  0,
  0,
  0,
  0,
  0,
  0,
  0,
  0,
  0,
  0,
  0,
  0,
  0,
  0,
  0,
  0,
  0,
  0,
  0,
  0,
  0,
  0,
  0,
  0,
  0,
  0,
  0,
  0,
  0,
  0,
  0,
  0,
  0,
  0,
  0,
  0,
  0,
  0,
  0,
  0,
  0,
  0,
  0,
  0,
  0,
  0,
  0,
  0,
  0,
  0,
  0,
  0,
  0,
  0,
  0,
  0,
  0,
  0,
  0,
  0,
  0,
  0,
  0,
  0,
  0,
  0,
  0,
  0,
  0,
  0,
  0,
  0,
  0,
  0,
  0,
  0,
  0,
  0,
  0,
  0,
  0;;
  Material {
   0.702400;0.380000;0.181600;1.000000;;
   5.000000;
   0.000000;0.000000;0.000000;;
   0.000000;0.000000;0.000000;;
  }
  Material {
   0.367200;0.160000;0.000000;1.000000;;
   5.000000;
   0.000000;0.000000;0.000000;;
   0.000000;0.000000;0.000000;;
  }
  Material {
   0.800000;0.800000;0.800000;1.000000;;
   5.000000;
   0.000000;0.000000;0.000000;;
   0.000000;0.000000;0.000000;;
  }
  Material {
   0.800000;0.680800;0.796800;1.000000;;
   5.000000;
   0.000000;0.000000;0.000000;;
   0.000000;0.000000;0.000000;;
  }
  Material {
   0.179200;0.106400;0.106400;1.000000;;
   5.000000;
   0.000000;0.000000;0.000000;;
   0.000000;0.000000;0.000000;;
  }
 }
 MeshNormals {
  96;
  -0.348274;0.638516;-0.686296;,
  -0.623230;-0.233371;-0.746407;,
  0.356048;0.669872;-0.651537;,
  0.617169;-0.259906;-0.742665;,
  0.355464;0.435360;0.827107;,
  0.468380;-0.535300;0.702904;,
  -0.360357;0.434545;0.825417;,
  -0.476780;-0.531473;0.700155;,
  -0.662514;0.115661;-0.740066;,
  0.679171;0.118232;-0.724395;,
  -0.558844;-0.180228;0.809451;,
  0.553959;-0.180066;0.812838;,
  -0.002828;0.747954;-0.663745;,
  -0.005316;0.279191;-0.960221;,
  -0.003975;0.499089;0.866541;,
  0.001301;-0.211279;-0.977425;,
  -0.005818;-0.154533;0.987971;,
  -0.007748;-0.625266;0.780373;,
  -0.546780;0.821831;-0.160079;,
  -0.954753;-0.206510;-0.214011;,
  -0.003963;0.988734;-0.149628;,
  -0.637171;-0.710711;-0.298166;,
  0.539117;0.824249;-0.173110;,
  0.001400;-0.985016;-0.172460;,
  0.955370;-0.211097;-0.206656;,
  0.631478;-0.725193;-0.274464;,
  -0.653001;-0.493051;-0.574883;,
  -0.004434;-0.668283;-0.743894;,
  -0.881079;-0.104161;-0.461357;,
  0.643003;-0.512722;-0.568914;,
  -0.486499;0.764943;-0.422115;,
  0.894496;-0.109490;-0.433462;,
  -0.000561;0.957258;-0.289235;,
  0.483918;0.776950;-0.402706;,
  0.488727;0.711751;0.504536;,
  -0.004072;0.846079;0.533042;,
  0.905758;-0.193064;0.377264;,
  -0.492398;0.709700;0.503855;,
  0.620528;-0.729785;0.286982;,
  -0.905896;-0.192952;0.376991;,
  0.002548;-0.998732;0.050282;,
  -0.623555;-0.722759;0.297991;,
  0.553173;0.830760;-0.061956;,
  -0.005462;0.994865;-0.101062;,
  0.975959;-0.200960;-0.084372;,
  -0.557726;0.827731;-0.061674;,
  0.613671;-0.787171;-0.061397;,
  -0.976395;-0.197214;-0.088091;,
  -0.611876;-0.786366;-0.085060;,
  -0.780417;0.344725;-0.521646;,
  -0.933231;0.318385;-0.166466;,
  -0.452950;0.438524;-0.776230;,
  -0.935882;0.350872;-0.031837;,
  -0.010282;0.525352;-0.850823;,
  -0.861450;0.287447;0.418661;,
  0.471199;0.479853;-0.740076;,
  -0.528709;0.159992;0.833588;,
  0.794898;0.370518;-0.480473;,
  -0.005510;0.161642;0.986834;,
  0.931336;0.320870;-0.172208;,
  0.523994;0.159933;0.836572;,
  0.935882;0.350872;-0.031836;,
  0.861450;0.287447;0.418662;,
  -0.919048;0.392945;-0.030743;,
  -0.985210;-0.134017;-0.106771;,
  -0.594782;0.803612;-0.021006;,
  -0.911006;-0.389553;-0.135340;,
  -0.006774;0.998414;-0.055888;,
  0.020084;-0.999597;0.020045;,
  0.589311;0.807627;-0.021219;,
  0.600042;-0.797469;-0.063190;,
  0.919048;0.392946;-0.030743;,
  0.984210;-0.143250;-0.103973;,
  -0.917713;0.393391;0.055197;,
  -0.985716;-0.147064;0.082080;,
  -0.576300;0.810354;0.105853;,
  -0.751588;-0.658914;0.030773;,
  -0.006029;0.984750;0.173869;,
  0.571342;0.813791;0.106364;,
  0.747621;-0.664060;0.009350;,
  0.917712;0.393392;0.055198;,
  0.985415;-0.150666;0.079099;,
  -0.617843;0.786249;0.009031;,
  -0.912565;0.408891;0.005731;,
  -0.007306;0.999948;0.007105;,
  -0.993029;-0.117839;0.002674;,
  0.612095;0.790732;0.009071;,
  -0.910279;-0.413966;0.004927;,
  0.912565;0.408892;0.005731;,
  0.019745;-0.994336;-0.104435;,
  0.991858;-0.127346;-0.000597;,
  0.580991;-0.811704;-0.059895;,
  -0.106634;-0.994076;0.021035;,
  -0.073129;-0.991836;-0.104472;,
  -0.043836;-0.978979;-0.199193;,
  0.084905;-0.976731;-0.196946;;
  92;
  4;13,9,3,15;,
  4;13,15,1,8;,
  4;16,10,7,17;,
  4;16,17,5,11;,
  4;26,1,15,27;,
  4;26,27,23,21;,
  4;26,21,19,28;,
  4;26,28,8,1;,
  4;27,15,3,29;,
  4;27,29,25,23;,
  4;29,3,9,31;,
  4;29,31,24,25;,
  4;30,18,20,32;,
  4;30,32,12,0;,
  4;32,20,22,33;,
  4;32,33,2,12;,
  4;34,35,14,4;,
  4;35,37,6,14;,
  4;36,11,5,38;,
  4;38,5,17,40;,
  4;39,41,7,10;,
  4;40,17,7,41;,
  4;42,22,20,43;,
  4;43,20,18,45;,
  4;44,46,25,24;,
  4;47,19,21,48;,
  4;49,28,19,50;,
  4;49,50,18,30;,
  4;49,30,0,51;,
  4;49,51,8,28;,
  4;50,19,47,52;,
  4;50,52,45,18;,
  4;51,0,12,53;,
  4;51,53,13,8;,
  4;53,12,2,55;,
  4;53,55,9,13;,
  4;54,39,10,56;,
  4;54,56,6,37;,
  4;55,2,33,57;,
  4;55,57,31,9;,
  4;56,10,16,58;,
  4;56,58,14,6;,
  4;57,33,22,59;,
  4;57,59,24,31;,
  4;58,16,11,60;,
  4;58,60,4,14;,
  4;59,22,42,61;,
  4;59,61,44,24;,
  4;60,11,36,62;,
  4;60,62,34,4;,
  4;63,52,47,64;,
  4;63,65,45,52;,
  4;64,47,48,66;,
  4;65,67,43,45;,
  4;92,48,23,68;,
  4;67,69,42,43;,
  4;68,23,46,70;,
  4;69,71,61,42;,
  4;70,46,44,72;,
  4;71,72,44,61;,
  4;73,74,39,54;,
  4;73,54,37,75;,
  4;74,76,41,39;,
  4;75,37,35,77;,
  4;77,35,34,78;,
  4;78,34,62,80;,
  4;79,81,36,38;,
  4;80,62,36,81;,
  4;82,65,63,83;,
  4;82,83,73,75;,
  4;82,75,77,84;,
  4;82,84,67,65;,
  4;83,63,64,85;,
  4;83,85,74,73;,
  4;84,77,78,86;,
  4;84,86,69,67;,
  4;85,64,66,87;,
  4;85,87,76,74;,
  4;86,78,80,88;,
  4;86,88,71,69;,
  4;93,92,68,89;,
  4;93,89,40,94;,
  4;88,80,81,90;,
  4;88,90,72,71;,
  4;89,68,70,91;,
  4;89,91,95,40;,
  4;90,81,79,91;,
  4;90,91,70,72;,
  3;46,23,25;,
  3;23,48,21;,
  3;76,40,41;,
  3;40,79,38;;
 }
 MeshTextureCoords {
  152;
  0.492650;0.519300;,
  1.000000;0.519300;,
  1.000000;1.000000;,
  0.492650;1.000000;,
  0.000000;1.000000;,
  0.000000;0.519300;,
  0.507350;0.519300;,
  1.000000;0.519300;,
  1.000000;1.000000;,
  0.507350;1.000000;,
  0.000000;1.000000;,
  0.000000;0.519300;,
  0.000000;0.060000;,
  0.000000;0.000000;,
  0.492650;0.000000;,
  0.492650;0.060000;,
  0.492650;0.066760;,
  0.000000;0.066760;,
  0.940000;1.000000;,
  0.933240;1.000000;,
  0.933240;0.519300;,
  0.940000;0.519300;,
  1.000000;0.519300;,
  1.000000;1.000000;,
  1.000000;0.000000;,
  1.000000;0.060000;,
  1.000000;0.066760;,
  0.060000;1.000000;,
  0.000000;1.000000;,
  0.000000;0.519300;,
  0.060000;0.519300;,
  0.066760;0.519300;,
  0.066760;1.000000;,
  0.000000;0.940000;,
  0.000000;0.933240;,
  0.492650;0.933240;,
  0.492650;0.940000;,
  0.492650;1.000000;,
  0.000000;1.000000;,
  1.000000;0.933240;,
  1.000000;0.940000;,
  1.000000;1.000000;,
  1.000000;0.337910;,
  0.492650;0.337910;,
  0.492650;0.000000;,
  1.000000;0.000000;,
  0.000000;0.337910;,
  0.000000;0.000000;,
  0.662090;0.519300;,
  1.000000;0.519300;,
  1.000000;1.000000;,
  0.662090;1.000000;,
  1.000000;0.662090;,
  0.492650;1.000000;,
  0.492650;0.662090;,
  0.337910;0.519300;,
  0.337910;1.000000;,
  0.000000;1.000000;,
  0.000000;0.519300;,
  0.000000;0.662090;,
  1.000000;0.584660;,
  0.492650;0.584660;,
  0.000000;0.584660;,
  0.415340;0.519300;,
  0.415340;1.000000;,
  0.584660;0.519300;,
  0.584660;1.000000;,
  0.940000;0.186850;,
  0.933240;0.186850;,
  0.933240;0.000000;,
  0.940000;0.000000;,
  1.000000;0.000000;,
  1.000000;0.186850;,
  0.584660;0.186850;,
  0.584660;0.000000;,
  0.000000;0.186850;,
  0.000000;0.000000;,
  0.492650;0.000000;,
  0.492650;0.186850;,
  1.000000;0.000000;,
  1.000000;0.186850;,
  0.337910;0.186850;,
  0.000000;0.186850;,
  0.337910;0.000000;,
  0.000000;0.186850;,
  0.000000;0.000000;,
  0.060000;0.000000;,
  0.060000;0.186850;,
  1.000000;0.186850;,
  0.507350;0.186850;,
  0.507350;0.000000;,
  1.000000;0.000000;,
  0.066760;0.000000;,
  0.066760;0.186850;,
  0.000000;0.186850;,
  0.000000;0.000000;,
  0.415340;0.000000;,
  0.415340;0.186850;,
  1.000000;0.186850;,
  0.662090;0.186850;,
  0.662090;0.000000;,
  0.524130;0.186850;,
  0.524130;0.519300;,
  0.524130;0.000000;,
  0.524130;1.000000;,
  0.000000;0.524130;,
  0.492650;0.524130;,
  0.000000;0.475870;,
  0.000000;0.415340;,
  0.492650;0.415340;,
  0.492650;0.475870;,
  1.000000;0.524130;,
  1.000000;0.415340;,
  1.000000;0.475870;,
  0.475870;0.000000;,
  0.475870;0.186850;,
  0.475870;1.000000;,
  0.475870;0.519300;,
  0.408800;0.186850;,
  0.408800;0.519300;,
  0.408800;0.000000;,
  0.408800;1.000000;,
  0.000000;0.408800;,
  0.492650;0.408800;,
  1.000000;0.408800;,
  0.591200;0.000000;,
  0.591200;0.186850;,
  0.591200;1.000000;,
  0.591200;0.519300;,
  0.471080;0.000000;,
  0.471080;0.186850;,
  0.000000;0.471080;,
  0.492650;0.471080;,
  0.471080;0.519300;,
  1.000000;0.471080;,
  0.471080;1.000000;,
  0.528920;0.000000;,
  0.528920;0.186850;,
  0.000000;0.528920;,
  0.492650;0.528920;,
  0.492650;0.591200;,
  0.000000;0.591200;,
  0.528920;0.519300;,
  1.000000;0.528920;,
  1.000000;0.591200;,
  0.528920;1.000000;,
  0.746330;0.415340;,
  0.492650;0.241050;,
  0.246330;0.241050;,
  0.246330;0.591200;,
  0.492650;0.626650;,
  0.746330;0.626650;;
 }
}
