xof 0302txt 0064
template Header {
 <3D82AB43-62DA-11cf-AB39-0020AF71E433>
 WORD major;
 WORD minor;
 DWORD flags;
}

template Vector {
 <3D82AB5E-62DA-11cf-AB39-0020AF71E433>
 FLOAT x;
 FLOAT y;
 FLOAT z;
}

template Coords2d {
 <F6F23F44-7686-11cf-8F52-0040333594A3>
 FLOAT u;
 FLOAT v;
}

template Matrix4x4 {
 <F6F23F45-7686-11cf-8F52-0040333594A3>
 array FLOAT matrix[16];
}

template ColorRGBA {
 <35FF44E0-6C7C-11cf-8F52-0040333594A3>
 FLOAT red;
 FLOAT green;
 FLOAT blue;
 FLOAT alpha;
}

template ColorRGB {
 <D3E16E81-7835-11cf-8F52-0040333594A3>
 FLOAT red;
 FLOAT green;
 FLOAT blue;
}

template IndexedColor {
 <1630B820-7842-11cf-8F52-0040333594A3>
 DWORD index;
 ColorRGBA indexColor;
}

template Boolean {
 <4885AE61-78E8-11cf-8F52-0040333594A3>
 WORD truefalse;
}

template Boolean2d {
 <4885AE63-78E8-11cf-8F52-0040333594A3>
 Boolean u;
 Boolean v;
}

template MaterialWrap {
 <4885AE60-78E8-11cf-8F52-0040333594A3>
 Boolean u;
 Boolean v;
}

template TextureFilename {
 <A42790E1-7810-11cf-8F52-0040333594A3>
 STRING filename;
}

template Material {
 <3D82AB4D-62DA-11cf-AB39-0020AF71E433>
 ColorRGBA faceColor;
 FLOAT power;
 ColorRGB specularColor;
 ColorRGB emissiveColor;
 [...]
}

template MeshFace {
 <3D82AB5F-62DA-11cf-AB39-0020AF71E433>
 DWORD nFaceVertexIndices;
 array DWORD faceVertexIndices[nFaceVertexIndices];
}

template MeshFaceWraps {
 <4885AE62-78E8-11cf-8F52-0040333594A3>
 DWORD nFaceWrapValues;
 Boolean2d faceWrapValues;
}

template MeshTextureCoords {
 <F6F23F40-7686-11cf-8F52-0040333594A3>
 DWORD nTextureCoords;
 array Coords2d textureCoords[nTextureCoords];
}

template MeshMaterialList {
 <F6F23F42-7686-11cf-8F52-0040333594A3>
 DWORD nMaterials;
 DWORD nFaceIndexes;
 array DWORD faceIndexes[nFaceIndexes];
 [Material]
}

template MeshNormals {
 <F6F23F43-7686-11cf-8F52-0040333594A3>
 DWORD nNormals;
 array Vector normals[nNormals];
 DWORD nFaceNormals;
 array MeshFace faceNormals[nFaceNormals];
}

template MeshVertexColors {
 <1630B821-7842-11cf-8F52-0040333594A3>
 DWORD nVertexColors;
 array IndexedColor vertexColors[nVertexColors];
}

template Mesh {
 <3D82AB44-62DA-11cf-AB39-0020AF71E433>
 DWORD nVertices;
 array Vector vertices[nVertices];
 DWORD nFaces;
 array MeshFace faces[nFaces];
 [...]
}

Header{
1;
0;
1;
}

Mesh {
 113;
 -1.91707;-1.44558;-1.09329;,
 -1.91707;2.05143;-1.09329;,
 -0.03943;0.19066;-2.34192;,
 -0.03943;0.19066;-2.34192;,
 2.13698;2.05143;-1.09329;,
 2.13698;-1.44558;-1.09329;,
 -1.91707;-1.44558;1.70271;,
 -0.03943;0.94185;2.71221;,
 -1.91707;3.27605;1.53093;,
 2.13698;-1.44558;1.70271;,
 2.13698;3.27605;1.53093;,
 -2.24424;-1.44558;0.67003;,
 -1.91707;-1.44558;1.70271;,
 -1.91707;3.27605;1.53093;,
 -2.26784;3.27605;0.67003;,
 -1.91707;2.05143;-1.09329;,
 -1.91707;-1.44558;-1.09329;,
 -2.02074;-6.05406;0.67003;,
 -1.76164;-6.05463;-1.10230;,
 -0.03873;-6.05463;-1.10230;,
 -0.03943;-6.05406;1.14692;,
 -0.03943;-6.05406;2.19405;,
 -1.54220;-6.05406;1.35934;,
 1.98147;-6.05463;-1.10230;,
 2.24065;-6.05406;0.67003;,
 1.76211;-6.05406;1.35934;,
 -1.91707;5.57945;1.14692;,
 -1.91707;5.57945;5.29483;,
 -0.03943;5.75677;5.29483;,
 -0.03943;8.02926;1.14692;,
 -0.03943;5.85546;-1.09329;,
 -1.52956;5.57945;-1.09329;,
 2.13698;5.57945;5.29483;,
 2.13698;5.57945;1.14692;,
 1.55745;5.57945;-1.09329;,
 2.46415;-1.44558;0.67003;,
 2.13698;-1.44558;-1.09329;,
 2.13698;2.05143;-1.09329;,
 2.48775;3.27605;0.67003;,
 2.13698;3.27605;1.53093;,
 2.13698;-1.44558;1.70271;,
 -0.03943;3.08845;3.59200;,
 -0.03943;0.94185;2.71221;,
 2.13698;4.70910;3.76498;,
 2.13698;5.57945;5.29483;,
 -0.03943;5.75677;5.29483;,
 -1.91707;5.57945;5.29483;,
 -1.91707;4.70910;3.76498;,
 2.13698;4.70910;3.76498;,
 2.13698;4.70910;1.01240;,
 2.13698;5.57945;1.14692;,
 -1.91707;4.70910;3.76498;,
 -1.91707;5.57945;1.14692;,
 -1.91707;4.70910;1.01240;,
 2.13698;2.36249;-1.09329;,
 1.55745;5.57945;-1.09329;,
 -1.52956;5.57945;-1.09329;,
 -1.87909;2.44796;-1.02478;,
 2.13698;2.36249;-1.09329;,
 2.13698;2.05143;-1.09329;,
 -0.03943;2.86157;-2.26603;,
 -0.03943;5.85546;-1.09329;,
 1.55745;5.57945;-1.09329;,
 -1.87909;2.44796;-1.02478;,
 -1.52956;5.57945;-1.09329;,
 -1.91707;2.05143;-1.09329;,
 -1.91707;-4.24742;-1.09329;,
 -1.91707;-1.44558;-1.09329;,
 -0.03943;0.19066;-2.34192;,
 0.04284;-2.70518;-1.45871;,
 -1.91707;-4.24742;-1.09329;,
 -2.08546;-4.24742;0.67003;,
 2.13698;-4.24742;-1.09329;,
 -1.91707;-4.24742;1.45983;,
 2.13698;-4.24742;-1.09329;,
 2.30537;-4.24742;0.67003;,
 -1.91707;-4.24742;1.45983;,
 -0.03943;-3.54871;2.34569;,
 -0.03943;0.94185;2.71221;,
 -1.91707;-1.44558;1.70271;,
 2.13698;-4.24742;1.45983;,
 2.13698;-4.24742;1.45983;,
 2.13698;-1.44558;1.70271;,
 0.03465;-3.98893;-4.25035;,
 -1.58872;-4.46070;-3.34318;,
 -2.11122;-6.26684;-4.25945;,
 -0.04688;-6.27390;-4.70777;,
 -0.03873;-6.05463;-1.10230;,
 -1.76164;-6.05463;-1.10230;,
 1.79224;-4.47489;-3.34322;,
 2.31474;-6.28097;-4.25948;,
 1.98147;-6.05463;-1.10230;,
 2.21760;-5.47054;-3.88495;,
 -0.01069;-5.24849;-4.53531;,
 2.13698;-5.24307;-1.09329;,
 -2.01408;-5.45635;-3.88491;,
 2.13698;-5.24307;-1.09329;,
 2.13698;-5.24307;0.67003;,
 2.24065;-6.05406;0.67003;,
 1.98147;-6.05463;-1.10230;,
 -1.91707;-5.24307;-1.09329;,
 2.13698;-5.24307;1.40445;,
 -1.91707;-5.24307;-1.09329;,
 -1.76164;-6.05463;-1.10230;,
 -2.02074;-6.05406;0.67003;,
 -1.91707;-5.24307;0.67003;,
 2.13698;-5.24307;1.40445;,
 -0.03943;-4.92943;2.26212;,
 -0.03943;-6.05406;2.19405;,
 1.76211;-6.05406;1.35934;,
 -1.91707;-5.24307;1.40445;,
 -1.91707;-5.24307;1.40445;,
 -1.54220;-6.05406;1.35934;;
 
 64;
 3;0,1,2;,
 3;3,4,5;,
 3;6,7,8;,
 3;7,9,10;,
 4;11,12,13,14;,
 4;11,14,15,16;,
 4;17,18,19,20;,
 4;17,20,21,22;,
 4;20,19,23,24;,
 4;20,24,25,21;,
 4;26,27,28,29;,
 4;26,29,30,31;,
 4;29,28,32,33;,
 4;29,33,34,30;,
 4;35,36,37,38;,
 4;35,38,39,40;,
 4;41,42,10,43;,
 4;41,43,44,45;,
 4;41,45,46,47;,
 4;41,47,8,42;,
 4;48,39,38,49;,
 4;48,49,50,32;,
 4;51,27,52,53;,
 4;51,53,14,13;,
 4;49,38,37,54;,
 4;49,54,55,50;,
 4;53,52,56,57;,
 4;53,57,15,14;,
 4;58,59,2,60;,
 4;58,60,61,62;,
 4;63,64,61,60;,
 4;63,60,2,65;,
 4;66,67,68,69;,
 4;70,71,11,16;,
 4;69,68,5,72;,
 4;71,73,12,11;,
 4;74,36,35,75;,
 4;76,77,78,79;,
 4;75,35,40,80;,
 4;77,81,82,78;,
 4;83,84,66,69;,
 4;85,86,87,88;,
 4;89,83,69,72;,
 4;86,90,91,87;,
 4;92,90,86,93;,
 4;92,93,83,89;,
 4;92,89,72,94;,
 4;92,94,91,90;,
 4;93,86,85,95;,
 4;93,95,84,83;,
 4;96,74,75,97;,
 4;96,97,98,99;,
 4;95,85,88,100;,
 4;95,100,66,84;,
 4;97,75,80,101;,
 4;97,101,25,98;,
 4;102,103,104,105;,
 4;102,105,71,70;,
 4;106,81,77,107;,
 4;106,107,108,109;,
 4;105,104,22,110;,
 4;105,110,73,71;,
 4;107,77,76,111;,
 4;107,111,112,108;;
 
 MeshMaterialList {
  5;
  64;
  0,
  0,
  0,
  0,
  0,
  0,
  0,
  0,
  0,
  0,
  0,
  0,
  0,
  0,
  0,
  0,
  0,
  0,
  0,
  0,
  0,
  0,
  0,
  0,
  0,
  0,
  0,
  0,
  0,
  0,
  0,
  0,
  1,
  1,
  1,
  1,
  1,
  1,
  1,
  1,
  1,
  1,
  1,
  1,
  1,
  1,
  1,
  1,
  1,
  1,
  1,
  1,
  1,
  1,
  1,
  1,
  1,
  1,
  1,
  1,
  1,
  1,
  1,
  1;;
  Material {
   0.702400;0.380000;0.181600;1.000000;;
   5.000000;
   0.000000;0.000000;0.000000;;
   0.000000;0.000000;0.000000;;
  }
  Material {
   0.367200;0.160000;0.000000;1.000000;;
   5.000000;
   0.000000;0.000000;0.000000;;
   0.000000;0.000000;0.000000;;
  }
  Material {
   0.800000;0.800000;0.800000;1.000000;;
   5.000000;
   0.000000;0.000000;0.000000;;
   0.000000;0.000000;0.000000;;
  }
  Material {
   0.800000;0.680800;0.796800;1.000000;;
   5.000000;
   0.000000;0.000000;0.000000;;
   0.000000;0.000000;0.000000;;
  }
  Material {
   0.179200;0.106400;0.106400;1.000000;;
   5.000000;
   0.000000;0.000000;0.000000;;
   0.000000;0.000000;0.000000;;
  }
 }
 MeshNormals {
  90;
  -0.713314;0.441161;-0.544574;,
  0.002427;-0.999482;0.032096;,
  0.659977;0.415474;-0.625949;,
  -0.003615;-0.999442;0.033220;,
  0.427674;0.884465;0.186591;,
  0.000000;-1.000000;-0.000000;,
  -0.466913;0.866956;0.174297;,
  -0.016877;0.609652;-0.792489;,
  -0.000594;-0.999466;0.032658;,
  -0.021938;0.979188;0.201766;,
  -0.809877;0.087932;-0.579972;,
  -0.302867;-0.045513;-0.951946;,
  -0.840208;-0.106485;0.531706;,
  0.796777;0.044205;-0.602655;,
  0.118841;-0.143568;0.982479;,
  0.822181;-0.115172;0.557453;,
  -0.797085;-0.049506;-0.601834;,
  -0.763864;-0.022598;0.644982;,
  0.783174;-0.047830;-0.619961;,
  0.745275;-0.023027;0.666360;,
  -0.997444;-0.017470;0.069281;,
  -0.000015;-1.000000;0.000144;,
  -0.997091;0.075957;0.006309;,
  0.000001;-1.000000;0.000143;,
  -0.734210;0.670726;-0.105175;,
  0.000016;-1.000000;0.000141;,
  -0.014391;0.992166;-0.124096;,
  0.997444;-0.017470;0.069281;,
  0.717497;0.667648;-0.198603;,
  0.998163;0.057303;0.019685;,
  -0.020678;-0.700080;0.713765;,
  0.382960;-0.645373;0.660935;,
  -0.423754;-0.635735;0.645193;,
  0.993596;0.083336;-0.076300;,
  -0.993204;0.091290;-0.072193;,
  0.751886;0.141266;-0.643981;,
  -0.773117;0.168813;-0.611385;,
  -0.035859;0.158298;-0.986740;,
  -0.269655;-0.143327;-0.952231;,
  -0.010704;-0.144478;-0.989450;,
  -0.997146;-0.061219;0.044181;,
  0.248979;-0.135740;-0.958949;,
  -0.782279;-0.073745;0.618547;,
  0.997146;-0.061219;0.044181;,
  -0.025910;-0.070923;0.997145;,
  0.765837;-0.075587;0.638577;,
  0.004882;-0.997946;0.063873;,
  -0.007258;-0.997785;0.066121;,
  -0.001188;-0.997885;0.064998;,
  -0.732451;0.521287;-0.437922;,
  -0.515289;0.630421;-0.580557;,
  0.718647;0.525381;-0.455544;,
  0.316148;0.333726;-0.888075;,
  -0.014223;0.360626;-0.932602;,
  0.999453;0.007895;-0.032124;,
  -0.343190;0.347168;-0.872751;,
  0.993929;-0.085992;0.068639;,
  -0.999557;0.007109;-0.028889;,
  0.761830;-0.117217;0.637084;,
  -0.993929;-0.085980;0.068645;,
  -0.027825;-0.102451;0.994349;,
  -0.779559;-0.117488;0.615211;,
  0.487811;0.006225;-0.872927;,
  0.129031;-0.723002;0.678689;,
  -0.009203;-0.729744;0.683658;,
  -0.147262;-0.722491;0.675515;,
  -0.664272;-0.495008;0.560098;,
  0.994780;0.034719;0.095953;,
  1.000000;0.000000;0.000000;,
  -0.994780;0.034719;0.095953;,
  -1.000000;0.000000;0.000000;,
  -0.959346;0.242103;-0.145054;,
  0.957239;0.247520;-0.149757;,
  -0.542370;0.795171;-0.271179;,
  0.490396;0.632574;-0.599467;,
  0.518453;0.808626;-0.278084;,
  0.232998;0.292997;-0.927289;,
  -0.012896;0.307247;-0.951542;,
  0.997330;0.072903;-0.004137;,
  0.999033;-0.043972;0.000057;,
  0.995681;-0.058289;0.072256;,
  -0.257999;0.302677;-0.917509;,
  0.990446;-0.084911;0.108659;,
  -0.997453;0.071293;0.002342;,
  -0.995213;-0.059566;0.077479;,
  -0.999001;-0.044598;0.002686;,
  0.732773;-0.147987;0.664186;,
  -0.990447;-0.084888;0.108670;,
  -0.029441;-0.147166;0.988674;,
  -0.752265;-0.150426;0.641458;;
  64;
  3;16,10,11;,
  3;62,13,18;,
  3;17,14,12;,
  3;14,19,15;,
  4;20,17,12,22;,
  4;20,22,10,16;,
  4;21,1,8,23;,
  4;21,23,5,5;,
  4;23,8,3,25;,
  4;23,25,5,5;,
  4;24,6,9,26;,
  4;24,26,7,0;,
  4;26,9,4,28;,
  4;26,28,2,7;,
  4;27,18,13,29;,
  4;27,29,15,19;,
  4;30,14,15,31;,
  4;30,31,63,64;,
  4;30,64,65,32;,
  4;30,32,12,66;,
  4;67,15,29,33;,
  4;67,33,68,68;,
  4;69,70,70,34;,
  4;69,34,22,12;,
  4;33,29,13,35;,
  4;33,35,2,28;,
  4;34,24,0,36;,
  4;34,36,10,22;,
  4;35,13,62,37;,
  4;35,37,7,2;,
  4;36,0,7,37;,
  4;36,37,11,10;,
  4;38,16,11,39;,
  4;71,40,20,16;,
  4;39,11,18,41;,
  4;40,42,17,20;,
  4;72,18,27,43;,
  4;42,44,14,17;,
  4;43,27,19,45;,
  4;44,45,19,14;,
  4;50,49,71,73;,
  4;46,48,8,1;,
  4;51,74,75,72;,
  4;48,47,3,8;,
  4;52,76,77,53;,
  4;52,53,74,51;,
  4;78,51,72,54;,
  4;78,54,79,80;,
  4;53,77,81,55;,
  4;53,55,49,50;,
  4;54,72,43,56;,
  4;54,56,82,79;,
  4;83,84,85,57;,
  4;83,57,71,49;,
  4;56,43,45,58;,
  4;56,58,86,82;,
  4;57,85,87,59;,
  4;57,59,40,71;,
  4;58,45,44,60;,
  4;58,60,88,86;,
  4;59,87,89,61;,
  4;59,61,42,40;,
  4;60,44,42,61;,
  4;60,61,89,88;;
 }
 MeshTextureCoords {
  113;
  0.231580;0.474210;,
  0.231580;0.404760;,
  0.463150;0.335300;,
  0.463150;0.404760;,
  0.731580;0.335300;,
  1.000000;0.474210;,
  0.768420;0.474210;,
  0.536850;0.404760;,
  1.000000;0.335300;,
  0.268420;0.404760;,
  0.000000;0.335300;,
  0.447420;0.474210;,
  0.000000;0.474210;,
  0.000000;0.335300;,
  0.447420;0.335300;,
  1.000000;0.335300;,
  1.000000;0.474210;,
  0.000000;0.552580;,
  0.000000;0.000000;,
  0.463150;0.000000;,
  0.463150;0.552580;,
  0.463150;1.000000;,
  0.000000;1.000000;,
  1.000000;0.000000;,
  1.000000;0.552580;,
  1.000000;1.000000;,
  0.000000;0.447420;,
  0.000000;0.000000;,
  0.463150;0.000000;,
  0.463150;0.447420;,
  0.463150;1.000000;,
  0.000000;1.000000;,
  1.000000;0.000000;,
  1.000000;0.447420;,
  1.000000;1.000000;,
  0.552580;0.474210;,
  0.000000;0.474210;,
  0.000000;0.335300;,
  0.552580;0.335300;,
  1.000000;0.335300;,
  1.000000;0.474210;,
  0.536850;0.094580;,
  0.536850;0.335300;,
  0.000000;0.094580;,
  0.000000;0.000000;,
  0.536850;0.000000;,
  1.000000;0.000000;,
  1.000000;0.094580;,
  1.000000;0.094580;,
  0.552580;0.094580;,
  0.552580;0.000000;,
  0.000000;0.094580;,
  0.447420;0.000000;,
  0.447420;0.094580;,
  0.000000;0.094580;,
  0.000000;0.000000;,
  1.000000;0.000000;,
  1.000000;0.094580;,
  1.000000;0.094580;,
  1.000000;0.335300;,
  0.463150;0.094580;,
  0.463150;0.000000;,
  1.000000;0.000000;,
  0.000000;0.094580;,
  0.000000;0.000000;,
  0.000000;0.335300;,
  0.000000;0.846120;,
  0.000000;0.474210;,
  0.463150;0.474210;,
  0.463150;0.846120;,
  1.000000;0.846120;,
  0.447420;0.846120;,
  1.000000;0.846120;,
  0.000000;0.846120;,
  0.000000;0.846120;,
  0.552580;0.846120;,
  1.000000;0.846120;,
  0.536850;0.846120;,
  0.536850;0.474210;,
  1.000000;0.474210;,
  1.000000;0.846120;,
  0.000000;0.846120;,
  0.000000;0.474210;,
  0.463150;0.846120;,
  0.000000;0.846120;,
  0.000000;1.000000;,
  0.463150;1.000000;,
  0.463150;1.000000;,
  0.000000;1.000000;,
  1.000000;0.846120;,
  1.000000;1.000000;,
  1.000000;1.000000;,
  1.000000;0.930930;,
  0.463150;0.930930;,
  1.000000;0.930930;,
  0.000000;0.930930;,
  0.000000;0.930930;,
  0.552580;0.930930;,
  0.552580;1.000000;,
  0.000000;1.000000;,
  0.000000;0.930930;,
  1.000000;0.930930;,
  1.000000;0.930930;,
  1.000000;1.000000;,
  0.447420;1.000000;,
  0.447420;0.930930;,
  0.000000;0.930930;,
  0.536850;0.930930;,
  0.536850;1.000000;,
  0.000000;1.000000;,
  0.000000;0.930930;,
  1.000000;0.930930;,
  1.000000;1.000000;;
 }
}
