xof 0302txt 0064
template Header {
 <3D82AB43-62DA-11cf-AB39-0020AF71E433>
 WORD major;
 WORD minor;
 DWORD flags;
}

template Vector {
 <3D82AB5E-62DA-11cf-AB39-0020AF71E433>
 FLOAT x;
 FLOAT y;
 FLOAT z;
}

template Coords2d {
 <F6F23F44-7686-11cf-8F52-0040333594A3>
 FLOAT u;
 FLOAT v;
}

template Matrix4x4 {
 <F6F23F45-7686-11cf-8F52-0040333594A3>
 array FLOAT matrix[16];
}

template ColorRGBA {
 <35FF44E0-6C7C-11cf-8F52-0040333594A3>
 FLOAT red;
 FLOAT green;
 FLOAT blue;
 FLOAT alpha;
}

template ColorRGB {
 <D3E16E81-7835-11cf-8F52-0040333594A3>
 FLOAT red;
 FLOAT green;
 FLOAT blue;
}

template IndexedColor {
 <1630B820-7842-11cf-8F52-0040333594A3>
 DWORD index;
 ColorRGBA indexColor;
}

template Boolean {
 <4885AE61-78E8-11cf-8F52-0040333594A3>
 WORD truefalse;
}

template Boolean2d {
 <4885AE63-78E8-11cf-8F52-0040333594A3>
 Boolean u;
 Boolean v;
}

template MaterialWrap {
 <4885AE60-78E8-11cf-8F52-0040333594A3>
 Boolean u;
 Boolean v;
}

template TextureFilename {
 <A42790E1-7810-11cf-8F52-0040333594A3>
 STRING filename;
}

template Material {
 <3D82AB4D-62DA-11cf-AB39-0020AF71E433>
 ColorRGBA faceColor;
 FLOAT power;
 ColorRGB specularColor;
 ColorRGB emissiveColor;
 [...]
}

template MeshFace {
 <3D82AB5F-62DA-11cf-AB39-0020AF71E433>
 DWORD nFaceVertexIndices;
 array DWORD faceVertexIndices[nFaceVertexIndices];
}

template MeshFaceWraps {
 <4885AE62-78E8-11cf-8F52-0040333594A3>
 DWORD nFaceWrapValues;
 Boolean2d faceWrapValues;
}

template MeshTextureCoords {
 <F6F23F40-7686-11cf-8F52-0040333594A3>
 DWORD nTextureCoords;
 array Coords2d textureCoords[nTextureCoords];
}

template MeshMaterialList {
 <F6F23F42-7686-11cf-8F52-0040333594A3>
 DWORD nMaterials;
 DWORD nFaceIndexes;
 array DWORD faceIndexes[nFaceIndexes];
 [Material]
}

template MeshNormals {
 <F6F23F43-7686-11cf-8F52-0040333594A3>
 DWORD nNormals;
 array Vector normals[nNormals];
 DWORD nFaceNormals;
 array MeshFace faceNormals[nFaceNormals];
}

template MeshVertexColors {
 <1630B821-7842-11cf-8F52-0040333594A3>
 DWORD nVertexColors;
 array IndexedColor vertexColors[nVertexColors];
}

template Mesh {
 <3D82AB44-62DA-11cf-AB39-0020AF71E433>
 DWORD nVertices;
 array Vector vertices[nVertices];
 DWORD nFaces;
 array MeshFace faces[nFaces];
 [...]
}

Header{
1;
0;
1;
}

Mesh {
 286;
 0.00000;-200.00000;-0.00000;,
 27.05980;-207.61200;-27.05980;,
 0.00000;-207.61200;-38.26830;,
 38.26840;-207.61200;0.00000;,
 27.05980;-207.61200;27.05980;,
 -0.00000;-207.61200;38.26830;,
 -27.05980;-207.61200;27.05980;,
 -38.26830;-207.61200;0.00000;,
 -27.05980;-207.61200;-27.05980;,
 50.00010;-229.28931;-50.00000;,
 0.00000;-229.28931;-70.71070;,
 70.71070;-229.28931;0.00000;,
 50.00010;-229.28931;50.00000;,
 -0.00000;-229.28931;70.71070;,
 -49.99990;-229.28931;50.00000;,
 -70.71060;-229.28931;0.00000;,
 -49.99990;-229.28931;-50.00000;,
 65.32820;-261.73169;-65.32810;,
 0.00000;-261.73169;-92.38790;,
 92.38800;-261.73169;0.00000;,
 65.32820;-261.73169;65.32820;,
 -0.00000;-261.73169;92.38800;,
 -65.32810;-261.73169;65.32810;,
 -92.38790;-261.73169;0.00000;,
 -65.32810;-261.73169;-65.32810;,
 70.71070;-300.00009;-70.71070;,
 0.00000;-300.00009;-100.00000;,
 100.00010;-300.00009;0.00000;,
 70.71070;-300.00009;70.71070;,
 -0.00000;-300.00009;100.00000;,
 -70.71060;-300.00009;70.71070;,
 -99.99990;-300.00009;0.00000;,
 -70.71060;-300.00009;-70.71060;,
 65.32820;-338.26840;-65.32810;,
 0.00000;-338.26840;-92.38790;,
 92.38800;-338.26840;0.00000;,
 65.32820;-338.26840;65.32820;,
 -0.00000;-338.26840;92.38800;,
 -65.32810;-338.26840;65.32810;,
 -92.38790;-338.26840;0.00000;,
 -65.32810;-338.26840;-65.32810;,
 50.00010;-370.71078;-50.00000;,
 0.00000;-370.71078;-70.71070;,
 70.71070;-370.71078;0.00000;,
 50.00010;-370.71078;50.00000;,
 -0.00000;-370.71078;70.71070;,
 -49.99990;-370.71078;50.00000;,
 -70.71060;-370.71078;0.00000;,
 -49.99990;-370.71078;-50.00000;,
 27.05980;-392.38800;-27.05980;,
 0.00000;-392.38800;-38.26830;,
 38.26840;-392.38800;0.00000;,
 27.05980;-392.38800;27.05980;,
 -0.00000;-392.38800;38.26830;,
 -27.05980;-392.38800;27.05980;,
 -38.26830;-392.38800;0.00000;,
 -27.05980;-392.38800;-27.05980;,
 0.00000;-400.00009;-0.00000;,
 -1.42250;3.25000;-1.20000;,
 1.42250;3.25000;-1.20000;,
 1.42250;-211.05000;-1.20000;,
 -1.42250;-211.05000;-1.20000;,
 1.42250;3.25000;1.20000;,
 1.42250;-211.05000;1.20000;,
 -1.42250;3.25000;1.20000;,
 -1.42250;-211.05000;1.20000;,
 0.00000;-206.36220;-20.28990;,
 0.00000;-153.66229;0.41010;,
 14.63710;-206.36220;-14.22700;,
 20.70000;-206.36220;0.41010;,
 14.63710;-206.36220;15.04720;,
 -0.00000;-206.36220;21.11010;,
 -14.63710;-206.36220;15.04720;,
 -20.70000;-206.36220;0.41010;,
 -14.63710;-206.36220;-14.22700;,
 0.00000;-206.36220;0.41010;,
 -0.38060;-248.47301;-82.19770;,
 -0.38060;-196.57130;-104.82510;,
 14.25650;-244.18581;-77.91060;,
 20.31940;-233.83591;-67.56060;,
 14.25650;-223.48590;-57.21060;,
 -0.38060;-219.19870;-52.92350;,
 -15.01770;-223.48590;-57.21060;,
 -21.08060;-233.83591;-67.56060;,
 -15.01770;-244.18581;-77.91060;,
 -0.38060;-233.83591;-67.56060;,
 65.70040;-230.91830;-20.28990;,
 102.96480;-193.65390;0.41010;,
 76.05040;-241.26830;-14.22700;,
 80.33750;-245.55540;0.41010;,
 76.05040;-241.26830;15.04720;,
 65.70040;-230.91830;21.11010;,
 55.35040;-220.56830;15.04720;,
 51.06330;-216.28120;0.41010;,
 55.35040;-220.56830;-14.22700;,
 65.70040;-230.91830;0.41010;,
 -66.62730;-233.59480;-20.28990;,
 -103.89170;-196.33040;0.41010;,
 -56.27730;-223.24480;-14.22700;,
 -51.99020;-218.95770;0.41010;,
 -56.27730;-223.24480;15.04720;,
 -66.62730;-233.59480;21.11010;,
 -76.97730;-243.94479;15.04720;,
 -81.26450;-248.23190;0.41010;,
 -76.97730;-243.94479;-14.22700;,
 -66.62730;-233.59480;0.41010;,
 -0.08460;-394.36481;21.11010;,
 -0.08460;-447.06479;0.41010;,
 14.55250;-394.36481;15.04720;,
 20.61540;-394.36481;0.41010;,
 14.55250;-394.36481;-14.22700;,
 -0.08460;-394.36481;-20.28990;,
 -14.72170;-394.36481;-14.22700;,
 -20.78460;-394.36481;0.41010;,
 -14.72170;-394.36481;15.04720;,
 -0.08460;-394.36481;0.41010;,
 66.00540;-368.81750;-20.62580;,
 103.27000;-406.08209;0.07420;,
 55.65540;-379.16751;-14.56290;,
 51.36830;-383.45471;0.07420;,
 55.65540;-379.16751;14.71130;,
 66.00540;-368.81750;20.77420;,
 76.35540;-358.46759;14.71130;,
 80.64250;-354.18051;0.07420;,
 76.35540;-358.46759;-14.56290;,
 66.00540;-368.81750;0.07420;,
 89.59030;-296.49881;-20.28990;,
 142.29030;-296.49881;0.41010;,
 89.59030;-311.13599;-14.22700;,
 89.59030;-317.19891;0.41010;,
 89.59030;-311.13599;15.04720;,
 89.59030;-296.49881;21.11010;,
 89.59030;-281.86160;15.04720;,
 89.59030;-275.79861;0.41010;,
 89.59030;-281.86160;-14.22700;,
 89.59030;-296.49881;0.41010;,
 -0.13970;-218.68680;54.38480;,
 -0.13970;-196.05940;106.28650;,
 14.49740;-222.97391;58.67200;,
 20.56030;-233.32390;69.02200;,
 14.49740;-243.67390;79.37200;,
 -0.13970;-247.96100;83.65910;,
 -14.77680;-243.67390;79.37200;,
 -20.83970;-233.32390;69.02200;,
 -14.77680;-222.97391;58.67200;,
 -0.13970;-233.32390;69.02200;,
 64.31550;-248.71060;58.43700;,
 102.98900;-249.06310;99.78920;,
 76.52190;-254.27600;50.00880;,
 84.60940;-267.89490;49.65610;,
 83.84050;-281.58929;57.58550;,
 74.66550;-287.33731;69.15210;,
 62.45920;-281.77179;77.58020;,
 54.37170;-268.15302;77.93290;,
 55.14060;-254.45860;70.00350;,
 69.49050;-268.02390;63.79450;,
 44.20750;-337.53131;-73.58370;,
 88.27350;-363.21350;-98.16810;,
 42.69310;-351.68161;-66.62100;,
 50.92220;-359.75949;-55.75670;,
 64.07440;-357.03299;-47.35490;,
 74.44530;-345.09921;-46.33730;,
 75.95970;-330.94901;-53.30000;,
 67.73060;-322.87109;-64.16430;,
 54.57840;-325.59760;-72.56610;,
 59.32640;-341.31531;-59.96050;,
 -57.51950;-248.71060;58.02780;,
 -98.87170;-249.06310;96.70120;,
 -49.09140;-254.27600;70.23420;,
 -48.73870;-267.89490;78.32170;,
 -56.66810;-281.58929;77.55270;,
 -68.23460;-287.33731;68.37780;,
 -76.66280;-281.77179;56.17140;,
 -77.01550;-268.15302;48.08400;,
 -69.08610;-254.45860;48.85290;,
 -62.87710;-268.02390;63.20280;,
 -53.90410;-246.16040;-57.36550;,
 -92.57750;-246.51300;-98.71770;,
 -66.11050;-251.72591;-48.93740;,
 -74.19800;-265.34479;-48.58470;,
 -73.42910;-279.03922;-56.51410;,
 -64.25420;-284.78711;-68.08060;,
 -52.04780;-279.22171;-76.50880;,
 -43.96030;-265.60291;-76.86150;,
 -44.72920;-251.90840;-68.93210;,
 -59.07920;-265.47379;-62.72310;,
 55.92450;-246.16040;-56.15600;,
 97.27670;-246.51300;-94.82940;,
 47.49630;-251.72591;-68.36240;,
 47.14360;-265.34479;-76.44990;,
 55.07300;-279.03922;-75.68090;,
 66.63960;-284.78711;-66.50600;,
 75.06770;-279.22171;-54.29960;,
 75.42040;-265.60291;-46.21220;,
 67.49100;-251.90840;-46.98110;,
 61.28200;-265.47379;-61.33100;,
 19.97900;-301.20569;93.63640;,
 -0.72100;-301.20569;146.33640;,
 13.91610;-315.84299;93.63640;,
 -0.72100;-321.90579;93.63640;,
 -15.35810;-315.84299;93.63640;,
 -21.42100;-301.20569;93.63640;,
 -15.35810;-286.56851;93.63640;,
 -0.72100;-280.50562;93.63640;,
 13.91610;-286.56851;93.63640;,
 -0.72100;-301.20569;93.63640;,
 -93.94590;-301.20569;20.37400;,
 -146.64590;-301.20569;-0.32600;,
 -93.94590;-315.84299;14.31110;,
 -93.94590;-321.90579;-0.32600;,
 -93.94590;-315.84299;-14.96310;,
 -93.94590;-301.20569;-21.02600;,
 -93.94590;-286.56851;-14.96310;,
 -93.94590;-280.50562;-0.32600;,
 -93.94590;-286.56851;14.31110;,
 -93.94590;-301.20569;-0.32600;,
 -21.82270;-301.20569;-93.05570;,
 -1.12270;-301.20569;-145.75571;,
 -15.75980;-315.84299;-93.05570;,
 -1.12270;-321.90579;-93.05570;,
 13.51440;-315.84299;-93.05570;,
 19.57730;-301.20569;-93.05570;,
 13.51440;-286.56851;-93.05570;,
 -1.12270;-280.50562;-93.05570;,
 -15.75980;-286.56851;-93.05570;,
 -1.12270;-301.20569;-93.05570;,
 73.94110;-337.53131;45.93810;,
 98.52550;-363.21350;90.00400;,
 66.97840;-351.68161;44.42360;,
 56.11410;-359.75949;52.65280;,
 47.71230;-357.03299;65.80490;,
 46.69470;-345.09921;76.17580;,
 53.65740;-330.94901;77.69020;,
 64.52170;-322.87109;69.46110;,
 72.92350;-325.59760;56.30890;,
 60.31790;-341.31531;61.05690;,
 -46.08940;-337.53131;71.87960;,
 -90.15530;-363.21350;96.46400;,
 -44.57500;-351.68161;64.91680;,
 -52.80410;-359.75949;54.05250;,
 -65.95630;-357.03299;45.65070;,
 -76.32710;-345.09921;44.63310;,
 -77.84150;-330.94901;51.59580;,
 -69.61240;-322.87109;62.46010;,
 -56.46030;-325.59760;70.86200;,
 -61.20830;-341.31531;58.25630;,
 -73.59140;-337.53131;-44.27410;,
 -98.17580;-363.21350;-88.34000;,
 -66.62870;-351.68161;-42.75960;,
 -55.76440;-359.75949;-50.98870;,
 -47.36250;-357.03299;-64.14090;,
 -46.34490;-345.09921;-74.51180;,
 -53.30770;-330.94901;-76.02620;,
 -64.17200;-322.87109;-67.79710;,
 -72.57380;-325.59760;-54.64490;,
 -59.96820;-341.31531;-59.39290;,
 21.50340;-365.99600;67.20470;,
 0.80340;-403.26050;104.46920;,
 15.44050;-376.34601;56.85470;,
 0.80340;-380.63309;52.56760;,
 -13.83370;-376.34601;56.85470;,
 -19.89660;-365.99600;67.20470;,
 -13.83370;-355.64600;77.55470;,
 0.80340;-351.35889;81.84180;,
 15.44050;-355.64600;77.55470;,
 0.80340;-365.99600;67.20470;,
 -67.26940;-365.99600;20.82540;,
 -104.53390;-403.26050;0.12550;,
 -56.91940;-376.34601;14.76250;,
 -52.63230;-380.63309;0.12550;,
 -56.91940;-376.34601;-14.51170;,
 -67.26940;-365.99600;-20.57460;,
 -77.61940;-355.64600;-14.51170;,
 -81.90650;-351.35889;0.12550;,
 -77.61940;-355.64600;14.76250;,
 -67.26940;-365.99600;0.12550;,
 -20.70160;-365.99600;-67.36680;,
 -0.00170;-403.26050;-104.63130;,
 -14.63870;-376.34601;-57.01680;,
 -0.00170;-380.63309;-52.72970;,
 14.63550;-376.34601;-57.01680;,
 20.69830;-365.99600;-67.36680;,
 14.63550;-355.64600;-77.71680;,
 -0.00170;-351.35889;-82.00390;,
 -14.63870;-355.64600;-77.71680;,
 -0.00170;-365.99600;-67.36680;;
 
 422;
 3;0,1,2;,
 3;0,3,1;,
 3;0,4,3;,
 3;0,5,4;,
 3;0,6,5;,
 3;0,7,6;,
 3;0,8,7;,
 3;0,2,8;,
 4;2,1,9,10;,
 4;1,3,11,9;,
 4;3,4,12,11;,
 4;4,5,13,12;,
 4;5,6,14,13;,
 4;6,7,15,14;,
 4;7,8,16,15;,
 4;8,2,10,16;,
 4;10,9,17,18;,
 4;9,11,19,17;,
 4;11,12,20,19;,
 4;12,13,21,20;,
 4;13,14,22,21;,
 4;14,15,23,22;,
 4;15,16,24,23;,
 4;16,10,18,24;,
 4;18,17,25,26;,
 4;17,19,27,25;,
 4;19,20,28,27;,
 4;20,21,29,28;,
 4;21,22,30,29;,
 4;22,23,31,30;,
 4;23,24,32,31;,
 4;24,18,26,32;,
 4;26,25,33,34;,
 4;25,27,35,33;,
 4;27,28,36,35;,
 4;28,29,37,36;,
 4;29,30,38,37;,
 4;30,31,39,38;,
 4;31,32,40,39;,
 4;32,26,34,40;,
 4;34,33,41,42;,
 4;33,35,43,41;,
 4;35,36,44,43;,
 4;36,37,45,44;,
 4;37,38,46,45;,
 4;38,39,47,46;,
 4;39,40,48,47;,
 4;40,34,42,48;,
 4;42,41,49,50;,
 4;41,43,51,49;,
 4;43,44,52,51;,
 4;44,45,53,52;,
 4;45,46,54,53;,
 4;46,47,55,54;,
 4;47,48,56,55;,
 4;48,42,50,56;,
 3;50,49,57;,
 3;49,51,57;,
 3;51,52,57;,
 3;52,53,57;,
 3;53,54,57;,
 3;54,55,57;,
 3;55,56,57;,
 3;56,50,57;,
 4;58,59,60,61;,
 4;59,62,63,60;,
 4;62,64,65,63;,
 4;64,58,61,65;,
 4;64,62,59,58;,
 4;61,60,63,65;,
 3;66,67,68;,
 3;68,67,69;,
 3;69,67,70;,
 3;70,67,71;,
 3;71,67,72;,
 3;72,67,73;,
 3;73,67,74;,
 3;74,67,66;,
 3;75,66,68;,
 3;75,68,69;,
 3;75,69,70;,
 3;75,70,71;,
 3;75,71,72;,
 3;75,72,73;,
 3;75,73,74;,
 3;75,74,66;,
 3;76,77,78;,
 3;78,77,79;,
 3;79,77,80;,
 3;80,77,81;,
 3;81,77,82;,
 3;82,77,83;,
 3;83,77,84;,
 3;84,77,76;,
 3;85,76,78;,
 3;85,78,79;,
 3;85,79,80;,
 3;85,80,81;,
 3;85,81,82;,
 3;85,82,83;,
 3;85,83,84;,
 3;85,84,76;,
 3;86,87,88;,
 3;88,87,89;,
 3;89,87,90;,
 3;90,87,91;,
 3;91,87,92;,
 3;92,87,93;,
 3;93,87,94;,
 3;94,87,86;,
 3;95,86,88;,
 3;95,88,89;,
 3;95,89,90;,
 3;95,90,91;,
 3;95,91,92;,
 3;95,92,93;,
 3;95,93,94;,
 3;95,94,86;,
 3;96,97,98;,
 3;98,97,99;,
 3;99,97,100;,
 3;100,97,101;,
 3;101,97,102;,
 3;102,97,103;,
 3;103,97,104;,
 3;104,97,96;,
 3;105,96,98;,
 3;105,98,99;,
 3;105,99,100;,
 3;105,100,101;,
 3;105,101,102;,
 3;105,102,103;,
 3;105,103,104;,
 3;105,104,96;,
 3;106,107,108;,
 3;108,107,109;,
 3;109,107,110;,
 3;110,107,111;,
 3;111,107,112;,
 3;112,107,113;,
 3;113,107,114;,
 3;114,107,106;,
 3;115,106,108;,
 3;115,108,109;,
 3;115,109,110;,
 3;115,110,111;,
 3;115,111,112;,
 3;115,112,113;,
 3;115,113,114;,
 3;115,114,106;,
 3;116,117,118;,
 3;118,117,119;,
 3;119,117,120;,
 3;120,117,121;,
 3;121,117,122;,
 3;122,117,123;,
 3;123,117,124;,
 3;124,117,116;,
 3;125,116,118;,
 3;125,118,119;,
 3;125,119,120;,
 3;125,120,121;,
 3;125,121,122;,
 3;125,122,123;,
 3;125,123,124;,
 3;125,124,116;,
 3;126,127,128;,
 3;128,127,129;,
 3;129,127,130;,
 3;130,127,131;,
 3;131,127,132;,
 3;132,127,133;,
 3;133,127,134;,
 3;134,127,126;,
 3;135,126,128;,
 3;135,128,129;,
 3;135,129,130;,
 3;135,130,131;,
 3;135,131,132;,
 3;135,132,133;,
 3;135,133,134;,
 3;135,134,126;,
 3;136,137,138;,
 3;138,137,139;,
 3;139,137,140;,
 3;140,137,141;,
 3;141,137,142;,
 3;142,137,143;,
 3;143,137,144;,
 3;144,137,136;,
 3;145,136,138;,
 3;145,138,139;,
 3;145,139,140;,
 3;145,140,141;,
 3;145,141,142;,
 3;145,142,143;,
 3;145,143,144;,
 3;145,144,136;,
 3;146,147,148;,
 3;148,147,149;,
 3;149,147,150;,
 3;150,147,151;,
 3;151,147,152;,
 3;152,147,153;,
 3;153,147,154;,
 3;154,147,146;,
 3;155,146,148;,
 3;155,148,149;,
 3;155,149,150;,
 3;155,150,151;,
 3;155,151,152;,
 3;155,152,153;,
 3;155,153,154;,
 3;155,154,146;,
 3;156,157,158;,
 3;158,157,159;,
 3;159,157,160;,
 3;160,157,161;,
 3;161,157,162;,
 3;162,157,163;,
 3;163,157,164;,
 3;164,157,156;,
 3;165,156,158;,
 3;165,158,159;,
 3;165,159,160;,
 3;165,160,161;,
 3;165,161,162;,
 3;165,162,163;,
 3;165,163,164;,
 3;165,164,156;,
 3;166,167,168;,
 3;168,167,169;,
 3;169,167,170;,
 3;170,167,171;,
 3;171,167,172;,
 3;172,167,173;,
 3;173,167,174;,
 3;174,167,166;,
 3;175,166,168;,
 3;175,168,169;,
 3;175,169,170;,
 3;175,170,171;,
 3;175,171,172;,
 3;175,172,173;,
 3;175,173,174;,
 3;175,174,166;,
 3;176,177,178;,
 3;178,177,179;,
 3;179,177,180;,
 3;180,177,181;,
 3;181,177,182;,
 3;182,177,183;,
 3;183,177,184;,
 3;184,177,176;,
 3;185,176,178;,
 3;185,178,179;,
 3;185,179,180;,
 3;185,180,181;,
 3;185,181,182;,
 3;185,182,183;,
 3;185,183,184;,
 3;185,184,176;,
 3;186,187,188;,
 3;188,187,189;,
 3;189,187,190;,
 3;190,187,191;,
 3;191,187,192;,
 3;192,187,193;,
 3;193,187,194;,
 3;194,187,186;,
 3;195,186,188;,
 3;195,188,189;,
 3;195,189,190;,
 3;195,190,191;,
 3;195,191,192;,
 3;195,192,193;,
 3;195,193,194;,
 3;195,194,186;,
 3;196,197,198;,
 3;198,197,199;,
 3;199,197,200;,
 3;200,197,201;,
 3;201,197,202;,
 3;202,197,203;,
 3;203,197,204;,
 3;204,197,196;,
 3;205,196,198;,
 3;205,198,199;,
 3;205,199,200;,
 3;205,200,201;,
 3;205,201,202;,
 3;205,202,203;,
 3;205,203,204;,
 3;205,204,196;,
 3;206,207,208;,
 3;208,207,209;,
 3;209,207,210;,
 3;210,207,211;,
 3;211,207,212;,
 3;212,207,213;,
 3;213,207,214;,
 3;214,207,206;,
 3;215,206,208;,
 3;215,208,209;,
 3;215,209,210;,
 3;215,210,211;,
 3;215,211,212;,
 3;215,212,213;,
 3;215,213,214;,
 3;215,214,206;,
 3;216,217,218;,
 3;218,217,219;,
 3;219,217,220;,
 3;220,217,221;,
 3;221,217,222;,
 3;222,217,223;,
 3;223,217,224;,
 3;224,217,216;,
 3;225,216,218;,
 3;225,218,219;,
 3;225,219,220;,
 3;225,220,221;,
 3;225,221,222;,
 3;225,222,223;,
 3;225,223,224;,
 3;225,224,216;,
 3;226,227,228;,
 3;228,227,229;,
 3;229,227,230;,
 3;230,227,231;,
 3;231,227,232;,
 3;232,227,233;,
 3;233,227,234;,
 3;234,227,226;,
 3;235,226,228;,
 3;235,228,229;,
 3;235,229,230;,
 3;235,230,231;,
 3;235,231,232;,
 3;235,232,233;,
 3;235,233,234;,
 3;235,234,226;,
 3;236,237,238;,
 3;238,237,239;,
 3;239,237,240;,
 3;240,237,241;,
 3;241,237,242;,
 3;242,237,243;,
 3;243,237,244;,
 3;244,237,236;,
 3;245,236,238;,
 3;245,238,239;,
 3;245,239,240;,
 3;245,240,241;,
 3;245,241,242;,
 3;245,242,243;,
 3;245,243,244;,
 3;245,244,236;,
 3;246,247,248;,
 3;248,247,249;,
 3;249,247,250;,
 3;250,247,251;,
 3;251,247,252;,
 3;252,247,253;,
 3;253,247,254;,
 3;254,247,246;,
 3;255,246,248;,
 3;255,248,249;,
 3;255,249,250;,
 3;255,250,251;,
 3;255,251,252;,
 3;255,252,253;,
 3;255,253,254;,
 3;255,254,246;,
 3;256,257,258;,
 3;258,257,259;,
 3;259,257,260;,
 3;260,257,261;,
 3;261,257,262;,
 3;262,257,263;,
 3;263,257,264;,
 3;264,257,256;,
 3;265,256,258;,
 3;265,258,259;,
 3;265,259,260;,
 3;265,260,261;,
 3;265,261,262;,
 3;265,262,263;,
 3;265,263,264;,
 3;265,264,256;,
 3;266,267,268;,
 3;268,267,269;,
 3;269,267,270;,
 3;270,267,271;,
 3;271,267,272;,
 3;272,267,273;,
 3;273,267,274;,
 3;274,267,266;,
 3;275,266,268;,
 3;275,268,269;,
 3;275,269,270;,
 3;275,270,271;,
 3;275,271,272;,
 3;275,272,273;,
 3;275,273,274;,
 3;275,274,266;,
 3;276,277,278;,
 3;278,277,279;,
 3;279,277,280;,
 3;280,277,281;,
 3;281,277,282;,
 3;282,277,283;,
 3;283,277,284;,
 3;284,277,276;,
 3;285,276,278;,
 3;285,278,279;,
 3;285,279,280;,
 3;285,280,281;,
 3;285,281,282;,
 3;285,282,283;,
 3;285,283,284;,
 3;285,284,276;;
 
 MeshMaterialList {
  3;
  422;
  0,
  0,
  0,
  0,
  0,
  0,
  0,
  0,
  0,
  0,
  0,
  0,
  0,
  0,
  0,
  0,
  0,
  0,
  0,
  0,
  0,
  0,
  0,
  0,
  0,
  0,
  0,
  0,
  0,
  0,
  0,
  0,
  0,
  0,
  0,
  0,
  0,
  0,
  0,
  0,
  0,
  0,
  0,
  0,
  0,
  0,
  0,
  0,
  0,
  0,
  0,
  0,
  0,
  0,
  0,
  0,
  0,
  0,
  0,
  0,
  0,
  0,
  0,
  0,
  1,
  1,
  1,
  1,
  1,
  1,
  2,
  2,
  2,
  2,
  2,
  2,
  2,
  2,
  2,
  2,
  2,
  2,
  2,
  2,
  2,
  2,
  2,
  2,
  2,
  2,
  2,
  2,
  2,
  2,
  2,
  2,
  2,
  2,
  2,
  2,
  2,
  2,
  2,
  2,
  2,
  2,
  2,
  2,
  2,
  2,
  2,
  2,
  2,
  2,
  2,
  2,
  2,
  2,
  2,
  2,
  2,
  2,
  2,
  2,
  2,
  2,
  2,
  2,
  2,
  2,
  2,
  2,
  2,
  2,
  2,
  2,
  2,
  2,
  2,
  2,
  2,
  2,
  2,
  2,
  2,
  2,
  2,
  2,
  2,
  2,
  2,
  2,
  2,
  2,
  2,
  2,
  2,
  2,
  2,
  2,
  2,
  2,
  2,
  2,
  2,
  2,
  2,
  2,
  2,
  2,
  2,
  2,
  2,
  2,
  2,
  2,
  2,
  2,
  2,
  2,
  2,
  2,
  2,
  2,
  2,
  2,
  2,
  2,
  2,
  2,
  2,
  2,
  2,
  2,
  2,
  2,
  2,
  2,
  2,
  2,
  2,
  2,
  2,
  2,
  2,
  2,
  2,
  2,
  2,
  2,
  2,
  2,
  2,
  2,
  2,
  2,
  2,
  2,
  2,
  2,
  2,
  2,
  2,
  2,
  2,
  2,
  2,
  2,
  2,
  2,
  2,
  2,
  2,
  2,
  2,
  2,
  2,
  2,
  2,
  2,
  2,
  2,
  2,
  2,
  2,
  2,
  2,
  2,
  2,
  2,
  2,
  2,
  2,
  2,
  2,
  2,
  2,
  2,
  2,
  2,
  2,
  2,
  2,
  2,
  2,
  2,
  2,
  2,
  2,
  2,
  2,
  2,
  2,
  2,
  2,
  2,
  2,
  2,
  2,
  2,
  2,
  2,
  2,
  2,
  2,
  2,
  2,
  2,
  2,
  2,
  2,
  2,
  2,
  2,
  2,
  2,
  2,
  2,
  2,
  2,
  2,
  2,
  2,
  2,
  2,
  2,
  2,
  2,
  2,
  2,
  2,
  2,
  2,
  2,
  2,
  2,
  2,
  2,
  2,
  2,
  2,
  2,
  2,
  2,
  2,
  2,
  2,
  2,
  2,
  2,
  2,
  2,
  2,
  2,
  2,
  2,
  2,
  2,
  2,
  2,
  2,
  2,
  2,
  2,
  2,
  2,
  2,
  2,
  2,
  2,
  2,
  2,
  2,
  2,
  2,
  2,
  2,
  2,
  2,
  2,
  2,
  2,
  2,
  2,
  2,
  2,
  2,
  2,
  2,
  2,
  2,
  2,
  2,
  2,
  2,
  2,
  2,
  2,
  2,
  2,
  2,
  2,
  2,
  2,
  2,
  2,
  2,
  2,
  2,
  2,
  2,
  2,
  2,
  2,
  2,
  2,
  2,
  2,
  2,
  2,
  2,
  2,
  2,
  2,
  2,
  2,
  2,
  2,
  2,
  2,
  2,
  2,
  2,
  2,
  2,
  2,
  2,
  2,
  2,
  2,
  2,
  2;;
  Material {
   0.000000;0.000000;0.000000;1.000000;;
   5.000000;
   0.000000;0.000000;0.000000;;
   0.000000;0.000000;0.000000;;
  }
  Material {
   0.800000;0.800000;0.800000;1.000000;;
   5.000000;
   0.000000;0.000000;0.000000;;
   0.000000;0.000000;0.000000;;
  }
  Material {
   0.408000;0.408000;0.408000;1.000000;;
   5.000000;
   0.000000;0.000000;0.000000;;
   0.000000;0.000000;0.000000;;
  }
 }
 MeshNormals {
  382;
  -0.000000;1.000000;-0.000000;,
  -0.000000;0.924736;-0.380610;,
  0.269132;0.924736;-0.269132;,
  0.380610;0.924736;0.000000;,
  0.269132;0.924736;0.269132;,
  -0.000000;0.924736;0.380610;,
  -0.269132;0.924735;0.269132;,
  -0.380611;0.924735;0.000000;,
  -0.269132;0.924735;-0.269132;,
  -0.000000;0.709230;-0.704977;,
  0.498494;0.709230;-0.498494;,
  0.704977;0.709230;-0.000000;,
  0.498494;0.709230;0.498494;,
  -0.000001;0.709230;0.704977;,
  -0.498494;0.709230;0.498494;,
  -0.704977;0.709230;0.000000;,
  -0.498494;0.709230;-0.498494;,
  -0.000000;0.384550;-0.923104;,
  0.652733;0.384550;-0.652733;,
  0.923104;0.384551;-0.000000;,
  0.652733;0.384550;0.652733;,
  -0.000001;0.384550;0.923104;,
  -0.652733;0.384550;0.652733;,
  -0.923104;0.384550;-0.000000;,
  -0.652733;0.384550;-0.652733;,
  -0.000001;-0.000000;-1.000000;,
  0.707106;-0.000000;-0.707107;,
  1.000000;-0.000000;-0.000000;,
  0.707107;-0.000000;0.707107;,
  -0.000001;-0.000000;1.000000;,
  -0.707107;-0.000000;0.707106;,
  -1.000000;-0.000000;-0.000000;,
  -0.707107;-0.000000;-0.707107;,
  -0.000000;-0.384550;-0.923104;,
  0.652733;-0.384551;-0.652733;,
  0.923104;-0.384551;-0.000000;,
  0.652733;-0.384551;0.652733;,
  -0.000001;-0.384551;0.923104;,
  -0.652733;-0.384551;0.652733;,
  -0.923104;-0.384551;-0.000000;,
  -0.652733;-0.384550;-0.652733;,
  -0.000000;-0.709230;-0.704977;,
  0.498494;-0.709231;-0.498494;,
  0.704976;-0.709231;-0.000000;,
  0.498493;-0.709231;0.498493;,
  -0.000001;-0.709231;0.704976;,
  -0.498494;-0.709231;0.498493;,
  -0.704977;-0.709230;0.000000;,
  -0.498494;-0.709230;-0.498494;,
  -0.000000;-0.924735;-0.380611;,
  0.269132;-0.924735;-0.269132;,
  0.380610;-0.924736;-0.000000;,
  0.269132;-0.924735;0.269132;,
  -0.000000;-0.924735;0.380611;,
  -0.269133;-0.924735;0.269132;,
  -0.380611;-0.924735;0.000000;,
  -0.269133;-0.924735;-0.269132;,
  -0.000000;-1.000000;0.000000;,
  0.000000;0.000000;-1.000000;,
  1.000000;0.000000;0.000000;,
  0.000000;0.000000;1.000000;,
  -1.000000;0.000000;0.000000;,
  0.000000;1.000000;0.000000;,
  0.000000;-1.000000;-0.000000;,
  0.000000;0.365598;-0.930773;,
  0.658156;0.365598;-0.658156;,
  0.930773;0.365598;0.000000;,
  0.658156;0.365598;0.658156;,
  0.000000;0.365598;0.930773;,
  -0.658156;0.365598;0.658156;,
  -0.930773;0.365598;0.000000;,
  -0.658156;0.365598;-0.658156;,
  0.000000;-1.000000;-0.000000;,
  0.000000;-0.399639;-0.916673;,
  0.658156;-0.206869;-0.723903;,
  0.930773;0.258516;-0.258517;,
  0.658158;0.723902;0.206870;,
  0.000000;0.916673;0.399639;,
  -0.658158;0.723902;0.206870;,
  -0.930773;0.258516;-0.258517;,
  -0.658156;-0.206869;-0.723903;,
  0.000000;-0.707107;0.707107;,
  0.258517;0.258517;-0.930773;,
  0.723904;-0.206869;-0.658155;,
  0.916673;-0.399638;-0.000000;,
  0.723904;-0.206869;0.658155;,
  0.258517;0.258517;0.930773;,
  -0.206869;0.723904;0.658155;,
  -0.399638;0.916673;0.000000;,
  -0.206869;0.723904;-0.658155;,
  -0.707107;-0.707107;0.000000;,
  -0.258517;0.258517;-0.930773;,
  0.206869;0.723904;-0.658155;,
  0.399638;0.916673;0.000000;,
  0.206869;0.723904;0.658155;,
  -0.258517;0.258517;0.930773;,
  -0.723902;-0.206868;0.658157;,
  -0.916674;-0.399637;0.000000;,
  -0.723902;-0.206868;-0.658157;,
  0.707106;-0.707107;-0.000000;,
  0.000000;-0.365598;0.930773;,
  0.658156;-0.365598;0.658156;,
  0.930773;-0.365598;-0.000000;,
  0.658156;-0.365598;-0.658156;,
  0.000000;-0.365598;-0.930773;,
  -0.658156;-0.365598;-0.658156;,
  -0.930773;-0.365598;0.000000;,
  -0.658156;-0.365598;0.658156;,
  0.000000;1.000000;0.000000;,
  0.258516;-0.258516;-0.930773;,
  -0.206869;-0.723902;-0.658158;,
  -0.399638;-0.916673;0.000000;,
  -0.206869;-0.723902;0.658158;,
  0.258516;-0.258516;0.930773;,
  0.723903;0.206871;0.658156;,
  0.916672;0.399641;0.000000;,
  0.723903;0.206871;-0.658156;,
  -0.707106;0.707107;0.000000;,
  0.365598;-0.000000;-0.930773;,
  0.365598;-0.658154;-0.658157;,
  0.365599;-0.930772;-0.000000;,
  0.365598;-0.658154;0.658157;,
  0.365598;-0.000000;0.930773;,
  0.365599;0.658153;0.658158;,
  0.365601;0.930772;0.000000;,
  0.365599;0.658153;-0.658158;,
  -1.000000;0.000000;0.000000;,
  0.000000;0.916673;-0.399639;,
  0.658156;0.723903;-0.206869;,
  0.930773;0.258517;0.258517;,
  0.658155;-0.206870;0.723903;,
  0.000000;-0.399639;0.916673;,
  -0.658155;-0.206870;0.723903;,
  -0.930773;0.258517;0.258517;,
  -0.658156;0.723903;-0.206869;,
  0.000000;-0.707107;-0.707106;,
  -0.000304;0.999961;0.008808;,
  0.548555;0.749712;-0.370162;,
  0.912209;0.137343;-0.386021;,
  0.877634;-0.478425;-0.029476;,
  0.465082;-0.736884;0.490612;,
  -0.083774;-0.486634;0.869580;,
  -0.447426;0.125733;0.885439;,
  -0.412851;0.741502;0.528894;,
  -0.635647;-0.359790;-0.683012;,
  -0.479002;0.018230;-0.877625;,
  -0.547099;-0.618036;-0.564548;,
  -0.177078;-0.981255;-0.076037;,
  0.414310;-0.858658;0.301750;,
  0.880635;-0.322060;0.347505;,
  0.948731;0.314205;0.034430;,
  0.578710;0.677424;-0.454082;,
  -0.012677;0.554828;-0.831869;,
  -0.549281;0.415526;0.725003;,
  0.000000;-0.707107;0.707107;,
  0.000002;-0.707109;0.707105;,
  0.000000;-0.707108;0.707105;,
  -0.000002;-0.707105;0.707108;,
  0.000000;-0.707104;0.707109;,
  0.000002;-0.707105;0.707108;,
  -0.000002;-0.707109;0.707105;,
  -0.707107;-0.707107;0.000000;,
  -0.707107;-0.707107;-0.000000;,
  -0.707107;-0.707107;0.000000;,
  -0.707107;-0.707107;0.000000;,
  -0.707107;-0.707107;0.000000;,
  -0.707107;-0.707107;-0.000000;,
  0.707107;-0.707107;-0.000000;,
  0.707107;-0.707107;-0.000000;,
  0.707107;-0.707107;-0.000000;,
  0.707107;-0.707107;0.000000;,
  0.707105;-0.707108;-0.000001;,
  0.707104;-0.707109;-0.000000;,
  0.707105;-0.707108;0.000001;,
  -0.707105;0.707108;0.000000;,
  -0.707108;0.707105;0.000002;,
  -0.707109;0.707104;0.000000;,
  -0.707108;0.707105;-0.000002;,
  -0.707104;0.707110;0.000000;,
  -0.707104;0.707109;0.000000;,
  -0.707104;0.707110;-0.000000;,
  0.000000;-0.707109;-0.707104;,
  0.000001;-0.707108;-0.707105;,
  0.000000;-0.707107;-0.707107;,
  -0.000000;-0.707107;-0.707107;,
  0.000000;-0.707107;-0.707107;,
  0.000000;-0.707107;-0.707107;,
  -0.000001;-0.707108;-0.707105;,
  -0.635646;-0.359789;-0.683013;,
  -0.635646;-0.359788;-0.683013;,
  -0.635647;-0.359789;-0.683012;,
  -0.635646;-0.359790;-0.683012;,
  -0.635647;-0.359790;-0.683011;,
  -0.635647;-0.359790;-0.683011;,
  -0.635647;-0.359790;-0.683011;,
  -0.635647;-0.359790;-0.683011;,
  -0.549280;0.415526;0.725003;,
  -0.549281;0.415526;0.725003;,
  -0.549281;0.415526;0.725003;,
  -0.549282;0.415525;0.725002;,
  -0.549282;0.415526;0.725002;,
  -0.549281;0.415526;0.725003;,
  -0.549281;0.415525;0.725003;,
  -0.549281;0.415526;0.725003;,
  -0.008807;0.999961;-0.000303;,
  0.370162;0.749711;0.548555;,
  0.386020;0.137340;0.912210;,
  0.029476;-0.478426;0.877633;,
  -0.490610;-0.736884;0.465085;,
  -0.869581;-0.486633;-0.083773;,
  -0.885439;0.125734;-0.447425;,
  -0.528894;0.741503;-0.412850;,
  0.683012;-0.359788;-0.635647;,
  0.683012;-0.359792;-0.635645;,
  0.683013;-0.359789;-0.635645;,
  0.683012;-0.359787;-0.635647;,
  0.683012;-0.359787;-0.635648;,
  0.683012;-0.359787;-0.635648;,
  0.683012;-0.359786;-0.635648;,
  0.683011;-0.359788;-0.635648;,
  0.683010;-0.359791;-0.635648;,
  0.000299;0.999961;-0.008806;,
  -0.548557;0.749709;0.370163;,
  -0.912209;0.137344;0.386021;,
  -0.877634;-0.478425;0.029475;,
  -0.465084;-0.736884;-0.490610;,
  0.083770;-0.486636;-0.869579;,
  0.447425;0.125732;-0.885439;,
  0.412850;0.741502;-0.528895;,
  0.635647;-0.359790;0.683011;,
  0.635646;-0.359793;0.683011;,
  0.635647;-0.359791;0.683011;,
  0.635649;-0.359789;0.683010;,
  0.635649;-0.359789;0.683010;,
  0.635647;-0.359788;0.683012;,
  0.635645;-0.359788;0.683014;,
  0.635646;-0.359789;0.683013;,
  0.635646;-0.359791;0.683011;,
  0.008807;0.999961;0.000301;,
  -0.370162;0.749710;-0.548557;,
  -0.386019;0.137341;-0.912210;,
  -0.029474;-0.478427;-0.877632;,
  0.490610;-0.736885;-0.465083;,
  0.869580;-0.486634;0.083774;,
  0.885438;0.125733;0.447427;,
  0.528895;0.741501;0.412851;,
  -0.683012;-0.359788;0.635647;,
  -0.683012;-0.359788;0.635647;,
  -0.683012;-0.359787;0.635647;,
  -0.683012;-0.359787;0.635648;,
  -0.683010;-0.359789;0.635649;,
  -0.683011;-0.359791;0.635646;,
  -0.683013;-0.359788;0.635645;,
  -0.683012;-0.359787;0.635648;,
  -0.683012;-0.359788;0.635647;,
  0.930773;0.000001;0.365598;,
  0.658155;-0.658156;0.365600;,
  0.000000;-0.930772;0.365599;,
  -0.658155;-0.658156;0.365600;,
  -0.930773;0.000001;0.365598;,
  -0.658156;0.658155;0.365598;,
  0.000000;0.930773;0.365599;,
  0.658156;0.658155;0.365598;,
  0.000000;0.000000;-1.000000;,
  -0.365598;0.000001;0.930773;,
  -0.365600;-0.658156;0.658155;,
  -0.365599;-0.930772;0.000000;,
  -0.365600;-0.658156;-0.658155;,
  -0.365598;0.000001;-0.930773;,
  -0.365598;0.658155;-0.658156;,
  -0.365599;0.930773;0.000000;,
  -0.365598;0.658155;0.658156;,
  1.000000;0.000000;0.000000;,
  -0.930773;0.000001;-0.365598;,
  -0.658155;-0.658156;-0.365600;,
  0.000000;-0.930772;-0.365599;,
  0.658155;-0.658156;-0.365600;,
  0.930773;0.000001;-0.365598;,
  0.658156;0.658155;-0.365598;,
  0.000000;0.930773;-0.365599;,
  -0.658156;0.658155;-0.365598;,
  0.000000;0.000000;1.000000;,
  0.877624;0.018231;-0.479002;,
  0.564549;-0.618035;-0.547099;,
  0.076035;-0.981256;-0.177077;,
  -0.301750;-0.858658;0.414310;,
  -0.347505;-0.322060;0.880635;,
  -0.034430;0.314205;0.948731;,
  0.454082;0.677424;0.578710;,
  0.831869;0.554827;-0.012677;,
  -0.725002;0.415525;-0.549282;,
  -0.725001;0.415526;-0.549282;,
  -0.725003;0.415526;-0.549280;,
  -0.725003;0.415523;-0.549282;,
  -0.725002;0.415525;-0.549283;,
  -0.725002;0.415526;-0.549282;,
  -0.725003;0.415526;-0.549281;,
  -0.725003;0.415525;-0.549281;,
  -0.725002;0.415524;-0.549282;,
  0.479003;0.018228;0.877624;,
  0.547100;-0.618037;0.564546;,
  0.177078;-0.981255;0.076036;,
  -0.414312;-0.858658;-0.301749;,
  -0.880636;-0.322058;-0.347504;,
  -0.948731;0.314205;-0.034430;,
  -0.578712;0.677424;0.454080;,
  0.012674;0.554829;0.831868;,
  0.549283;0.415526;-0.725001;,
  0.549282;0.415528;-0.725000;,
  0.549281;0.415527;-0.725002;,
  0.549281;0.415526;-0.725003;,
  0.549283;0.415525;-0.725002;,
  0.549284;0.415525;-0.725000;,
  0.549283;0.415525;-0.725002;,
  0.549285;0.415523;-0.725001;,
  0.549285;0.415526;-0.724999;,
  -0.877624;0.018231;0.479002;,
  -0.564549;-0.618034;0.547099;,
  -0.076037;-0.981255;0.177078;,
  0.301749;-0.858659;-0.414310;,
  0.347504;-0.322059;-0.880635;,
  0.034429;0.314206;-0.948730;,
  -0.454082;0.677424;-0.578710;,
  -0.831869;0.554828;0.012677;,
  0.725001;0.415527;0.549282;,
  0.725001;0.415526;0.549282;,
  0.725002;0.415527;0.549281;,
  0.725001;0.415526;0.549283;,
  0.724999;0.415527;0.549284;,
  0.724999;0.415529;0.549283;,
  0.725001;0.415528;0.549281;,
  0.725003;0.415525;0.549281;,
  0.725002;0.415525;0.549282;,
  0.930773;-0.258517;0.258517;,
  0.658155;-0.723904;-0.206870;,
  0.000000;-0.916672;-0.399639;,
  -0.658155;-0.723904;-0.206870;,
  -0.930773;-0.258517;0.258517;,
  -0.658155;0.206870;0.723903;,
  0.000000;0.399639;0.916673;,
  0.658155;0.206870;0.723903;,
  -0.000000;0.707107;-0.707107;,
  0.000000;0.707107;-0.707107;,
  0.000000;0.707107;-0.707107;,
  0.000000;0.707107;-0.707107;,
  -0.000000;0.707107;-0.707107;,
  -0.000000;0.707107;-0.707107;,
  -0.000000;0.707106;-0.707107;,
  0.000000;0.707107;-0.707107;,
  -0.258516;-0.258516;0.930773;,
  0.206871;-0.723903;0.658156;,
  0.399639;-0.916672;0.000002;,
  0.206870;-0.723905;-0.658154;,
  -0.258518;-0.258518;-0.930772;,
  -0.723905;0.206870;-0.658154;,
  -0.916673;0.399639;0.000002;,
  -0.723902;0.206870;0.658157;,
  0.707107;0.707107;0.000000;,
  0.707107;0.707107;0.000000;,
  0.707107;0.707107;0.000000;,
  0.707106;0.707107;0.000000;,
  0.707107;0.707107;-0.000000;,
  0.707107;0.707107;-0.000000;,
  0.707107;0.707106;0.000000;,
  0.707107;0.707107;0.000000;,
  -0.930773;-0.258516;-0.258516;,
  -0.658156;-0.723903;0.206870;,
  -0.000002;-0.916672;0.399639;,
  0.658156;-0.723904;0.206868;,
  0.930773;-0.258517;-0.258517;,
  0.658156;0.206868;-0.723903;,
  -0.000002;0.399639;-0.916673;,
  -0.658157;0.206870;-0.723902;,
  -0.000000;0.707107;0.707107;,
  0.000000;0.707107;0.707107;,
  -0.000000;0.707107;0.707107;,
  -0.000000;0.707107;0.707106;,
  0.000000;0.707107;0.707107;,
  0.000000;0.707107;0.707107;,
  0.000000;0.707107;0.707107;,
  -0.000000;0.707106;0.707107;,
  -0.000000;0.707107;0.707107;;
  422;
  3;0,2,1;,
  3;0,3,2;,
  3;0,4,3;,
  3;0,5,4;,
  3;0,6,5;,
  3;0,7,6;,
  3;0,8,7;,
  3;0,1,8;,
  4;1,2,10,9;,
  4;2,3,11,10;,
  4;3,4,12,11;,
  4;4,5,13,12;,
  4;5,6,14,13;,
  4;6,7,15,14;,
  4;7,8,16,15;,
  4;8,1,9,16;,
  4;9,10,18,17;,
  4;10,11,19,18;,
  4;11,12,20,19;,
  4;12,13,21,20;,
  4;13,14,22,21;,
  4;14,15,23,22;,
  4;15,16,24,23;,
  4;16,9,17,24;,
  4;17,18,26,25;,
  4;18,19,27,26;,
  4;19,20,28,27;,
  4;20,21,29,28;,
  4;21,22,30,29;,
  4;22,23,31,30;,
  4;23,24,32,31;,
  4;24,17,25,32;,
  4;25,26,34,33;,
  4;26,27,35,34;,
  4;27,28,36,35;,
  4;28,29,37,36;,
  4;29,30,38,37;,
  4;30,31,39,38;,
  4;31,32,40,39;,
  4;32,25,33,40;,
  4;33,34,42,41;,
  4;34,35,43,42;,
  4;35,36,44,43;,
  4;36,37,45,44;,
  4;37,38,46,45;,
  4;38,39,47,46;,
  4;39,40,48,47;,
  4;40,33,41,48;,
  4;41,42,50,49;,
  4;42,43,51,50;,
  4;43,44,52,51;,
  4;44,45,53,52;,
  4;45,46,54,53;,
  4;46,47,55,54;,
  4;47,48,56,55;,
  4;48,41,49,56;,
  3;49,50,57;,
  3;50,51,57;,
  3;51,52,57;,
  3;52,53,57;,
  3;53,54,57;,
  3;54,55,57;,
  3;55,56,57;,
  3;56,49,57;,
  4;58,58,58,58;,
  4;59,59,59,59;,
  4;60,60,60,60;,
  4;61,61,61,61;,
  4;62,62,62,62;,
  4;63,63,63,63;,
  3;64,65,65;,
  3;65,65,66;,
  3;66,67,67;,
  3;67,67,68;,
  3;68,69,69;,
  3;69,69,70;,
  3;70,71,71;,
  3;71,71,64;,
  3;72,72,72;,
  3;72,72,72;,
  3;72,72,72;,
  3;72,72,72;,
  3;72,72,72;,
  3;72,72,72;,
  3;72,72,72;,
  3;72,72,72;,
  3;73,74,74;,
  3;74,74,75;,
  3;75,76,76;,
  3;76,76,77;,
  3;77,78,78;,
  3;78,78,79;,
  3;79,80,80;,
  3;80,80,73;,
  3;81,154,155;,
  3;81,155,156;,
  3;81,156,157;,
  3;81,157,158;,
  3;81,158,159;,
  3;81,159,156;,
  3;81,156,160;,
  3;81,160,154;,
  3;82,83,83;,
  3;83,83,84;,
  3;84,85,85;,
  3;85,85,86;,
  3;86,87,87;,
  3;87,87,88;,
  3;88,89,89;,
  3;89,89,82;,
  3;90,161,162;,
  3;90,162,163;,
  3;90,163,164;,
  3;90,164,161;,
  3;90,161,165;,
  3;90,165,163;,
  3;90,163,166;,
  3;90,166,161;,
  3;91,92,92;,
  3;92,92,93;,
  3;93,94,94;,
  3;94,94,95;,
  3;95,96,96;,
  3;96,96,97;,
  3;97,98,98;,
  3;98,98,91;,
  3;99,167,168;,
  3;99,168,169;,
  3;99,169,170;,
  3;99,170,167;,
  3;99,167,171;,
  3;99,171,172;,
  3;99,172,173;,
  3;99,173,167;,
  3;100,101,101;,
  3;101,101,102;,
  3;102,103,103;,
  3;103,103,104;,
  3;104,105,105;,
  3;105,105,106;,
  3;106,107,107;,
  3;107,107,100;,
  3;108,108,108;,
  3;108,108,108;,
  3;108,108,108;,
  3;108,108,108;,
  3;108,108,108;,
  3;108,108,108;,
  3;108,108,108;,
  3;108,108,108;,
  3;109,110,110;,
  3;110,110,111;,
  3;111,112,112;,
  3;112,112,113;,
  3;113,114,114;,
  3;114,114,115;,
  3;115,116,116;,
  3;116,116,109;,
  3;117,174,175;,
  3;117,175,176;,
  3;117,176,177;,
  3;117,177,174;,
  3;117,174,178;,
  3;117,178,179;,
  3;117,179,180;,
  3;117,180,174;,
  3;118,119,119;,
  3;119,119,120;,
  3;120,121,121;,
  3;121,121,122;,
  3;122,123,123;,
  3;123,123,124;,
  3;124,125,125;,
  3;125,125,118;,
  3;126,126,126;,
  3;126,126,126;,
  3;126,126,126;,
  3;126,126,126;,
  3;126,126,126;,
  3;126,126,126;,
  3;126,126,126;,
  3;126,126,126;,
  3;127,128,128;,
  3;128,128,129;,
  3;129,130,130;,
  3;130,130,131;,
  3;131,132,132;,
  3;132,132,133;,
  3;133,134,134;,
  3;134,134,127;,
  3;135,181,182;,
  3;135,182,183;,
  3;135,183,184;,
  3;135,184,185;,
  3;135,185,186;,
  3;135,186,183;,
  3;135,183,187;,
  3;135,187,181;,
  3;136,137,137;,
  3;137,137,138;,
  3;138,139,139;,
  3;139,139,140;,
  3;140,141,141;,
  3;141,141,142;,
  3;142,143,143;,
  3;143,143,136;,
  3;144,188,189;,
  3;144,189,190;,
  3;144,190,191;,
  3;144,191,192;,
  3;144,192,193;,
  3;144,193,194;,
  3;144,194,195;,
  3;144,195,188;,
  3;145,146,146;,
  3;146,146,147;,
  3;147,148,148;,
  3;148,148,149;,
  3;149,150,150;,
  3;150,150,151;,
  3;151,152,152;,
  3;152,152,145;,
  3;153,196,197;,
  3;153,197,198;,
  3;153,198,199;,
  3;153,199,200;,
  3;153,200,201;,
  3;153,201,202;,
  3;153,202,203;,
  3;153,203,196;,
  3;204,205,205;,
  3;205,205,206;,
  3;206,207,207;,
  3;207,207,208;,
  3;208,209,209;,
  3;209,209,210;,
  3;210,211,211;,
  3;211,211,204;,
  3;212,213,214;,
  3;212,214,215;,
  3;212,215,216;,
  3;212,216,217;,
  3;212,217,218;,
  3;212,218,219;,
  3;212,219,220;,
  3;212,220,213;,
  3;221,222,222;,
  3;222,222,223;,
  3;223,224,224;,
  3;224,224,225;,
  3;225,226,226;,
  3;226,226,227;,
  3;227,228,228;,
  3;228,228,221;,
  3;229,230,231;,
  3;229,231,232;,
  3;229,232,233;,
  3;229,233,234;,
  3;229,234,235;,
  3;229,235,236;,
  3;229,236,237;,
  3;229,237,230;,
  3;238,239,239;,
  3;239,239,240;,
  3;240,241,241;,
  3;241,241,242;,
  3;242,243,243;,
  3;243,243,244;,
  3;244,245,245;,
  3;245,245,238;,
  3;246,247,248;,
  3;246,248,249;,
  3;246,249,250;,
  3;246,250,251;,
  3;246,251,252;,
  3;246,252,253;,
  3;246,253,254;,
  3;246,254,247;,
  3;255,256,256;,
  3;256,256,257;,
  3;257,258,258;,
  3;258,258,259;,
  3;259,260,260;,
  3;260,260,261;,
  3;261,262,262;,
  3;262,262,255;,
  3;263,263,263;,
  3;263,263,263;,
  3;263,263,263;,
  3;263,263,263;,
  3;263,263,263;,
  3;263,263,263;,
  3;263,263,263;,
  3;263,263,263;,
  3;264,265,265;,
  3;265,265,266;,
  3;266,267,267;,
  3;267,267,268;,
  3;268,269,269;,
  3;269,269,270;,
  3;270,271,271;,
  3;271,271,264;,
  3;272,272,272;,
  3;272,272,272;,
  3;272,272,272;,
  3;272,272,272;,
  3;272,272,272;,
  3;272,272,272;,
  3;272,272,272;,
  3;272,272,272;,
  3;273,274,274;,
  3;274,274,275;,
  3;275,276,276;,
  3;276,276,277;,
  3;277,278,278;,
  3;278,278,279;,
  3;279,280,280;,
  3;280,280,273;,
  3;281,281,281;,
  3;281,281,281;,
  3;281,281,281;,
  3;281,281,281;,
  3;281,281,281;,
  3;281,281,281;,
  3;281,281,281;,
  3;281,281,281;,
  3;282,283,283;,
  3;283,283,284;,
  3;284,285,285;,
  3;285,285,286;,
  3;286,287,287;,
  3;287,287,288;,
  3;288,289,289;,
  3;289,289,282;,
  3;290,291,292;,
  3;290,292,293;,
  3;290,293,294;,
  3;290,294,295;,
  3;290,295,296;,
  3;290,296,297;,
  3;290,297,298;,
  3;290,298,291;,
  3;299,300,300;,
  3;300,300,301;,
  3;301,302,302;,
  3;302,302,303;,
  3;303,304,304;,
  3;304,304,305;,
  3;305,306,306;,
  3;306,306,299;,
  3;307,308,309;,
  3;307,309,310;,
  3;307,310,311;,
  3;307,311,312;,
  3;307,312,313;,
  3;307,313,314;,
  3;307,314,315;,
  3;307,315,308;,
  3;316,317,317;,
  3;317,317,318;,
  3;318,319,319;,
  3;319,319,320;,
  3;320,321,321;,
  3;321,321,322;,
  3;322,323,323;,
  3;323,323,316;,
  3;324,325,326;,
  3;324,326,327;,
  3;324,327,328;,
  3;324,328,329;,
  3;324,329,330;,
  3;324,330,331;,
  3;324,331,332;,
  3;324,332,325;,
  3;333,334,334;,
  3;334,334,335;,
  3;335,336,336;,
  3;336,336,337;,
  3;337,338,338;,
  3;338,338,339;,
  3;339,340,340;,
  3;340,340,333;,
  3;341,342,343;,
  3;341,343,344;,
  3;341,344,345;,
  3;341,345,342;,
  3;341,342,346;,
  3;341,346,347;,
  3;341,347,348;,
  3;341,348,342;,
  3;349,350,350;,
  3;350,350,351;,
  3;351,352,352;,
  3;352,352,353;,
  3;353,354,354;,
  3;354,354,355;,
  3;355,356,356;,
  3;356,356,349;,
  3;357,358,359;,
  3;357,359,360;,
  3;357,360,361;,
  3;357,361,358;,
  3;357,358,362;,
  3;357,362,363;,
  3;357,363,364;,
  3;357,364,358;,
  3;365,366,366;,
  3;366,366,367;,
  3;367,368,368;,
  3;368,368,369;,
  3;369,370,370;,
  3;370,370,371;,
  3;371,372,372;,
  3;372,372,365;,
  3;373,374,375;,
  3;373,375,376;,
  3;373,376,377;,
  3;373,377,378;,
  3;373,378,379;,
  3;373,379,380;,
  3;373,380,381;,
  3;373,381,374;;
 }
}
